1=1=0=1
1=1=0=1
1=1=0=1
1=1=0=1
1=1=0=1
1=1=0=1
1=1=0=1
1=1=0=1
1=1=0=1
1=1=0=1
1=1=0=1
1=1=0=1
1=1=0=1
1=1=0=1
1=1=0=1
1=1=0=1
1=1=0=1
1=1=0=1
1=1=0=1
1=1=0=1
1=1=0=1
1=1=0=1
1=1=0=1
1=1=0=1
1=1=0=1
1=1=0=1
1=1=0=1
1=1=0=1
1=1=0=1
1=1=0=1
1=1=0=1
1=1=0=1
1=1=0=1
1=1=0=1
1=1=0=1
1=1=0=1
1=1=0=1
1=1=0=1
1=1=0=1
1=1=0=1
1=1=0=1
1=1=0=1
1=1=0=1
1=1=0=1
1=1=0=1
1=1=0=1
1=1=0=1
1=1=0=1
1=1=0=1
1=1=0=1
1=1=0=1
1=1=0=1
1=1=0=1
1=1=0=1
1=1=0=1
1=1=0=1
1=1=0=1
1=1=0=1
1=1=0=1
1=1=0=1
1=1=0=1
1=1=0=1
1=1=0=1
1=1=0=1
1=1=0=1
1=1=0=1
1=1=0=1
1=1=0=1
1=1=0=1
1=1=0=1
1=1=0=1
1=1=0=1
1=1=0=1
1=1=0=1
1=1=0=1
1=1=0=1
1=1=0=1
1=1=0=1
1=1=0=1
1=1=0=1
1=1=0=1
1=1=0=1
1=1=0=1
1=1=0=1
1=1=0=1
1=1=0=1
1=1=0=1
1=1=0=1
1=1=0=1
1=1=0=1
1=1=0=1
1=1=0=1
1=1=0=1
1=1=0=1
1=1=0=1
1=1=0=1
1=1=0=1
1=1=0=1
1=1=0=1
1=1=0=1
1=1=0=1
1=1=0=1
1=1=0=1
1=1=0=1
1=1=0=1
1=1=0=1
1=1=0=1
1=1=0=1
1=1=0=1
1=1=0=1
1=1=0=1
1=1=0=1
1=1=0=1
1=1=0=1
1=1=0=1
1=1=0=1
1=1=0=1
1=1=0=1
1=1=0=1
1=1=0=1
1=1=0=1
1=1=0=1
1=1=0=1
1=1=0=1
1=1=0=1
1=1=0=1
1=1=0=1
1=1=0=1
1=1=0=1
1=1=0=1
1=1=0=1
1=1=0=1
1=1=0=1
1=1=0=1
1=1=0=1
1=1=0=1
1=1=0=1
1=1=0=1
1=1=0=1
1=1=0=1
1=1=0=1
1=1=0=1
1=1=0=1
1=1=0=1
1=1=0=1
1=1=0=1
1=1=0=1
1=1=0=1
1=1=0=1
1=1=0=1
1=1=0=1
1=1=0=1
1=1=0=1
1=1=0=1
1=1=0=1
1=1=0=1
1=1=0=1
1=1=0=1
1=1=0=1
1=1=0=1
1=1=0=1
1=1=0=1
1=1=0=1
1=1=0=1
1=1=0=1
1=1=0=1
1=1=0=1
1=1=0=1
1=1=0=1
1=1=0=1
1=1=0=1
1=1=0=1
1=1=0=1
1=1=0=1
1=1=0=1
1=1=0=1
1=1=0=1
1=1=0=1
1=1=0=1
1=1=0=1
1=1=0=1
1=1=0=1
1=1=0=1
1=1=0=1
1=1=0=1
1=1=0=1
1=1=0=1
1=1=0=1
1=1=0=1
1=1=0=1
1=1=0=1
1=1=0=1
1=1=0=1
1=1=0=1
1=1=0=1
1=1=0=1
1=1=0=1
1=1=0=1
1=1=0=1
1=1=0=1
1=1=0=1
1=1=0=1
1=1=0=1
1=1=0=1
1=1=0=1
1=1=0=1
1=1=0=1
1=1=0=1
1=1=0=1
1=1=0=1
1=1=0=1
1=1=0=1
1=1=0=1
1=1=0=1
1=1=0=1
1=1=0=1
1=1=0=1
1=1=0=1
1=1=0=1
1=1=0=1
1=1=0=1
1=1=0=1
1=1=0=1
1=1=0=1
1=1=0=1
1=1=0=1
1=1=0=1
1=1=0=1
1=1=0=1
1=1=0=1
1=1=0=1
1=1=0=1
1=1=0=1
1=1=0=1
1=1=0=1
1=1=0=1
1=1=0=1
1=1=0=1
1=1=0=1
1=1=0=1
1=1=0=1
1=1=0=1
1=1=0=1
1=1=0=1
1=1=0=1
1=1=0=1
1=1=0=1
1=1=0=1
1=1=0=1
1=1=0=1
1=1=0=1
1=1=0=1
1=1=0=1
1=1=0=1
1=1=0=1
1=1=0=1
1=1=0=1
1=1=0=1
1=1=0=1
1=1=0=1
1=1=0=1
1=1=0=1
1=1=0=1
1=1=0=1
1=1=0=1
1=1=0=1
1=1=0=1
1=1=0=1
1=1=0=1
1=1=0=1
1=1=0=1
1=1=0=1
1=1=0=1
1=1=0=1
1=1=0=1
1=1=0=1
1=1=0=1
1=1=0=1
1=1=0=1
1=1=0=1
1=1=0=1
1=1=0=1
1=1=0=1
1=1=0=1
1=1=0=1
1=1=0=1
1=1=0=1
1=1=0=1
1=1=0=1
1=1=0=1
1=1=0=1
1=1=0=1
1=1=0=1
1=1=0=1
1=1=0=1
1=1=0=1
1=1=0=1
1=1=0=1
1=1=0=1
1=1=0=1
1=1=0=1
1=1=0=1
1=1=0=1
1=1=0=1
1=1=0=1
1=1=0=1
1=1=0=1
1=1=0=1
1=1=0=1
1=1=0=1
1=1=0=1
1=1=0=1
1=1=0=1
1=1=0=1
1=1=0=1
1=1=0=1
1=1=0=1
1=1=0=1
1=1=0=1
1=1=0=1
1=1=0=1
1=1=0=1
1=1=0=1
1=1=0=1
1=1=0=1
1=1=0=1
1=1=0=1
1=1=0=1
1=1=0=1
1=1=0=1
1=1=0=1
3=1=0=0
3=1=0=0
3=1=0=0
3=1=0=0
3=1=0=0
3=1=0=0
3=1=0=0
3=1=0=0
3=1=0=0
3=1=0=0
3=1=0=0
3=1=0=0
3=1=0=0/52=4=0=28
1=1=0=1
1=1=0=1
1=1=0=1
1=1=0=1
1=1=0=1
1=1=0=1
1=1=0=1
1=1=0=1
1=1=0=1
1=1=0=1
1=1=0=1
1=1=0=1
1=1=0=1
1=1=0=1
1=1=0=1
1=1=0=1
1=1=0=1
1=1=0=1
1=1=0=1
1=1=0=1
1=1=0=1
1=1=0=1
1=1=0=1
1=1=0=1
1=1=0=1
1=1=0=1
1=1=0=1
1=1=0=1
1=1=0=1
1=1=0=1
1=1=0=1
1=1=0=1
1=1=0=1
1=1=0=1
1=1=0=1
1=1=0=1
1=1=0=1
1=1=0=1
1=1=0=1
1=1=0=1
1=1=0=1
1=1=0=1
1=1=0=1
1=1=0=1
1=1=0=1
1=1=0=1
1=1=0=1
3=1=0=0/30=5=0=4
3=1=0=0/56=4=0=32
3=1=0=0
3=1=0=0
3=1=0=0
3=1=0=0
3=1=0=0
3=1=0=0
3=1=0=0
3=1=0=0
3=1=0=0
3=1=0=0
3=1=0=0
1=1=0=1
1=1=0=1
1=1=0=1
1=1=0=1
1=1=0=1
1=1=0=1
1=1=0=1
1=1=0=1
1=1=0=1
1=1=0=1
1=1=0=1
1=1=0=1
1=1=0=1
1=1=0=1
1=1=0=1
1=1=0=1
1=1=0=1
1=1=0=1
1=1=0=1
1=1=0=1
1=1=0=1
1=1=0=1
1=1=0=1
1=1=0=1
1=1=0=1
1=1=0=1
1=1=0=1
1=1=0=1
1=1=0=1
1=1=0=1
1=1=0=1
1=1=0=1
1=1=0=1
1=1=0=1
1=1=0=1
1=1=0=1
1=1=0=1
1=1=0=1
1=1=0=1
1=1=0=1
1=1=0=1
1=1=0=1
1=1=0=1
1=1=0=1
1=1=0=1
1=1=0=1
1=1=0=1
3=1=0=0
3=1=0=0
21=1=0=1/27=3=0=2/29=5=0=3
3=1=0=0
3=1=0=0
3=1=0=0
3=1=0=0
3=1=0=0
3=1=0=0/38=7=0=11
3=1=0=0
3=1=0=0
3=1=0=0
3=1=0=0
1=1=0=1
1=1=0=1
1=1=0=1
1=1=0=1
1=1=0=1
1=1=0=1
1=1=0=1
1=1=0=1
1=1=0=1
1=1=0=1
1=1=0=1
1=1=0=1
1=1=0=1
1=1=0=1
1=1=0=1
1=1=0=1
1=1=0=1
1=1=0=1
1=1=0=1
1=1=0=1
1=1=0=1
1=1=0=1
1=1=0=1
1=1=0=1
1=1=0=1
1=1=0=1
1=1=0=1
1=1=0=1
1=1=0=1
1=1=0=1
1=1=0=1
1=1=0=1
1=1=0=1
1=1=0=1
1=1=0=1
1=1=0=1
1=1=0=1
1=1=0=1
1=1=0=1
1=1=0=1
1=1=0=1
1=1=0=1
1=1=0=1
1=1=0=1
1=1=0=1
1=1=0=1
1=1=0=1
3=1=0=0
3=1=0=0
1=1=0=1
3=1=0=0
3=1=0=0
3=1=0=0
3=1=0=0
3=1=0=0
3=1=0=0
3=1=0=0
3=1=0=0
3=1=0=0
3=1=0=0
1=1=0=1
1=1=0=1
1=1=0=1
1=1=0=1
1=1=0=1
1=1=0=1
1=1=0=1
1=1=0=1
1=1=0=1
1=1=0=1
1=1=0=1
1=1=0=1
1=1=0=1
1=1=0=1
1=1=0=1
1=1=0=1
1=1=0=1
1=1=0=1
1=1=0=1
1=1=0=1
1=1=0=1
1=1=0=1
1=1=0=1
1=1=0=1
1=1=0=1
1=1=0=1
1=1=0=1
1=1=0=1
1=1=0=1
1=1=0=1
1=1=0=1
1=1=0=1
1=1=0=1
1=1=0=1
1=1=0=1
1=1=0=1
1=1=0=1
1=1=0=1
1=1=0=1
1=1=0=1
1=1=0=1
1=1=0=1
1=1=0=1
1=1=0=1
1=1=0=1
1=1=0=1
1=1=0=1
3=1=0=0
3=1=0=0
3=1=0=0
1=1=0=1
3=1=0=0/33=2=0=25
1=1=0=1
3=1=0=0
3=1=0=0
3=1=0=0
3=1=0=0
3=1=0=0
3=1=0=0
3=1=0=0
1=1=0=1
1=1=0=1
1=1=0=1
1=1=0=1
1=1=0=1
1=1=0=1
1=1=0=1
1=1=0=1
1=1=0=1
1=1=0=1
1=1=0=1
1=1=0=1
1=1=0=1
1=1=0=1
1=1=0=1
1=1=0=1
1=1=0=1
1=1=0=1
1=1=0=1
1=1=0=1
1=1=0=1
1=1=0=1
1=1=0=1
1=1=0=1
1=1=0=1
1=1=0=1
1=1=0=1
1=1=0=1
1=1=0=1
1=1=0=1
1=1=0=1
1=1=0=1
1=1=0=1
1=1=0=1
1=1=0=1
1=1=0=1
1=1=0=1
1=1=0=1
1=1=0=1
1=1=0=1
1=1=0=1
1=1=0=1
1=1=0=1
1=1=0=1
1=1=0=1
1=1=0=1
1=1=0=1
3=1=0=0
3=1=0=0
3=1=0=0
1=1=0=1
3=1=0=0
1=1=0=1
3=1=0=0
3=1=0=0
3=1=0=0
3=1=0=0
3=1=0=0
3=1=0=0
3=1=0=0
1=1=0=1
1=1=0=1
1=1=0=1
1=1=0=1
1=1=0=1
1=1=0=1
1=1=0=1
1=1=0=1
1=1=0=1
1=1=0=1
1=1=0=1
1=1=0=1
1=1=0=1
1=1=0=1
1=1=0=1
1=1=0=1
1=1=0=1
1=1=0=1
1=1=0=1
1=1=0=1
1=1=0=1
1=1=0=1
1=1=0=1
1=1=0=1
1=1=0=1
1=1=0=1
1=1=0=1
1=1=0=1
1=1=0=1
1=1=0=1
1=1=0=1
1=1=0=1
1=1=0=1
1=1=0=1
1=1=0=1
1=1=0=1
1=1=0=1
1=1=0=1
1=1=0=1
1=1=0=1
1=1=0=1
1=1=0=1
1=1=0=1
1=1=0=1
1=1=0=1
1=1=0=1
1=1=0=1
3=1=0=0
3=1=0=0
3=1=0=0
1=1=0=1
21=1=0=1/51=3=0=27
1=1=0=1
3=1=0=0
3=1=0=0
3=1=0=0
3=1=0=0
3=1=0=0
3=1=0=0
3=1=0=0
1=1=0=1
1=1=0=1
1=1=0=1
1=1=0=1
1=1=0=1
1=1=0=1
1=1=0=1
1=1=0=1
1=1=0=1
1=1=0=1
1=1=0=1
1=1=0=1
1=1=0=1
1=1=0=1
1=1=0=1
1=1=0=1
1=1=0=1
1=1=0=1
1=1=0=1
1=1=0=1
1=1=0=1
1=1=0=1
1=1=0=1
1=1=0=1
1=1=0=1
1=1=0=1
1=1=0=1
1=1=0=1
1=1=0=1
1=1=0=1
1=1=0=1
1=1=0=1
1=1=0=1
1=1=0=1
1=1=0=1
1=1=0=1
1=1=0=1
1=1=0=1
1=1=0=1
1=1=0=1
1=1=0=1
1=1=0=1
1=1=0=1
1=1=0=1
1=1=0=1
1=1=0=1
1=1=0=1
3=1=0=0
3=1=0=0
3=1=0=0
1=1=0=1
1=1=0=1
1=1=0=1
3=1=0=0
3=1=0=0
3=1=0=0
3=1=0=0
3=1=0=0
3=1=0=0
3=1=0=0
1=1=0=1
1=1=0=1
1=1=0=1
1=1=0=1
1=1=0=1
1=1=0=1
1=1=0=1
1=1=0=1
1=1=0=1
1=1=0=1
1=1=0=1
1=1=0=1
1=1=0=1
1=1=0=1
1=1=0=1
1=1=0=1
1=1=0=1
1=1=0=1
1=1=0=1
1=1=0=1
1=1=0=1
1=1=0=1
1=1=0=1
1=1=0=1
1=1=0=1
1=1=0=1
1=1=0=1
1=1=0=1
1=1=0=1
1=1=0=1
1=1=0=1
1=1=0=1
1=1=0=1
1=1=0=1
1=1=0=1
1=1=0=1
1=1=0=1
1=1=0=1
1=1=0=1
1=1=0=1
1=1=0=1
1=1=0=1
1=1=0=1
1=1=0=1
1=1=0=1
1=1=0=1
1=1=0=1
3=1=0=0
3=1=0=0
3=1=0=0
3=1=0=0
3=1=0=0
3=1=0=0
3=1=0=0
3=1=0=0
3=1=0=0/57=8=0=33
3=1=0=0
3=1=0=0
3=1=0=0
3=1=0=0
1=1=0=1
1=1=0=1
1=1=0=1
1=1=0=1
1=1=0=1
1=1=0=1
1=1=0=1
1=1=0=1
1=1=0=1
1=1=0=1
1=1=0=1
1=1=0=1
1=1=0=1
1=1=0=1
1=1=0=1
1=1=0=1
1=1=0=1
1=1=0=1
1=1=0=1
1=1=0=1
1=1=0=1
1=1=0=1
1=1=0=1
1=1=0=1
1=1=0=1
1=1=0=1
1=1=0=1
1=1=0=1
1=1=0=1
1=1=0=1
1=1=0=1
1=1=0=1
1=1=0=1
1=1=0=1
1=1=0=1
1=1=0=1
1=1=0=1
1=1=0=1
1=1=0=1
1=1=0=1
1=1=0=1
1=1=0=1
1=1=0=1
1=1=0=1
1=1=0=1
1=1=0=1
1=1=0=1
3=1=0=0
3=1=0=0
3=1=0=0
3=1=0=0
3=1=0=0
3=1=0=0
3=1=0=0
3=1=0=0
3=1=0=0
3=1=0=0
3=1=0=0
3=1=0=0
3=1=0=0
1=1=0=1
1=1=0=1
1=1=0=1
1=1=0=1
1=1=0=1
1=1=0=1
1=1=0=1
1=1=0=1
1=1=0=1
1=1=0=1
1=1=0=1
1=1=0=1
1=1=0=1
1=1=0=1
1=1=0=1
1=1=0=1
1=1=0=1
1=1=0=1
1=1=0=1
1=1=0=1
1=1=0=1
1=1=0=1
1=1=0=1
1=1=0=1
1=1=0=1
1=1=0=1
1=1=0=1
1=1=0=1
1=1=0=1
1=1=0=1
1=1=0=1
1=1=0=1
1=1=0=1
1=1=0=1
1=1=0=1
1=1=0=1
1=1=0=1
1=1=0=1
1=1=0=1
1=1=0=1
1=1=0=1
1=1=0=1
1=1=0=1
1=1=0=1
1=1=0=1
1=1=0=1
1=1=0=1
21=1=0=1
21=1=0=1
21=1=0=1
21=1=0=1
21=1=0=1
21=1=0=1
21=1=0=1
3=1=0=0/24=2=0=16/54=3=0=30
21=1=0=1
21=1=0=1
21=1=0=1
21=1=0=1
21=1=0=1
1=1=0=1
1=1=0=1
1=1=0=1
1=1=0=1
1=1=0=1
1=1=0=1
1=1=0=1
1=1=0=1
1=1=0=1
1=1=0=1
1=1=0=1
1=1=0=1
1=1=0=1
1=1=0=1
1=1=0=1
1=1=0=1
1=1=0=1
1=1=0=1
1=1=0=1
1=1=0=1
1=1=0=1
1=1=0=1
1=1=0=1
1=1=0=1
1=1=0=1
1=1=0=1
1=1=0=1
1=1=0=1
1=1=0=1
1=1=0=1
1=1=0=1
1=1=0=1
1=1=0=1
1=1=0=1
1=1=0=1
1=1=0=1
1=1=0=1
1=1=0=1
1=1=0=1
1=1=0=1
1=1=0=1
1=1=0=1
1=1=0=1
1=1=0=1
1=1=0=1
1=1=0=1
1=1=0=1
1=1=0=1
1=1=0=1
1=1=0=1
1=1=0=1
1=1=0=1
1=1=0=1
1=1=0=1
42=1=0=17/39=7=0=12
1=1=0=1
1=1=0=1
1=1=0=1
1=1=0=1
1=1=0=1
1=1=0=1
1=1=0=1
1=1=0=1
1=1=0=1
1=1=0=1
1=1=0=1
1=1=0=1
1=1=0=1
1=1=0=1
1=1=0=1
1=1=0=1
1=1=0=1
1=1=0=1
1=1=0=1
1=1=0=1
1=1=0=1
1=1=0=1
1=1=0=1
1=1=0=1
1=1=0=1
1=1=0=1
1=1=0=1
1=1=0=1
1=1=0=1
1=1=0=1
1=1=0=1
1=1=0=1
1=1=0=1
1=1=0=1
1=1=0=1
1=1=0=1
1=1=0=1
1=1=0=1
1=1=0=1
1=1=0=1
1=1=0=1
1=1=0=1
1=1=0=1
1=1=0=1
1=1=0=1
1=1=0=1
1=1=0=1
1=1=0=1
1=1=0=1
1=1=0=1
1=1=0=1
1=1=0=1
1=1=0=1
1=1=0=1
1=1=0=1
1=1=0=1
1=1=0=1
1=1=0=1
1=1=0=1
1=1=0=1
1=1=0=1
1=1=0=1
1=1=0=1
1=1=0=1
1=1=0=1
1=1=0=1
1=1=0=1
1=1=0=1
1=1=0=1
1=1=0=1
1=1=0=1
1=1=0=1
1=1=0=1
1=1=0=1
1=1=0=1
1=1=0=1
1=1=0=1
1=1=0=1
1=1=0=1
1=1=0=1
1=1=0=1
1=1=0=1
1=1=0=1
1=1=0=1
1=1=0=1
1=1=0=1
1=1=0=1
1=1=0=1
1=1=0=1
1=1=0=1
1=1=0=1
1=1=0=1
1=1=0=1
1=1=0=1
1=1=0=1
1=1=0=1
1=1=0=1
1=1=0=1
1=1=0=1
1=1=0=1
1=1=0=1
1=1=0=1
1=1=0=1
1=1=0=1
1=1=0=1
1=1=0=1
1=1=0=1
1=1=0=1
1=1=0=1
1=1=0=1
1=1=0=1
1=1=0=1
1=1=0=1
1=1=0=1
1=1=0=1
1=1=0=1
1=1=0=1
1=1=0=1
1=1=0=1
1=1=0=1
1=1=0=1
1=1=0=1
1=1=0=1
1=1=0=1
1=1=0=1
1=1=0=1
1=1=0=1
1=1=0=1
1=1=0=1
1=1=0=1
1=1=0=1
1=1=0=1
1=1=0=1
1=1=0=1
1=1=0=1
1=1=0=1
1=1=0=1
1=1=0=1
1=1=0=1
1=1=0=1
1=1=0=1
1=1=0=1
1=1=0=1
1=1=0=1
1=1=0=1
1=1=0=1
1=1=0=1
1=1=0=1
1=1=0=1
1=1=0=1
1=1=0=1
1=1=0=1
1=1=0=1
1=1=0=1
1=1=0=1
1=1=0=1
1=1=0=1
1=1=0=1
1=1=0=1
1=1=0=1
1=1=0=1
1=1=0=1
1=1=0=1
1=1=0=1
1=1=0=1
1=1=0=1
1=1=0=1
1=1=0=1
1=1=0=1
1=1=0=1
1=1=0=1
1=1=0=1
1=1=0=1
1=1=0=1
1=1=0=1
1=1=0=1
1=1=0=1
1=1=0=1
1=1=0=1
1=1=0=1
1=1=0=1
1=1=0=1
1=1=0=1
1=1=0=1
1=1=0=1
1=1=0=1
1=1=0=1
1=1=0=1
1=1=0=1
1=1=0=1
1=1=0=1
1=1=0=1
1=1=0=1
1=1=0=1
1=1=0=1
1=1=0=1
1=1=0=1
1=1=0=1
1=1=0=1
1=1=0=1
1=1=0=1
1=1=0=1
1=1=0=1
1=1=0=1
1=1=0=1
1=1=0=1
1=1=0=1
1=1=0=1
1=1=0=1
1=1=0=1
1=1=0=1
1=1=0=1
1=1=0=1
1=1=0=1
1=1=0=1
1=1=0=1
1=1=0=1
1=1=0=1
1=1=0=1
1=1=0=1
1=1=0=1
1=1=0=1
1=1=0=1
1=1=0=1
1=1=0=1
1=1=0=1
1=1=0=1
1=1=0=1
1=1=0=1
1=1=0=1
1=1=0=1
1=1=0=1
1=1=0=1
1=1=0=1
1=1=0=1
1=1=0=1
1=1=0=1
1=1=0=1
1=1=0=1
1=1=0=1
1=1=0=1
1=1=0=1
1=1=0=1
1=1=0=1
1=1=0=1
1=1=0=1
1=1=0=1
1=1=0=1
1=1=0=1
1=1=0=1
1=1=0=1
1=1=0=1
1=1=0=1
1=1=0=1
1=1=0=1
1=1=0=1
1=1=0=1
1=1=0=1
1=1=0=1
1=1=0=1
1=1=0=1
1=1=0=1
1=1=0=1
1=1=0=1
1=1=0=1
1=1=0=1
1=1=0=1
1=1=0=1
1=1=0=1
1=1=0=1
1=1=0=1
1=1=0=1
1=1=0=1
1=1=0=1
1=1=0=1
1=1=0=1
1=1=0=1
1=1=0=1
1=1=0=1
1=1=0=1
1=1=0=1
1=1=0=1
1=1=0=1
1=1=0=1
1=1=0=1
1=1=0=1
1=1=0=1
1=1=0=1
1=1=0=1
1=1=0=1
1=1=0=1
1=1=0=1
1=1=0=1
1=1=0=1
1=1=0=1
1=1=0=1
1=1=0=1
1=1=0=1
1=1=0=1
1=1=0=1
1=1=0=1
1=1=0=1
1=1=0=1
1=1=0=1
1=1=0=1
1=1=0=1
1=1=0=1
1=1=0=1
1=1=0=1
1=1=0=1
1=1=0=1
1=1=0=1
1=1=0=1
1=1=0=1
1=1=0=1
1=1=0=1
1=1=0=1
1=1=0=1
1=1=0=1
1=1=0=1
1=1=0=1
1=1=0=1
1=1=0=1
1=1=0=1
1=1=0=1
1=1=0=1
1=1=0=1
1=1=0=1
1=1=0=1
1=1=0=1
1=1=0=1
1=1=0=1
1=1=0=1
1=1=0=1
1=1=0=1
1=1=0=1
1=1=0=1
1=1=0=1
1=1=0=1
1=1=0=1
1=1=0=1
1=1=0=1
1=1=0=1
1=1=0=1
1=1=0=1
1=1=0=1
1=1=0=1
1=1=0=1
1=1=0=1
1=1=0=1
1=1=0=1
1=1=0=1
1=1=0=1
1=1=0=1
1=1=0=1
1=1=0=1
1=1=0=1
1=1=0=1
1=1=0=1
1=1=0=1
1=1=0=1
1=1=0=1
1=1=0=1
1=1=0=1
1=1=0=1
1=1=0=1
1=1=0=1
1=1=0=1
1=1=0=1
1=1=0=1
1=1=0=1
1=1=0=1
1=1=0=1
1=1=0=1
1=1=0=1
1=1=0=1
1=1=0=1
1=1=0=1
1=1=0=1
1=1=0=1
1=1=0=1
1=1=0=1
1=1=0=1
1=1=0=1
1=1=0=1
1=1=0=1
1=1=0=1
1=1=0=1
1=1=0=1
1=1=0=1
1=1=0=1
1=1=0=1
1=1=0=1
1=1=0=1
1=1=0=1
1=1=0=1
1=1=0=1
1=1=0=1
1=1=0=1
1=1=0=1
1=1=0=1
1=1=0=1
1=1=0=1
1=1=0=1
1=1=0=1
1=1=0=1
1=1=0=1
1=1=0=1
1=1=0=1
1=1=0=1
1=1=0=1
1=1=0=1
1=1=0=1
1=1=0=1
1=1=0=1
1=1=0=1
1=1=0=1
1=1=0=1
1=1=0=1
1=1=0=1
1=1=0=1
1=1=0=1
1=1=0=1
1=1=0=1
1=1=0=1
1=1=0=1
1=1=0=1
1=1=0=1
1=1=0=1
1=1=0=1
1=1=0=1
1=1=0=1
1=1=0=1
1=1=0=1
1=1=0=1
1=1=0=1
1=1=0=1
1=1=0=1
1=1=0=1
1=1=0=1
1=1=0=1
1=1=0=1
1=1=0=1
1=1=0=1
1=1=0=1
1=1=0=1
1=1=0=1
1=1=0=1
1=1=0=1
1=1=0=1
1=1=0=1
1=1=0=1
1=1=0=1
1=1=0=1
1=1=0=1
1=1=0=1
1=1=0=1
1=1=0=1
1=1=0=1
1=1=0=1
1=1=0=1
1=1=0=1
1=1=0=1
1=1=0=1
1=1=0=1
1=1=0=1
1=1=0=1
1=1=0=1
1=1=0=1
1=1=0=1
1=1=0=1
1=1=0=1
1=1=0=1
1=1=0=1
1=1=0=1
1=1=0=1
1=1=0=1
1=1=0=1
1=1=0=1
1=1=0=1
1=1=0=1
1=1=0=1
1=1=0=1
1=1=0=1
1=1=0=1
1=1=0=1
1=1=0=1
1=1=0=1
1=1=0=1
1=1=0=1
1=1=0=1
1=1=0=1
1=1=0=1
1=1=0=1
1=1=0=1
1=1=0=1
1=1=0=1
1=1=0=1
1=1=0=1
1=1=0=1
1=1=0=1
1=1=0=1
1=1=0=1
1=1=0=1
1=1=0=1
1=1=0=1
1=1=0=1
1=1=0=1
1=1=0=1
1=1=0=1
1=1=0=1
1=1=0=1
1=1=0=1
1=1=0=1
1=1=0=1
1=1=0=1
1=1=0=1
1=1=0=1
1=1=0=1
1=1=0=1
1=1=0=1
1=1=0=1
1=1=0=1
1=1=0=1
1=1=0=1
1=1=0=1
1=1=0=1
1=1=0=1
1=1=0=1
1=1=0=1
1=1=0=1
1=1=0=1
1=1=0=1
1=1=0=1
1=1=0=1
1=1=0=1
1=1=0=1
1=1=0=1
1=1=0=1
1=1=0=1
1=1=0=1
1=1=0=1
1=1=0=1
1=1=0=1
1=1=0=1
1=1=0=1
1=1=0=1
1=1=0=1
1=1=0=1
1=1=0=1
1=1=0=1
1=1=0=1
1=1=0=1
1=1=0=1
1=1=0=1
1=1=0=1
1=1=0=1
1=1=0=1
1=1=0=1
1=1=0=1
1=1=0=1
1=1=0=1
1=1=0=1
1=1=0=1
1=1=0=1
1=1=0=1
1=1=0=1
1=1=0=1
1=1=0=1
1=1=0=1
1=1=0=1
1=1=0=1
1=1=0=1
1=1=0=1
1=1=0=1
1=1=0=1
1=1=0=1
1=1=0=1
1=1=0=1
1=1=0=1
1=1=0=1
1=1=0=1
1=1=0=1
1=1=0=1
1=1=0=1
1=1=0=1
1=1=0=1
1=1=0=1
1=1=0=1
1=1=0=1
1=1=0=1
1=1=0=1
1=1=0=1
1=1=0=1
1=1=0=1
1=1=0=1
1=1=0=1
1=1=0=1
1=1=0=1
1=1=0=1
1=1=0=1
1=1=0=1
1=1=0=1
1=1=0=1
1=1=0=1
1=1=0=1
1=1=0=1
1=1=0=1
1=1=0=1
1=1=0=1
1=1=0=1
1=1=0=1
1=1=0=1
1=1=0=1
1=1=0=1
1=1=0=1
1=1=0=1
1=1=0=1
1=1=0=1
1=1=0=1
1=1=0=1
1=1=0=1
1=1=0=1
1=1=0=1
1=1=0=1
1=1=0=1
1=1=0=1
1=1=0=1
1=1=0=1
1=1=0=1
1=1=0=1
1=1=0=1
1=1=0=1
1=1=0=1
1=1=0=1
1=1=0=1
1=1=0=1
1=1=0=1
1=1=0=1
1=1=0=1
1=1=0=1
1=1=0=1
1=1=0=1
1=1=0=1
1=1=0=1
1=1=0=1
1=1=0=1
1=1=0=1
1=1=0=1
1=1=0=1
1=1=0=1
1=1=0=1
1=1=0=1
1=1=0=1
1=1=0=1
1=1=0=1
1=1=0=1
1=1=0=1
1=1=0=1
1=1=0=1
1=1=0=1
1=1=0=1
1=1=0=1
1=1=0=1
1=1=0=1
1=1=0=1
1=1=0=1
1=1=0=1
1=1=0=1
1=1=0=1
1=1=0=1
1=1=0=1
1=1=0=1
1=1=0=1
1=1=0=1
1=1=0=1
1=1=0=1
1=1=0=1
1=1=0=1
1=1=0=1
1=1=0=1
1=1=0=1
1=1=0=1
1=1=0=1
1=1=0=1
1=1=0=1
1=1=0=1
1=1=0=1
1=1=0=1
1=1=0=1
1=1=0=1
1=1=0=1
1=1=0=1
1=1=0=1
1=1=0=1
1=1=0=1
1=1=0=1
1=1=0=1
1=1=0=1
1=1=0=1
1=1=0=1
1=1=0=1
1=1=0=1
1=1=0=1
1=1=0=1
1=1=0=1
1=1=0=1
1=1=0=1
1=1=0=1
1=1=0=1
1=1=0=1
1=1=0=1
1=1=0=1
1=1=0=1
1=1=0=1
1=1=0=1
1=1=0=1
1=1=0=1
1=1=0=1
1=1=0=1
1=1=0=1
1=1=0=1
1=1=0=1
1=1=0=1
1=1=0=1
1=1=0=1
1=1=0=1
1=1=0=1
1=1=0=1
1=1=0=1
1=1=0=1
1=1=0=1
1=1=0=1
1=1=0=1
1=1=0=1
1=1=0=1
1=1=0=1
1=1=0=1
1=1=0=1
1=1=0=1
1=1=0=1
1=1=0=1
1=1=0=1
1=1=0=1
1=1=0=1
1=1=0=1
1=1=0=1
1=1=0=1
1=1=0=1
1=1=0=1
1=1=0=1
1=1=0=1
1=1=0=1
1=1=0=1
1=1=0=1
1=1=0=1
1=1=0=1
1=1=0=1
1=1=0=1
1=1=0=1
1=1=0=1
1=1=0=1
1=1=0=1
1=1=0=1
1=1=0=1
1=1=0=1
1=1=0=1
1=1=0=1
1=1=0=1
1=1=0=1
1=1=0=1
1=1=0=1
1=1=0=1
1=1=0=1
1=1=0=1
1=1=0=1
1=1=0=1
1=1=0=1
1=1=0=1
1=1=0=1
1=1=0=1
1=1=0=1
1=1=0=1
1=1=0=1
1=1=0=1
1=1=0=1
1=1=0=1
1=1=0=1
1=1=0=1
1=1=0=1
1=1=0=1
1=1=0=1
1=1=0=1
1=1=0=1
1=1=0=1
1=1=0=1
1=1=0=1
1=1=0=1
1=1=0=1
1=1=0=1
1=1=0=1
1=1=0=1
1=1=0=1
1=1=0=1
1=1=0=1
1=1=0=1
1=1=0=1
1=1=0=1
1=1=0=1
1=1=0=1
1=1=0=1
1=1=0=1
1=1=0=1
1=1=0=1
1=1=0=1
1=1=0=1
1=1=0=1
1=1=0=1
1=1=0=1
1=1=0=1
1=1=0=1
1=1=0=1
1=1=0=1
1=1=0=1
1=1=0=1
1=1=0=1
1=1=0=1
1=1=0=1
1=1=0=1
1=1=0=1
1=1=0=1
1=1=0=1
1=1=0=1
1=1=0=1
1=1=0=1
1=1=0=1
1=1=0=1
1=1=0=1
1=1=0=1
1=1=0=1
1=1=0=1
1=1=0=1
1=1=0=1
1=1=0=1
1=1=0=1
1=1=0=1
1=1=0=1
1=1=0=1
1=1=0=1
1=1=0=1
1=1=0=1
1=1=0=1
1=1=0=1
1=1=0=1
1=1=0=1
1=1=0=1
1=1=0=1
1=1=0=1
1=1=0=1
1=1=0=1
1=1=0=1
1=1=0=1
1=1=0=1
1=1=0=1
1=1=0=1
1=1=0=1
1=1=0=1
1=1=0=1
1=1=0=1
1=1=0=1
1=1=0=1
1=1=0=1
1=1=0=1
1=1=0=1
1=1=0=1
1=1=0=1
1=1=0=1
1=1=0=1
1=1=0=1
1=1=0=1
1=1=0=1
1=1=0=1
1=1=0=1
1=1=0=1
1=1=0=1
1=1=0=1
1=1=0=1
1=1=0=1
1=1=0=1
1=1=0=1
1=1=0=1
1=1=0=1
1=1=0=1
1=1=0=1
1=1=0=1
1=1=0=1
1=1=0=1
1=1=0=1
1=1=0=1
1=1=0=1
1=1=0=1
1=1=0=1
1=1=0=1
1=1=0=1
1=1=0=1
1=1=0=1
1=1=0=1
1=1=0=1
1=1=0=1
1=1=0=1
1=1=0=1
1=1=0=1
1=1=0=1
1=1=0=1
1=1=0=1
1=1=0=1
1=1=0=1
1=1=0=1
1=1=0=1
1=1=0=1
1=1=0=1
1=1=0=1
1=1=0=1
1=1=0=1
1=1=0=1
1=1=0=1
1=1=0=1
1=1=0=1
1=1=0=1
1=1=0=1
1=1=0=1
1=1=0=1
1=1=0=1
1=1=0=1
1=1=0=1
1=1=0=1
1=1=0=1
1=1=0=1
1=1=0=1
1=1=0=1
1=1=0=1
1=1=0=1
1=1=0=1
1=1=0=1
1=1=0=1
1=1=0=1
1=1=0=1
1=1=0=1
1=1=0=1
1=1=0=1
1=1=0=1
1=1=0=1
1=1=0=1
1=1=0=1
1=1=0=1
1=1=0=1
1=1=0=1
1=1=0=1
1=1=0=1
1=1=0=1
1=1=0=1
1=1=0=1
1=1=0=1
1=1=0=1
1=1=0=1
1=1=0=1
1=1=0=1
1=1=0=1
1=1=0=1
1=1=0=1
1=1=0=1
1=1=0=1
1=1=0=1
1=1=0=1
1=1=0=1
1=1=0=1
1=1=0=1
1=1=0=1
1=1=0=1
1=1=0=1
1=1=0=1
1=1=0=1
1=1=0=1
1=1=0=1
1=1=0=1
1=1=0=1
1=1=0=1
1=1=0=1
1=1=0=1
1=1=0=1
1=1=0=1
1=1=0=1
1=1=0=1
1=1=0=1
1=1=0=1
1=1=0=1
1=1=0=1
1=1=0=1
1=1=0=1
1=1=0=1
1=1=0=1
1=1=0=1
1=1=0=1
1=1=0=1
1=1=0=1
1=1=0=1
1=1=0=1
1=1=0=1
1=1=0=1
1=1=0=1
1=1=0=1
1=1=0=1
1=1=0=1
1=1=0=1
1=1=0=1
1=1=0=1
1=1=0=1
1=1=0=1
1=1=0=1
1=1=0=1
1=1=0=1
1=1=0=1
1=1=0=1
1=1=0=1
1=1=0=1
1=1=0=1
1=1=0=1
1=1=0=1
1=1=0=1
1=1=0=1
1=1=0=1
1=1=0=1
1=1=0=1
1=1=0=1
1=1=0=1
1=1=0=1
1=1=0=1
1=1=0=1
1=1=0=1
1=1=0=1
1=1=0=1
1=1=0=1
1=1=0=1
1=1=0=1
1=1=0=1
1=1=0=1
1=1=0=1
1=1=0=1
1=1=0=1
1=1=0=1
1=1=0=1
1=1=0=1
1=1=0=1
1=1=0=1
1=1=0=1
1=1=0=1
1=1=0=1
1=1=0=1
1=1=0=1
1=1=0=1
1=1=0=1
1=1=0=1
1=1=0=1
1=1=0=1
1=1=0=1
1=1=0=1
1=1=0=1
1=1=0=1
1=1=0=1
1=1=0=1
1=1=0=1
1=1=0=1
1=1=0=1
1=1=0=1
1=1=0=1
1=1=0=1
1=1=0=1
1=1=0=1
1=1=0=1
1=1=0=1
1=1=0=1
1=1=0=1
1=1=0=1
1=1=0=1
1=1=0=1
1=1=0=1
1=1=0=1
1=1=0=1
1=1=0=1
1=1=0=1
1=1=0=1
1=1=0=1
1=1=0=1
1=1=0=1
1=1=0=1
1=1=0=1
1=1=0=1
1=1=0=1
1=1=0=1
1=1=0=1
1=1=0=1
1=1=0=1
1=1=0=1
1=1=0=1
1=1=0=1
1=1=0=1
1=1=0=1
1=1=0=1
1=1=0=1
1=1=0=1
1=1=0=1
1=1=0=1
1=1=0=1
1=1=0=1
1=1=0=1
1=1=0=1
1=1=0=1
1=1=0=1
1=1=0=1
1=1=0=1
1=1=0=1
1=1=0=1
1=1=0=1
1=1=0=1
1=1=0=1
1=1=0=1
1=1=0=1
1=1=0=1
1=1=0=1
1=1=0=1
1=1=0=1
1=1=0=1
1=1=0=1
1=1=0=1
1=1=0=1
1=1=0=1
1=1=0=1
1=1=0=1
1=1=0=1
1=1=0=1
1=1=0=1
1=1=0=1
1=1=0=1
1=1=0=1
1=1=0=1
1=1=0=1
1=1=0=1
1=1=0=1
1=1=0=1
1=1=0=1
1=1=0=1
1=1=0=1
1=1=0=1
1=1=0=1
1=1=0=1
1=1=0=1
1=1=0=1
1=1=0=1
1=1=0=1
1=1=0=1
1=1=0=1
1=1=0=1
1=1=0=1
1=1=0=1
1=1=0=1
1=1=0=1
1=1=0=1
1=1=0=1
1=1=0=1
1=1=0=1
1=1=0=1
1=1=0=1
1=1=0=1
1=1=0=1
1=1=0=1
1=1=0=1
1=1=0=1
1=1=0=1
1=1=0=1
1=1=0=1
1=1=0=1
1=1=0=1
1=1=0=1
1=1=0=1
1=1=0=1
1=1=0=1
1=1=0=1
1=1=0=1
1=1=0=1
1=1=0=1
1=1=0=1
1=1=0=1
1=1=0=1
1=1=0=1
1=1=0=1
1=1=0=1
1=1=0=1
1=1=0=1
1=1=0=1
1=1=0=1
1=1=0=1
1=1=0=1
1=1=0=1
1=1=0=1
1=1=0=1
1=1=0=1
1=1=0=1
1=1=0=1
1=1=0=1
1=1=0=1
1=1=0=1
1=1=0=1
1=1=0=1
1=1=0=1
1=1=0=1
1=1=0=1
1=1=0=1
1=1=0=1
1=1=0=1
1=1=0=1
1=1=0=1
1=1=0=1
1=1=0=1
1=1=0=1
1=1=0=1
1=1=0=1
1=1=0=1
1=1=0=1
1=1=0=1
1=1=0=1
1=1=0=1
1=1=0=1
1=1=0=1
1=1=0=1
1=1=0=1
1=1=0=1
1=1=0=1
1=1=0=1
1=1=0=1
1=1=0=1
1=1=0=1
1=1=0=1
1=1=0=1
1=1=0=1
1=1=0=1
1=1=0=1
1=1=0=1
1=1=0=1
1=1=0=1
1=1=0=1
1=1=0=1
1=1=0=1
1=1=0=1
1=1=0=1
1=1=0=1
1=1=0=1
1=1=0=1
1=1=0=1
1=1=0=1
1=1=0=1
1=1=0=1
1=1=0=1
1=1=0=1
1=1=0=1
1=1=0=1
1=1=0=1
1=1=0=1
1=1=0=1
1=1=0=1
1=1=0=1
1=1=0=1
1=1=0=1
1=1=0=1
1=1=0=1
1=1=0=1
1=1=0=1
1=1=0=1
1=1=0=1
1=1=0=1
1=1=0=1
1=1=0=1
1=1=0=1
1=1=0=1
1=1=0=1
1=1=0=1
1=1=0=1
1=1=0=1
1=1=0=1
1=1=0=1
1=1=0=1
1=1=0=1
1=1=0=1
1=1=0=1
1=1=0=1
1=1=0=1
1=1=0=1
1=1=0=1
1=1=0=1
1=1=0=1
1=1=0=1
1=1=0=1
1=1=0=1
1=1=0=1
1=1=0=1
1=1=0=1
1=1=0=1
1=1=0=1
1=1=0=1
1=1=0=1
1=1=0=1
1=1=0=1
1=1=0=1
1=1=0=1
1=1=0=1
1=1=0=1
1=1=0=1
1=1=0=1
1=1=0=1
1=1=0=1
1=1=0=1
1=1=0=1
1=1=0=1
1=1=0=1
1=1=0=1
1=1=0=1
1=1=0=1
1=1=0=1
1=1=0=1
1=1=0=1
1=1=0=1
1=1=0=1
1=1=0=1
1=1=0=1
1=1=0=1
1=1=0=1
1=1=0=1
1=1=0=1
1=1=0=1
1=1=0=1
1=1=0=1
1=1=0=1
1=1=0=1
1=1=0=1
1=1=0=1
1=1=0=1
1=1=0=1
1=1=0=1
1=1=0=1
1=1=0=1
1=1=0=1
1=1=0=1
1=1=0=1
1=1=0=1
1=1=0=1
1=1=0=1
1=1=0=1
1=1=0=1
1=1=0=1
1=1=0=1
1=1=0=1
1=1=0=1
1=1=0=1
1=1=0=1
1=1=0=1
1=1=0=1
1=1=0=1
1=1=0=1
1=1=0=1
1=1=0=1
1=1=0=1
1=1=0=1
1=1=0=1
1=1=0=1
1=1=0=1
1=1=0=1
1=1=0=1
1=1=0=1
1=1=0=1
1=1=0=1
1=1=0=1
1=1=0=1
1=1=0=1
1=1=0=1
1=1=0=1
1=1=0=1
1=1=0=1
1=1=0=1
1=1=0=1
1=1=0=1
1=1=0=1
1=1=0=1
1=1=0=1
1=1=0=1
1=1=0=1
1=1=0=1
1=1=0=1
1=1=0=1
1=1=0=1
1=1=0=1
1=1=0=1
1=1=0=1
1=1=0=1
1=1=0=1
1=1=0=1
1=1=0=1
1=1=0=1
1=1=0=1
1=1=0=1
1=1=0=1
1=1=0=1
1=1=0=1
1=1=0=1
1=1=0=1
1=1=0=1
1=1=0=1
1=1=0=1
1=1=0=1
1=1=0=1
1=1=0=1
1=1=0=1
1=1=0=1
1=1=0=1
1=1=0=1
1=1=0=1
1=1=0=1
1=1=0=1
1=1=0=1
1=1=0=1
1=1=0=1
1=1=0=1
1=1=0=1
1=1=0=1
1=1=0=1
1=1=0=1
1=1=0=1
1=1=0=1
1=1=0=1
1=1=0=1
1=1=0=1
1=1=0=1
1=1=0=1
1=1=0=1
1=1=0=1
1=1=0=1
1=1=0=1
1=1=0=1
1=1=0=1
1=1=0=1
1=1=0=1
1=1=0=1
1=1=0=1
1=1=0=1
1=1=0=1
1=1=0=1
1=1=0=1
1=1=0=1
1=1=0=1
1=1=0=1
1=1=0=1
1=1=0=1
1=1=0=1
1=1=0=1
1=1=0=1
1=1=0=1
1=1=0=1
1=1=0=1
1=1=0=1
1=1=0=1
1=1=0=1
1=1=0=1
1=1=0=1
1=1=0=1
1=1=0=1
1=1=0=1
1=1=0=1
1=1=0=1
1=1=0=1
1=1=0=1
1=1=0=1
1=1=0=1
1=1=0=1
1=1=0=1
1=1=0=1
1=1=0=1
1=1=0=1
1=1=0=1
1=1=0=1
1=1=0=1
1=1=0=1
1=1=0=1
1=1=0=1
1=1=0=1
1=1=0=1
1=1=0=1
1=1=0=1
1=1=0=1
1=1=0=1
1=1=0=1
1=1=0=1
1=1=0=1
1=1=0=1
1=1=0=1
1=1=0=1
1=1=0=1
1=1=0=1
1=1=0=1
1=1=0=1
1=1=0=1
1=1=0=1
1=1=0=1
1=1=0=1
1=1=0=1
1=1=0=1
1=1=0=1
1=1=0=1
1=1=0=1
1=1=0=1
1=1=0=1
1=1=0=1
1=1=0=1
1=1=0=1
1=1=0=1
1=1=0=1
1=1=0=1
1=1=0=1
1=1=0=1
1=1=0=1
1=1=0=1
1=1=0=1
1=1=0=1
1=1=0=1
1=1=0=1
1=1=0=1
1=1=0=1
1=1=0=1
1=1=0=1
1=1=0=1
1=1=0=1
1=1=0=1
1=1=0=1
1=1=0=1
1=1=0=1
1=1=0=1
1=1=0=1
1=1=0=1
1=1=0=1
1=1=0=1
1=1=0=1
1=1=0=1
1=1=0=1
1=1=0=1
1=1=0=1
1=1=0=1
1=1=0=1
1=1=0=1
1=1=0=1
1=1=0=1
1=1=0=1
1=1=0=1
1=1=0=1
1=1=0=1
1=1=0=1
1=1=0=1
1=1=0=1
1=1=0=1
1=1=0=1
1=1=0=1
1=1=0=1
1=1=0=1
1=1=0=1
1=1=0=1
1=1=0=1
1=1=0=1
1=1=0=1
1=1=0=1
1=1=0=1
1=1=0=1
1=1=0=1
1=1=0=1
1=1=0=1
1=1=0=1
1=1=0=1
1=1=0=1
1=1=0=1
1=1=0=1
1=1=0=1
1=1=0=1
1=1=0=1
1=1=0=1
1=1=0=1
1=1=0=1
1=1=0=1
1=1=0=1
1=1=0=1
1=1=0=1
1=1=0=1
1=1=0=1
1=1=0=1
1=1=0=1
1=1=0=1
1=1=0=1
1=1=0=1
1=1=0=1
1=1=0=1
1=1=0=1
1=1=0=1
1=1=0=1
1=1=0=1
1=1=0=1
1=1=0=1
1=1=0=1
1=1=0=1
1=1=0=1
1=1=0=1
1=1=0=1
1=1=0=1
1=1=0=1
1=1=0=1
1=1=0=1
1=1=0=1
1=1=0=1
1=1=0=1
1=1=0=1
1=1=0=1
1=1=0=1
1=1=0=1
1=1=0=1
1=1=0=1
1=1=0=1
1=1=0=1
1=1=0=1
1=1=0=1
1=1=0=1
1=1=0=1
1=1=0=1
1=1=0=1
1=1=0=1
1=1=0=1
1=1=0=1
1=1=0=1
1=1=0=1
1=1=0=1
1=1=0=1
1=1=0=1
1=1=0=1
1=1=0=1
1=1=0=1
1=1=0=1
1=1=0=1
1=1=0=1
1=1=0=1
1=1=0=1
1=1=0=1
1=1=0=1
1=1=0=1
1=1=0=1
1=1=0=1
1=1=0=1
1=1=0=1
1=1=0=1
1=1=0=1
1=1=0=1
1=1=0=1
1=1=0=1
1=1=0=1
1=1=0=1
1=1=0=1
1=1=0=1
1=1=0=1
1=1=0=1
1=1=0=1
1=1=0=1
1=1=0=1
1=1=0=1
1=1=0=1
1=1=0=1
1=1=0=1
1=1=0=1
1=1=0=1
1=1=0=1
1=1=0=1
1=1=0=1
1=1=0=1
1=1=0=1
1=1=0=1
1=1=0=1
1=1=0=1
1=1=0=1
1=1=0=1
1=1=0=1
1=1=0=1
1=1=0=1
1=1=0=1
1=1=0=1
1=1=0=1
1=1=0=1
1=1=0=1
1=1=0=1
1=1=0=1
1=1=0=1
1=1=0=1
1=1=0=1
1=1=0=1
1=1=0=1
1=1=0=1
1=1=0=1
1=1=0=1
1=1=0=1
1=1=0=1
1=1=0=1
1=1=0=1
1=1=0=1
1=1=0=1
1=1=0=1
1=1=0=1
1=1=0=1
1=1=0=1
1=1=0=1
1=1=0=1
1=1=0=1
1=1=0=1
1=1=0=1
1=1=0=1
1=1=0=1
1=1=0=1
1=1=0=1
1=1=0=1
1=1=0=1
1=1=0=1
1=1=0=1
1=1=0=1
1=1=0=1
1=1=0=1
1=1=0=1
1=1=0=1
1=1=0=1
1=1=0=1
1=1=0=1
1=1=0=1
1=1=0=1
1=1=0=1
1=1=0=1
1=1=0=1
1=1=0=1
1=1=0=1
1=1=0=1
1=1=0=1
1=1=0=1
1=1=0=1
1=1=0=1
1=1=0=1
1=1=0=1
1=1=0=1
1=1=0=1
1=1=0=1
1=1=0=1
1=1=0=1
1=1=0=1
1=1=0=1
1=1=0=1
1=1=0=1
1=1=0=1
1=1=0=1
1=1=0=1
1=1=0=1
1=1=0=1
1=1=0=1
1=1=0=1
1=1=0=1
1=1=0=1
1=1=0=1
1=1=0=1
1=1=0=1
1=1=0=1
1=1=0=1
1=1=0=1
1=1=0=1
1=1=0=1
1=1=0=1
1=1=0=1
1=1=0=1
1=1=0=1
1=1=0=1
1=1=0=1
1=1=0=1
1=1=0=1
1=1=0=1
1=1=0=1
1=1=0=1
1=1=0=1
1=1=0=1
1=1=0=1
1=1=0=1
1=1=0=1
1=1=0=1
1=1=0=1
1=1=0=1
1=1=0=1
1=1=0=1
1=1=0=1
1=1=0=1
1=1=0=1
1=1=0=1
1=1=0=1
1=1=0=1
1=1=0=1
1=1=0=1
1=1=0=1
1=1=0=1
1=1=0=1
1=1=0=1
1=1=0=1
1=1=0=1
1=1=0=1
1=1=0=1
1=1=0=1
1=1=0=1
1=1=0=1
1=1=0=1
1=1=0=1
1=1=0=1
1=1=0=1
1=1=0=1
1=1=0=1
1=1=0=1
1=1=0=1
1=1=0=1
1=1=0=1
1=1=0=1
1=1=0=1
1=1=0=1
1=1=0=1
1=1=0=1
1=1=0=1
1=1=0=1
1=1=0=1
1=1=0=1
1=1=0=1
1=1=0=1
1=1=0=1
1=1=0=1
1=1=0=1
1=1=0=1
1=1=0=1
1=1=0=1
1=1=0=1
1=1=0=1
1=1=0=1
1=1=0=1
1=1=0=1
1=1=0=1
1=1=0=1
1=1=0=1
1=1=0=1
1=1=0=1
1=1=0=1
1=1=0=1
1=1=0=1
1=1=0=1
1=1=0=1
1=1=0=1
1=1=0=1
1=1=0=1
1=1=0=1
1=1=0=1
1=1=0=1
1=1=0=1
1=1=0=1
1=1=0=1
1=1=0=1
1=1=0=1
1=1=0=1
1=1=0=1
1=1=0=1
1=1=0=1
1=1=0=1
1=1=0=1
1=1=0=1
1=1=0=1
1=1=0=1
1=1=0=1
1=1=0=1
1=1=0=1
1=1=0=1
1=1=0=1
1=1=0=1
1=1=0=1
1=1=0=1
1=1=0=1
1=1=0=1
1=1=0=1
1=1=0=1
1=1=0=1
1=1=0=1
1=1=0=1
1=1=0=1
1=1=0=1
1=1=0=1
1=1=0=1
1=1=0=1
1=1=0=1
1=1=0=1
1=1=0=1
1=1=0=1
1=1=0=1
1=1=0=1
1=1=0=1
1=1=0=1
1=1=0=1
1=1=0=1
1=1=0=1
1=1=0=1
1=1=0=1
1=1=0=1
1=1=0=1
1=1=0=1
1=1=0=1
1=1=0=1
1=1=0=1
1=1=0=1
1=1=0=1
1=1=0=1
1=1=0=1
1=1=0=1
1=1=0=1
1=1=0=1
1=1=0=1
1=1=0=1
1=1=0=1
1=1=0=1
1=1=0=1
1=1=0=1
1=1=0=1
1=1=0=1
1=1=0=1
1=1=0=1
1=1=0=1
1=1=0=1
1=1=0=1
1=1=0=1
1=1=0=1
1=1=0=1
1=1=0=1
1=1=0=1
1=1=0=1
1=1=0=1
1=1=0=1
1=1=0=1
1=1=0=1
1=1=0=1
1=1=0=1
1=1=0=1
1=1=0=1
1=1=0=1
1=1=0=1
1=1=0=1
1=1=0=1
1=1=0=1
1=1=0=1
1=1=0=1
1=1=0=1
1=1=0=1
1=1=0=1
1=1=0=1
1=1=0=1
1=1=0=1
1=1=0=1
1=1=0=1
1=1=0=1
1=1=0=1
1=1=0=1
1=1=0=1
1=1=0=1
1=1=0=1
1=1=0=1
1=1=0=1
1=1=0=1
1=1=0=1
1=1=0=1
1=1=0=1
1=1=0=1
1=1=0=1
1=1=0=1
1=1=0=1
1=1=0=1
1=1=0=1
1=1=0=1
1=1=0=1
1=1=0=1
1=1=0=1
1=1=0=1
1=1=0=1
1=1=0=1
1=1=0=1
1=1=0=1
1=1=0=1
1=1=0=1
1=1=0=1
1=1=0=1
1=1=0=1
1=1=0=1
1=1=0=1
1=1=0=1
1=1=0=1
1=1=0=1
1=1=0=1
1=1=0=1
1=1=0=1
1=1=0=1
1=1=0=1
1=1=0=1
1=1=0=1
1=1=0=1
1=1=0=1
1=1=0=1
1=1=0=1
1=1=0=1
1=1=0=1
1=1=0=1
1=1=0=1
1=1=0=1
1=1=0=1
1=1=0=1
1=1=0=1
1=1=0=1
1=1=0=1
1=1=0=1
1=1=0=1
1=1=0=1
1=1=0=1
1=1=0=1
1=1=0=1
1=1=0=1
1=1=0=1
1=1=0=1
1=1=0=1
1=1=0=1
1=1=0=1
1=1=0=1
1=1=0=1
1=1=0=1
1=1=0=1
1=1=0=1
1=1=0=1
1=1=0=1
1=1=0=1
1=1=0=1
1=1=0=1
1=1=0=1
1=1=0=1
1=1=0=1
1=1=0=1
1=1=0=1
1=1=0=1
1=1=0=1
1=1=0=1
1=1=0=1
1=1=0=1
1=1=0=1
1=1=0=1
1=1=0=1
1=1=0=1
1=1=0=1
1=1=0=1
1=1=0=1
1=1=0=1
1=1=0=1
1=1=0=1
1=1=0=1
1=1=0=1
1=1=0=1
1=1=0=1
1=1=0=1
1=1=0=1
1=1=0=1
1=1=0=1
1=1=0=1
1=1=0=1
1=1=0=1
1=1=0=1
1=1=0=1
1=1=0=1
1=1=0=1
1=1=0=1
1=1=0=1
1=1=0=1
1=1=0=1
1=1=0=1
1=1=0=1
1=1=0=1
1=1=0=1
1=1=0=1
1=1=0=1
1=1=0=1
1=1=0=1
1=1=0=1
1=1=0=1
1=1=0=1
1=1=0=1
1=1=0=1
1=1=0=1
1=1=0=1
1=1=0=1
1=1=0=1
1=1=0=1
1=1=0=1
1=1=0=1
1=1=0=1
1=1=0=1
1=1=0=1
1=1=0=1
1=1=0=1
1=1=0=1
1=1=0=1
1=1=0=1
1=1=0=1
1=1=0=1
1=1=0=1
1=1=0=1
1=1=0=1
1=1=0=1
1=1=0=1
1=1=0=1
1=1=0=1
1=1=0=1
1=1=0=1
1=1=0=1
1=1=0=1
1=1=0=1
1=1=0=1
1=1=0=1
1=1=0=1
1=1=0=1
1=1=0=1
1=1=0=1
1=1=0=1
1=1=0=1
1=1=0=1
1=1=0=1
1=1=0=1
1=1=0=1
1=1=0=1
1=1=0=1
1=1=0=1
1=1=0=1
1=1=0=1
1=1=0=1
1=1=0=1
1=1=0=1
1=1=0=1
1=1=0=1
1=1=0=1
1=1=0=1
1=1=0=1
1=1=0=1
1=1=0=1
1=1=0=1
1=1=0=1
1=1=0=1
1=1=0=1
1=1=0=1
1=1=0=1
1=1=0=1
1=1=0=1
1=1=0=1
1=1=0=1
1=1=0=1
1=1=0=1
1=1=0=1
1=1=0=1
1=1=0=1
1=1=0=1
1=1=0=1
1=1=0=1
1=1=0=1
1=1=0=1
1=1=0=1
1=1=0=1
1=1=0=1
1=1=0=1
1=1=0=1
1=1=0=1
1=1=0=1
1=1=0=1
1=1=0=1
1=1=0=1
1=1=0=1
1=1=0=1
1=1=0=1
1=1=0=1
1=1=0=1
1=1=0=1
1=1=0=1
1=1=0=1
1=1=0=1
1=1=0=1
1=1=0=1
1=1=0=1
1=1=0=1
1=1=0=1
1=1=0=1
1=1=0=1
1=1=0=1
1=1=0=1
1=1=0=1
1=1=0=1
1=1=0=1
1=1=0=1
1=1=0=1
1=1=0=1
1=1=0=1
1=1=0=1
1=1=0=1
1=1=0=1
1=1=0=1
1=1=0=1
1=1=0=1
1=1=0=1
1=1=0=1
1=1=0=1
1=1=0=1
1=1=0=1
1=1=0=1
1=1=0=1
1=1=0=1
1=1=0=1
1=1=0=1
1=1=0=1
1=1=0=1
1=1=0=1
1=1=0=1
1=1=0=1
1=1=0=1
1=1=0=1
1=1=0=1
1=1=0=1
1=1=0=1
1=1=0=1
1=1=0=1
1=1=0=1
1=1=0=1
1=1=0=1
1=1=0=1
1=1=0=1
1=1=0=1
1=1=0=1
1=1=0=1
1=1=0=1
1=1=0=1
1=1=0=1
1=1=0=1
1=1=0=1
1=1=0=1
1=1=0=1
1=1=0=1
1=1=0=1
1=1=0=1
1=1=0=1
1=1=0=1
1=1=0=1
1=1=0=1
1=1=0=1
1=1=0=1
1=1=0=1
1=1=0=1
1=1=0=1
1=1=0=1
1=1=0=1
1=1=0=1
1=1=0=1
1=1=0=1
1=1=0=1
1=1=0=1
1=1=0=1
1=1=0=1
1=1=0=1
1=1=0=1
1=1=0=1
1=1=0=1
1=1=0=1
1=1=0=1
1=1=0=1
1=1=0=1
1=1=0=1
1=1=0=1
1=1=0=1
1=1=0=1
1=1=0=1
1=1=0=1
1=1=0=1
1=1=0=1
1=1=0=1
1=1=0=1
1=1=0=1
1=1=0=1
1=1=0=1
1=1=0=1
1=1=0=1
1=1=0=1
1=1=0=1
1=1=0=1
1=1=0=1
1=1=0=1
1=1=0=1
1=1=0=1
1=1=0=1
1=1=0=1
1=1=0=1
1=1=0=1
1=1=0=1
1=1=0=1
1=1=0=1
1=1=0=1
1=1=0=1
1=1=0=1
1=1=0=1
1=1=0=1
1=1=0=1
1=1=0=1
1=1=0=1
1=1=0=1
1=1=0=1
1=1=0=1
1=1=0=1
1=1=0=1
1=1=0=1
1=1=0=1
1=1=0=1
1=1=0=1
1=1=0=1
1=1=0=1
1=1=0=1
1=1=0=1
1=1=0=1
1=1=0=1
1=1=0=1
1=1=0=1
1=1=0=1
1=1=0=1
1=1=0=1
1=1=0=1
1=1=0=1
1=1=0=1
1=1=0=1
1=1=0=1
1=1=0=1
1=1=0=1
1=1=0=1
1=1=0=1
1=1=0=1
1=1=0=1
1=1=0=1
1=1=0=1
1=1=0=1
1=1=0=1
1=1=0=1
1=1=0=1
1=1=0=1
1=1=0=1
1=1=0=1
1=1=0=1
1=1=0=1
1=1=0=1
1=1=0=1
1=1=0=1
1=1=0=1
1=1=0=1
1=1=0=1
1=1=0=1
1=1=0=1
1=1=0=1
1=1=0=1
1=1=0=1
1=1=0=1
1=1=0=1
1=1=0=1
1=1=0=1
1=1=0=1
1=1=0=1
1=1=0=1
1=1=0=1
1=1=0=1
1=1=0=1
1=1=0=1
1=1=0=1
1=1=0=1
1=1=0=1
1=1=0=1
1=1=0=1
1=1=0=1
1=1=0=1
1=1=0=1
1=1=0=1
1=1=0=1
1=1=0=1
1=1=0=1
1=1=0=1
1=1=0=1
1=1=0=1
1=1=0=1
1=1=0=1
1=1=0=1
1=1=0=1
1=1=0=1
1=1=0=1
1=1=0=1
1=1=0=1
1=1=0=1
1=1=0=1
1=1=0=1
1=1=0=1
1=1=0=1
1=1=0=1
1=1=0=1
1=1=0=1
1=1=0=1
1=1=0=1
1=1=0=1
1=1=0=1
1=1=0=1
1=1=0=1
1=1=0=1
1=1=0=1
1=1=0=1
1=1=0=1
1=1=0=1
1=1=0=1
1=1=0=1
1=1=0=1
1=1=0=1
1=1=0=1
1=1=0=1
1=1=0=1
1=1=0=1
1=1=0=1
1=1=0=1
1=1=0=1
1=1=0=1
1=1=0=1
1=1=0=1
1=1=0=1
1=1=0=1
1=1=0=1
1=1=0=1
1=1=0=1
1=1=0=1
1=1=0=1
1=1=0=1
1=1=0=1
1=1=0=1
1=1=0=1
1=1=0=1
1=1=0=1
1=1=0=1
1=1=0=1
1=1=0=1
1=1=0=1
1=1=0=1
1=1=0=1
1=1=0=1
1=1=0=1
1=1=0=1
1=1=0=1
1=1=0=1
1=1=0=1
1=1=0=1
1=1=0=1
1=1=0=1
1=1=0=1
1=1=0=1
1=1=0=1
1=1=0=1
1=1=0=1
1=1=0=1
1=1=0=1
1=1=0=1
1=1=0=1
1=1=0=1
1=1=0=1
1=1=0=1
1=1=0=1
1=1=0=1
1=1=0=1
1=1=0=1
1=1=0=1
1=1=0=1
1=1=0=1
1=1=0=1
1=1=0=1
1=1=0=1
1=1=0=1
1=1=0=1
1=1=0=1
1=1=0=1
1=1=0=1
1=1=0=1
1=1=0=1
1=1=0=1
1=1=0=1
1=1=0=1
1=1=0=1
1=1=0=1
1=1=0=1
1=1=0=1
1=1=0=1
1=1=0=1
1=1=0=1
1=1=0=1
1=1=0=1
1=1=0=1
1=1=0=1
1=1=0=1
1=1=0=1
1=1=0=1
1=1=0=1
1=1=0=1
1=1=0=1
1=1=0=1
1=1=0=1
1=1=0=1
1=1=0=1
1=1=0=1
1=1=0=1
1=1=0=1
1=1=0=1
1=1=0=1
1=1=0=1
1=1=0=1
1=1=0=1
1=1=0=1
1=1=0=1
1=1=0=1
1=1=0=1
1=1=0=1
1=1=0=1
1=1=0=1
1=1=0=1
1=1=0=1
1=1=0=1
1=1=0=1
1=1=0=1
1=1=0=1
1=1=0=1
1=1=0=1
1=1=0=1
1=1=0=1
1=1=0=1
1=1=0=1
1=1=0=1
1=1=0=1
1=1=0=1
1=1=0=1
1=1=0=1
1=1=0=1
1=1=0=1
1=1=0=1
1=1=0=1
1=1=0=1
1=1=0=1
1=1=0=1
1=1=0=1
1=1=0=1
1=1=0=1
1=1=0=1
1=1=0=1
1=1=0=1
1=1=0=1
1=1=0=1
1=1=0=1
1=1=0=1
1=1=0=1
1=1=0=1
1=1=0=1
1=1=0=1
1=1=0=1
1=1=0=1
1=1=0=1
1=1=0=1
1=1=0=1
1=1=0=1
1=1=0=1
1=1=0=1
1=1=0=1
1=1=0=1
1=1=0=1
1=1=0=1
1=1=0=1
1=1=0=1
1=1=0=1
1=1=0=1
1=1=0=1
1=1=0=1
1=1=0=1
1=1=0=1
1=1=0=1
1=1=0=1
1=1=0=1
1=1=0=1
1=1=0=1
1=1=0=1
1=1=0=1
