40,11,36,12
35,12,30,16
31,16,34,19
35,19,30,25
31,25,33,28
36,11,46,16
49,5,46,3
53,23,47,22
48,22,48,28
47,23,49,28
47,21,50,28
46,22,51,22
50,22,51,28
51,21,52,28
52,22,53,28
43,23,49,24
49,23,45,24
50,24,52,24
48,27,53,20
49,27,49,17
50,27,53,14
51,27,49,11
52,27,53,8
53,27,48,6
45,14,41,19
41,18,41,24
38,23,43,24
39,31,40,27
43,31,42,27
41,27,41,31
48,45,44,50
