1=1=0=1
1=1=0=1
1=1=0=1
1=1=0=1
1=1=0=1
1=1=0=1
1=1=0=1
1=1=0=1
1=1=0=1
1=1=0=1
1=1=0=1
1=1=0=1
1=1=0=1
1=1=0=1
1=1=0=1
1=1=0=1
1=1=0=1
1=1=0=1
1=1=0=1
1=1=0=1
1=1=0=1
1=1=0=1
1=1=0=1
1=1=0=1
1=1=0=1
1=1=0=1
1=1=0=1
1=1=0=1
1=1=0=1
1=1=0=1
1=1=0=1
1=1=0=1
1=1=0=1
1=1=0=1
1=1=0=1
1=1=0=1
1=1=0=1
1=1=0=1
1=1=0=1
1=1=0=1
1=1=0=1
1=1=0=1
1=1=0=1
1=1=0=1
1=1=0=1
1=1=0=1
1=1=0=1
1=1=0=1
1=1=0=1
1=1=0=1
1=1=0=1
1=1=0=1
1=1=0=1
1=1=0=1
1=1=0=1
1=1=0=1
1=1=0=1
1=1=0=1
1=1=0=1
1=1=0=1
1=1=0=1
1=1=0=1
1=1=0=1
1=1=0=1
1=1=0=1
1=1=0=1
1=1=0=1
1=1=0=1
1=1=0=1
1=1=0=1
1=1=0=1
1=1=0=1
1=1=0=1
1=1=0=1
1=1=0=1
1=1=0=1
1=1=0=1
1=1=0=1
1=1=0=1
1=1=0=1
1=1=0=1
1=1=0=1
1=1=0=1
1=1=0=1
1=1=0=1
1=1=0=1
1=1=0=1
1=1=0=1
1=1=0=1
1=1=0=1
1=1=0=1
1=1=0=1
1=1=0=1
1=1=0=1
1=1=0=1
1=1=0=1
1=1=0=1
1=1=0=1
1=1=0=1
3=1=0=0/14=2=1=0
3=1=0=0/15=2=3=0
3=1=0=0/19=2=1=0
3=1=0=0/11=2=1=0
3=1=0=0/11=2=1=0
3=1=0=0/11=2=1=0
3=1=0=0/8=2=0=0
7=1=0=0
1=1=0=1
1=1=0=1
1=1=0=1
1=1=0=1
1=1=0=1
1=1=0=1
1=1=0=1
1=1=0=1
1=1=0=1
1=1=0=1
1=1=0=1
1=1=0=1
1=1=0=1
1=1=0=1
1=1=0=1
1=1=0=1
1=1=0=1
1=1=0=1
1=1=0=1
1=1=0=1
1=1=0=1
1=1=0=1
1=1=0=1
1=1=0=1
1=1=0=1
1=1=0=1
1=1=0=1
1=1=0=1
1=1=0=1
1=1=0=1
1=1=0=1
1=1=0=1
1=1=0=1
1=1=0=1
1=1=0=1
1=1=0=1
1=1=0=1
1=1=0=1
1=1=0=1
1=1=0=1
1=1=0=1
1=1=0=1
1=1=0=1
1=1=0=1
1=1=0=1
1=1=0=1
1=1=0=1
1=1=0=1
1=1=0=1
1=1=0=1
1=1=0=1
1=1=0=1
3=1=0=0/14=2=2=0
3=1=0=0/15=2=1=0/38=7=0=11
3=1=0=0/14=2=3=0
7=1=0=0
7=1=0=0
7=1=0=0
3=1=0=0/11=2=0=0
7=1=0=0
1=1=0=1
1=1=0=1
1=1=0=1
1=1=0=1
1=1=0=1
1=1=0=1
1=1=0=1
1=1=0=1
1=1=0=1
1=1=0=1
1=1=0=1
1=1=0=1
1=1=0=1
1=1=0=1
1=1=0=1
1=1=0=1
1=1=0=1
1=1=0=1
1=1=0=1
1=1=0=1
1=1=0=1
1=1=0=1
1=1=0=1
1=1=0=1
1=1=0=1
1=1=0=1
1=1=0=1
1=1=0=1
1=1=0=1
1=1=0=1
1=1=0=1
1=1=0=1
1=1=0=1
1=1=0=1
1=1=0=1
1=1=0=1
1=1=0=1
1=1=0=1
1=1=0=1
1=1=0=1
1=1=0=1
1=1=0=1
1=1=0=1
1=1=0=1
1=1=0=1
1=1=0=1
1=1=0=1
1=1=0=1
1=1=0=1
1=1=0=1
1=1=0=1
1=1=0=1
21=1=0=1
21=1=0=1/43=3=0=18
21=1=0=1
21=1=0=1
21=1=0=1
7=1=0=0
3=1=0=0/11=2=0=0
7=1=0=0
1=1=0=1
1=1=0=1
1=1=0=1
1=1=0=1
1=1=0=1
1=1=0=1
1=1=0=1
1=1=0=1
1=1=0=1
1=1=0=1
1=1=0=1
1=1=0=1
1=1=0=1
1=1=0=1
1=1=0=1
1=1=0=1
1=1=0=1
1=1=0=1
1=1=0=1
1=1=0=1
1=1=0=1
1=1=0=1
1=1=0=1
1=1=0=1
1=1=0=1
1=1=0=1
1=1=0=1
1=1=0=1
1=1=0=1
1=1=0=1
1=1=0=1
1=1=0=1
1=1=0=1
1=1=0=1
1=1=0=1
1=1=0=1
1=1=0=1
1=1=0=1
1=1=0=1
1=1=0=1
1=1=0=1
1=1=0=1
1=1=0=1
1=1=0=1
1=1=0=1
1=1=0=1
1=1=0=1
1=1=0=1
1=1=0=1
1=1=0=1
1=1=0=1
1=1=0=1
1=1=0=1
1=1=0=1
1=1=0=1
1=1=0=1
1=1=0=1
7=1=0=0
3=1=0=0/11=2=0=0
7=1=0=0
1=1=0=1
1=1=0=1
1=1=0=1
1=1=0=1
1=1=0=1
1=1=0=1
1=1=0=1
1=1=0=1
1=1=0=1
1=1=0=1
1=1=0=1
1=1=0=1
1=1=0=1
1=1=0=1
1=1=0=1
1=1=0=1
1=1=0=1
1=1=0=1
1=1=0=1
1=1=0=1
1=1=0=1
1=1=0=1
1=1=0=1
1=1=0=1
1=1=0=1
1=1=0=1
1=1=0=1
1=1=0=1
1=1=0=1
1=1=0=1
1=1=0=1
1=1=0=1
1=1=0=1
1=1=0=1
1=1=0=1
1=1=0=1
1=1=0=1
1=1=0=1
1=1=0=1
1=1=0=1
1=1=0=1
1=1=0=1
1=1=0=1
1=1=0=1
1=1=0=1
1=1=0=1
1=1=0=1
1=1=0=1
1=1=0=1
1=1=0=1
1=1=0=1
1=1=0=1
3=1=0=0/14=2=1=0
3=1=0=0/15=2=3=0
3=1=0=0/15=2=3=0
3=1=0=0/15=2=3=0
3=1=0=0/15=2=3=0
3=1=0=0/14=2=0=0
3=1=0=0/11=2=0=0
7=1=0=0
1=1=0=1
1=1=0=1
1=1=0=1
1=1=0=1
1=1=0=1
1=1=0=1
1=1=0=1
1=1=0=1
1=1=0=1
1=1=0=1
1=1=0=1
1=1=0=1
1=1=0=1
1=1=0=1
1=1=0=1
1=1=0=1
1=1=0=1
1=1=0=1
1=1=0=1
1=1=0=1
1=1=0=1
1=1=0=1
1=1=0=1
1=1=0=1
1=1=0=1
1=1=0=1
1=1=0=1
1=1=0=1
1=1=0=1
1=1=0=1
1=1=0=1
1=1=0=1
1=1=0=1
1=1=0=1
1=1=0=1
1=1=0=1
1=1=0=1
1=1=0=1
1=1=0=1
1=1=0=1
1=1=0=1
1=1=0=1
1=1=0=1
1=1=0=1
1=1=0=1
1=1=0=1
1=1=0=1
1=1=0=1
1=1=0=1
1=1=0=1
1=1=0=1
1=1=0=1
3=1=0=0/20=2=2=0
3=1=0=0/15=2=1=0
3=1=0=0/15=2=1=0
3=1=0=0/15=2=1=0
3=1=0=0/15=2=1=0
3=1=0=0/20=2=3=0
3=1=0=0/8=2=3=0
7=1=0=0
1=1=0=1
1=1=0=1
1=1=0=1
1=1=0=1
1=1=0=1
1=1=0=1
1=1=0=1
1=1=0=1
1=1=0=1
1=1=0=1
1=1=0=1
1=1=0=1
1=1=0=1
1=1=0=1
1=1=0=1
1=1=0=1
1=1=0=1
1=1=0=1
1=1=0=1
1=1=0=1
1=1=0=1
1=1=0=1
1=1=0=1
1=1=0=1
1=1=0=1
1=1=0=1
1=1=0=1
1=1=0=1
1=1=0=1
1=1=0=1
1=1=0=1
1=1=0=1
1=1=0=1
1=1=0=1
1=1=0=1
1=1=0=1
1=1=0=1
1=1=0=1
1=1=0=1
1=1=0=1
1=1=0=1
1=1=0=1
1=1=0=1
1=1=0=1
1=1=0=1
1=1=0=1
1=1=0=1
1=1=0=1
1=1=0=1
1=1=0=1
1=1=0=1
1=1=0=1
3=1=0=0/11=2=0=0
7=1=0=0/33=2=0=25
7=1=0=0/33=2=0=25
7=1=0=0/33=2=0=25
7=1=0=0/33=2=0=25
7=1=0=0/33=2=0=25
7=1=0=0/33=2=0=25
7=1=0=0/33=2=0=25
1=1=0=1
1=1=0=1
1=1=0=1
1=1=0=1
1=1=0=1
1=1=0=1
1=1=0=1
1=1=0=1
1=1=0=1
1=1=0=1
1=1=0=1
1=1=0=1
1=1=0=1
1=1=0=1
1=1=0=1
1=1=0=1
1=1=0=1
1=1=0=1
1=1=0=1
1=1=0=1
1=1=0=1
1=1=0=1
1=1=0=1
1=1=0=1
1=1=0=1
1=1=0=1
1=1=0=1
1=1=0=1
1=1=0=1
1=1=0=1
1=1=0=1
1=1=0=1
1=1=0=1
1=1=0=1
1=1=0=1
1=1=0=1
1=1=0=1
1=1=0=1
1=1=0=1
1=1=0=1
1=1=0=1
1=1=0=1
1=1=0=1
1=1=0=1
1=1=0=1
1=1=0=1
1=1=0=1
1=1=0=1
1=1=0=1
1=1=0=1
1=1=0=1
3=1=0=0/9=2=2=0
3=1=0=0/12=2=0=0
3=1=0=0/11=2=1=0
3=1=0=0/11=2=1=0
3=1=0=0/11=2=1=0
3=1=0=0/11=2=1=0
3=1=0=0/11=2=1=0
3=1=0=0/11=2=1=0
3=1=0=0/8=2=0=0
1=1=0=1
1=1=0=1
1=1=0=1
1=1=0=1
1=1=0=1
1=1=0=1
1=1=0=1
1=1=0=1
1=1=0=1
1=1=0=1
1=1=0=1
1=1=0=1
1=1=0=1
1=1=0=1
1=1=0=1
1=1=0=1
1=1=0=1
1=1=0=1
1=1=0=1
1=1=0=1
1=1=0=1
1=1=0=1
1=1=0=1
1=1=0=1
1=1=0=1
1=1=0=1
1=1=0=1
1=1=0=1
1=1=0=1
1=1=0=1
1=1=0=1
1=1=0=1
1=1=0=1
1=1=0=1
1=1=0=1
1=1=0=1
1=1=0=1
1=1=0=1
1=1=0=1
1=1=0=1
1=1=0=1
1=1=0=1
1=1=0=1
1=1=0=1
1=1=0=1
1=1=0=1
1=1=0=1
1=1=0=1
1=1=0=1
1=1=0=1
1=1=0=1
21=1=0=1
7=1=0=0/33=2=0=25
7=1=0=0/33=2=0=25
7=1=0=0/33=2=0=25
7=1=0=0/33=2=0=25
7=1=0=0/33=2=0=25
7=1=0=0/33=2=0=25
7=1=0=0/33=2=0=25
3=1=0=0/11=2=0=0
1=1=0=1
1=1=0=1
1=1=0=1
1=1=0=1
1=1=0=1
1=1=0=1
1=1=0=1
1=1=0=1
1=1=0=1
1=1=0=1
1=1=0=1
1=1=0=1
1=1=0=1
1=1=0=1
1=1=0=1
1=1=0=1
1=1=0=1
1=1=0=1
1=1=0=1
1=1=0=1
1=1=0=1
1=1=0=1
1=1=0=1
1=1=0=1
1=1=0=1
1=1=0=1
1=1=0=1
1=1=0=1
1=1=0=1
1=1=0=1
1=1=0=1
1=1=0=1
1=1=0=1
1=1=0=1
1=1=0=1
1=1=0=1
1=1=0=1
1=1=0=1
1=1=0=1
1=1=0=1
1=1=0=1
1=1=0=1
1=1=0=1
1=1=0=1
1=1=0=1
1=1=0=1
1=1=0=1
1=1=0=1
1=1=0=1
1=1=0=1
1=1=0=1
1=1=0=1
3=1=0=0/8=2=1=0
3=1=0=0/11=2=1=0
3=1=0=0/12=2=2=0
3=1=0=0/11=2=1=0
3=1=0=0/12=2=2=0
3=1=0=0/11=2=1=0
3=1=0=0/20=2=1=0
3=1=0=0/17=2=2=0
3=1=0=0/16=2=3=0
3=1=0=0/32=2=0=5
1=1=0=1
1=1=0=1
1=1=0=1
1=1=0=1
1=1=0=1
1=1=0=1
1=1=0=1
1=1=0=1
1=1=0=1
1=1=0=1
1=1=0=1
1=1=0=1
1=1=0=1
1=1=0=1
1=1=0=1
1=1=0=1
1=1=0=1
1=1=0=1
1=1=0=1
1=1=0=1
1=1=0=1
1=1=0=1
1=1=0=1
1=1=0=1
1=1=0=1
1=1=0=1
1=1=0=1
1=1=0=1
1=1=0=1
1=1=0=1
1=1=0=1
1=1=0=1
1=1=0=1
1=1=0=1
1=1=0=1
1=1=0=1
1=1=0=1
1=1=0=1
1=1=0=1
1=1=0=1
1=1=0=1
1=1=0=1
1=1=0=1
1=1=0=1
1=1=0=1
1=1=0=1
1=1=0=1
1=1=0=1
1=1=0=1
1=1=0=1
3=1=0=0/11=2=0=0
7=1=0=0/33=2=0=25
3=1=0=0/11=2=0=0
7=1=0=0/33=2=0=25
3=1=0=0/11=2=0=0
7=1=0=0/33=2=0=25
3=1=0=0/15=2=0=0
3=1=0=0/15=2=2=0
21=1=0=1
21=1=0=1
1=1=0=1
1=1=0=1
1=1=0=1
1=1=0=1
1=1=0=1
1=1=0=1
1=1=0=1
1=1=0=1
1=1=0=1
1=1=0=1
1=1=0=1
1=1=0=1
1=1=0=1
1=1=0=1
1=1=0=1
1=1=0=1
1=1=0=1
1=1=0=1
1=1=0=1
1=1=0=1
1=1=0=1
1=1=0=1
1=1=0=1
1=1=0=1
1=1=0=1
1=1=0=1
1=1=0=1
1=1=0=1
1=1=0=1
1=1=0=1
1=1=0=1
1=1=0=1
1=1=0=1
1=1=0=1
1=1=0=1
1=1=0=1
1=1=0=1
1=1=0=1
1=1=0=1
1=1=0=1
1=1=0=1
1=1=0=1
1=1=0=1
1=1=0=1
1=1=0=1
1=1=0=1
1=1=0=1
1=1=0=1
1=1=0=1
1=1=0=1
3=1=0=0/19=2=2=0
3=1=0=0/19=2=1=0
3=1=0=0/12=2=0=0
3=1=0=0/12=2=2=0
3=1=0=0/12=2=0=0
3=1=0=0/12=2=2=0
3=1=0=0/19=2=3=0
3=1=0=0/19=2=0=0
1=1=0=1
1=1=0=1
1=1=0=1
1=1=0=1
1=1=0=1
1=1=0=1
1=1=0=1
1=1=0=1
1=1=0=1
1=1=0=1
1=1=0=1
1=1=0=1
1=1=0=1
1=1=0=1
1=1=0=1
1=1=0=1
1=1=0=1
1=1=0=1
1=1=0=1
1=1=0=1
1=1=0=1
1=1=0=1
1=1=0=1
1=1=0=1
1=1=0=1
1=1=0=1
1=1=0=1
1=1=0=1
1=1=0=1
1=1=0=1
1=1=0=1
1=1=0=1
1=1=0=1
1=1=0=1
1=1=0=1
1=1=0=1
1=1=0=1
1=1=0=1
1=1=0=1
1=1=0=1
1=1=0=1
1=1=0=1
1=1=0=1
1=1=0=1
1=1=0=1
1=1=0=1
1=1=0=1
1=1=0=1
1=1=0=1
1=1=0=1
3=1=0=0/32=2=0=5
3=1=0=0/16=2=1=0
3=1=0=0/16=2=3=0
3=1=0=0/15=2=2=0
7=1=0=0/33=2=0=25
3=1=0=0/11=2=0=0
7=1=0=0/33=2=0=25
3=1=0=0/11=2=0=0
7=1=0=0/33=2=0=25
3=1=0=0/11=2=0=0
1=1=0=1
1=1=0=1
1=1=0=1
1=1=0=1
1=1=0=1
1=1=0=1
1=1=0=1
1=1=0=1
1=1=0=1
1=1=0=1
1=1=0=1
1=1=0=1
1=1=0=1
1=1=0=1
1=1=0=1
1=1=0=1
1=1=0=1
1=1=0=1
1=1=0=1
1=1=0=1
1=1=0=1
1=1=0=1
1=1=0=1
1=1=0=1
1=1=0=1
1=1=0=1
1=1=0=1
1=1=0=1
1=1=0=1
1=1=0=1
1=1=0=1
1=1=0=1
1=1=0=1
1=1=0=1
1=1=0=1
1=1=0=1
1=1=0=1
1=1=0=1
1=1=0=1
1=1=0=1
1=1=0=1
1=1=0=1
1=1=0=1
1=1=0=1
1=1=0=1
1=1=0=1
1=1=0=1
1=1=0=1
1=1=0=1
1=1=0=1
21=1=0=1
21=1=0=1
3=1=0=0/20=2=2=0
3=1=0=0/20=2=3=0
3=1=0=0/12=2=2=0
3=1=0=0/12=2=0=0
3=1=0=0/12=2=2=0
3=1=0=0/12=2=0=0
3=1=0=0/20=2=1=0
3=1=0=0/20=2=0=0
1=1=0=1
1=1=0=1
1=1=0=1
1=1=0=1
1=1=0=1
1=1=0=1
1=1=0=1
1=1=0=1
1=1=0=1
1=1=0=1
1=1=0=1
1=1=0=1
1=1=0=1
1=1=0=1
1=1=0=1
1=1=0=1
1=1=0=1
1=1=0=1
1=1=0=1
1=1=0=1
1=1=0=1
1=1=0=1
1=1=0=1
1=1=0=1
1=1=0=1
1=1=0=1
1=1=0=1
1=1=0=1
1=1=0=1
1=1=0=1
1=1=0=1
1=1=0=1
1=1=0=1
1=1=0=1
1=1=0=1
1=1=0=1
1=1=0=1
1=1=0=1
1=1=0=1
1=1=0=1
1=1=0=1
1=1=0=1
1=1=0=1
1=1=0=1
1=1=0=1
1=1=0=1
1=1=0=1
1=1=0=1
1=1=0=1
1=1=0=1
1=1=0=1
1=1=0=1
3=1=0=0/11=2=0=0
7=1=0=0/33=2=0=25
3=1=0=0/11=2=0=0
7=1=0=0/33=2=0=25
3=1=0=0/11=2=0=0
7=1=0=0/33=2=0=25
3=1=0=0/15=2=0=0
3=1=0=0/15=2=2=0
1=1=0=1
1=1=0=1
1=1=0=1
1=1=0=1
1=1=0=1
1=1=0=1
1=1=0=1
1=1=0=1
1=1=0=1
1=1=0=1
1=1=0=1
1=1=0=1
1=1=0=1
1=1=0=1
1=1=0=1
1=1=0=1
1=1=0=1
1=1=0=1
1=1=0=1
1=1=0=1
1=1=0=1
1=1=0=1
1=1=0=1
1=1=0=1
1=1=0=1
1=1=0=1
1=1=0=1
1=1=0=1
1=1=0=1
1=1=0=1
1=1=0=1
1=1=0=1
1=1=0=1
1=1=0=1
1=1=0=1
1=1=0=1
1=1=0=1
1=1=0=1
1=1=0=1
1=1=0=1
1=1=0=1
1=1=0=1
1=1=0=1
1=1=0=1
1=1=0=1
1=1=0=1
1=1=0=1
1=1=0=1
1=1=0=1
1=1=0=1
1=1=0=1
1=1=0=1
3=1=0=0/19=2=2=0
3=1=0=0/19=2=1=0
3=1=0=0/12=2=0=0
3=1=0=0/12=2=2=0
3=1=0=0/12=2=0=0
3=1=0=0/12=2=2=0
3=1=0=0/19=2=3=0
3=1=0=0/17=2=1=0
3=1=0=0/16=2=3=0
3=1=0=0/32=2=0=5
1=1=0=1
1=1=0=1
1=1=0=1
1=1=0=1
1=1=0=1
1=1=0=1
1=1=0=1
1=1=0=1
1=1=0=1
1=1=0=1
1=1=0=1
1=1=0=1
1=1=0=1
1=1=0=1
1=1=0=1
1=1=0=1
1=1=0=1
1=1=0=1
1=1=0=1
1=1=0=1
1=1=0=1
1=1=0=1
1=1=0=1
1=1=0=1
1=1=0=1
1=1=0=1
1=1=0=1
1=1=0=1
1=1=0=1
1=1=0=1
1=1=0=1
1=1=0=1
1=1=0=1
1=1=0=1
1=1=0=1
1=1=0=1
1=1=0=1
1=1=0=1
1=1=0=1
1=1=0=1
1=1=0=1
1=1=0=1
1=1=0=1
1=1=0=1
1=1=0=1
1=1=0=1
1=1=0=1
1=1=0=1
1=1=0=1
1=1=0=1
3=1=0=0/15=2=0=0
3=1=0=0/15=2=2=0
7=1=0=0/33=2=0=25
3=1=0=0/11=2=0=0
7=1=0=0/33=2=0=25
3=1=0=0/11=2=0=0
7=1=0=0/33=2=0=25
3=1=0=0/11=2=0=0
21=1=0=1
21=1=0=1
1=1=0=1
1=1=0=1
1=1=0=1
1=1=0=1
1=1=0=1
1=1=0=1
1=1=0=1
1=1=0=1
1=1=0=1
1=1=0=1
1=1=0=1
1=1=0=1
1=1=0=1
1=1=0=1
1=1=0=1
1=1=0=1
1=1=0=1
1=1=0=1
1=1=0=1
1=1=0=1
1=1=0=1
1=1=0=1
1=1=0=1
1=1=0=1
1=1=0=1
1=1=0=1
1=1=0=1
1=1=0=1
1=1=0=1
1=1=0=1
1=1=0=1
1=1=0=1
1=1=0=1
1=1=0=1
1=1=0=1
1=1=0=1
1=1=0=1
1=1=0=1
1=1=0=1
1=1=0=1
1=1=0=1
1=1=0=1
1=1=0=1
1=1=0=1
1=1=0=1
1=1=0=1
1=1=0=1
1=1=0=1
1=1=0=1
1=1=0=1
3=1=0=0/20=2=2=0
3=1=0=0/20=2=3=0
3=1=0=0/12=2=2=0
3=1=0=0/12=2=0=0
3=1=0=0/12=2=2=0
3=1=0=0/12=2=0=0
3=1=0=0/12=2=2=0
3=1=0=0/8=2=3=0
1=1=0=1
1=1=0=1
1=1=0=1
1=1=0=1
1=1=0=1
1=1=0=1
1=1=0=1
1=1=0=1
1=1=0=1
1=1=0=1
1=1=0=1
1=1=0=1
1=1=0=1
1=1=0=1
1=1=0=1
1=1=0=1
1=1=0=1
1=1=0=1
1=1=0=1
1=1=0=1
1=1=0=1
1=1=0=1
1=1=0=1
1=1=0=1
1=1=0=1
1=1=0=1
1=1=0=1
1=1=0=1
1=1=0=1
1=1=0=1
1=1=0=1
1=1=0=1
1=1=0=1
1=1=0=1
1=1=0=1
1=1=0=1
1=1=0=1
1=1=0=1
1=1=0=1
1=1=0=1
1=1=0=1
1=1=0=1
1=1=0=1
1=1=0=1
1=1=0=1
1=1=0=1
1=1=0=1
1=1=0=1
1=1=0=1
1=1=0=1
1=1=0=1
1=1=0=1
3=1=0=0/11=2=0=0
7=1=0=0/47=2=0=22
3=1=0=0/11=2=0=0
7=1=0=0/47=2=0=22
3=1=0=0/11=2=0=0
7=1=0=0/47=2=0=22
3=1=0=0/11=2=0=0
7=1=0=0/47=2=0=22
1=1=0=1
1=1=0=1
1=1=0=1
1=1=0=1
1=1=0=1
1=1=0=1
1=1=0=1
1=1=0=1
1=1=0=1
1=1=0=1
1=1=0=1
1=1=0=1
1=1=0=1
1=1=0=1
1=1=0=1
1=1=0=1
1=1=0=1
1=1=0=1
1=1=0=1
1=1=0=1
1=1=0=1
1=1=0=1
1=1=0=1
1=1=0=1
1=1=0=1
1=1=0=1
1=1=0=1
1=1=0=1
1=1=0=1
1=1=0=1
1=1=0=1
1=1=0=1
1=1=0=1
1=1=0=1
1=1=0=1
1=1=0=1
1=1=0=1
1=1=0=1
1=1=0=1
1=1=0=1
1=1=0=1
1=1=0=1
1=1=0=1
1=1=0=1
1=1=0=1
1=1=0=1
1=1=0=1
1=1=0=1
1=1=0=1
1=1=0=1
1=1=0=1
1=1=0=1
3=1=0=0/8=2=2=0/44=6=3=19
3=1=0=0/12=2=2=0/44=6=3=19
3=1=0=0/12=2=0=0/44=6=3=19
3=1=0=0/12=2=2=0/44=6=3=19
3=1=0=0/12=2=0=0/44=6=3=19
3=1=0=0/12=2=2=0/44=6=3=19
3=1=0=0/12=2=0=0/44=6=3=19
3=1=0=0/8=2=0=0/44=6=3=19
1=1=0=1
1=1=0=1
1=1=0=1
1=1=0=1
1=1=0=1
1=1=0=1
1=1=0=1
1=1=0=1
1=1=0=1
1=1=0=1
1=1=0=1
1=1=0=1
1=1=0=1
1=1=0=1
1=1=0=1
1=1=0=1
1=1=0=1
1=1=0=1
1=1=0=1
1=1=0=1
1=1=0=1
1=1=0=1
1=1=0=1
1=1=0=1
1=1=0=1
1=1=0=1
1=1=0=1
1=1=0=1
1=1=0=1
1=1=0=1
1=1=0=1
1=1=0=1
1=1=0=1
1=1=0=1
1=1=0=1
1=1=0=1
1=1=0=1
1=1=0=1
1=1=0=1
1=1=0=1
1=1=0=1
1=1=0=1
1=1=0=1
1=1=0=1
1=1=0=1
1=1=0=1
1=1=0=1
1=1=0=1
1=1=0=1
1=1=0=1
1=1=0=1
1=1=0=1
7=1=0=0/47=2=0=22
3=1=0=0/11=2=0=0
7=1=0=0/47=2=0=22
3=1=0=0/11=2=0=0
7=1=0=0/47=2=0=22
3=1=0=0/11=2=0=0
7=1=0=0/47=2=0=22
3=1=0=0/11=2=0=0
1=1=0=1
1=1=0=1
1=1=0=1
1=1=0=1
1=1=0=1
1=1=0=1
1=1=0=1
1=1=0=1
1=1=0=1
1=1=0=1
1=1=0=1
1=1=0=1
1=1=0=1
1=1=0=1
1=1=0=1
1=1=0=1
1=1=0=1
1=1=0=1
1=1=0=1
1=1=0=1
1=1=0=1
1=1=0=1
1=1=0=1
1=1=0=1
1=1=0=1
1=1=0=1
1=1=0=1
1=1=0=1
1=1=0=1
1=1=0=1
1=1=0=1
1=1=0=1
1=1=0=1
1=1=0=1
1=1=0=1
1=1=0=1
1=1=0=1
1=1=0=1
1=1=0=1
1=1=0=1
1=1=0=1
1=1=0=1
1=1=0=1
1=1=0=1
1=1=0=1
1=1=0=1
1=1=0=1
1=1=0=1
1=1=0=1
1=1=0=1
1=1=0=1
1=1=0=1
3=1=0=0/14=2=1=0
3=1=0=0/16=2=2=0
3=1=0=0/15=2=3=0
3=1=0=0/16=2=2=0
3=1=0=0/15=2=3=0/30=5=0=4
3=1=0=0/16=2=2=0/36=5=0=7
3=1=0=0/15=2=3=0/30=5=0=4
3=1=0=0/20=2=0=0
1=1=0=1
1=1=0=1
1=1=0=1
1=1=0=1
1=1=0=1
1=1=0=1
1=1=0=1
1=1=0=1
1=1=0=1
1=1=0=1
1=1=0=1
1=1=0=1
1=1=0=1
1=1=0=1
1=1=0=1
1=1=0=1
1=1=0=1
1=1=0=1
1=1=0=1
1=1=0=1
1=1=0=1
1=1=0=1
1=1=0=1
1=1=0=1
1=1=0=1
1=1=0=1
1=1=0=1
1=1=0=1
1=1=0=1
1=1=0=1
1=1=0=1
1=1=0=1
1=1=0=1
1=1=0=1
1=1=0=1
1=1=0=1
1=1=0=1
1=1=0=1
1=1=0=1
1=1=0=1
1=1=0=1
1=1=0=1
1=1=0=1
1=1=0=1
1=1=0=1
1=1=0=1
1=1=0=1
1=1=0=1
1=1=0=1
1=1=0=1
1=1=0=1
1=1=0=1
3=1=0=0/15=2=0=0
3=1=0=0
3=1=0=0
3=1=0=0/37=3=0=10/29=5=0=3
3=1=0=0
3=1=0=0
3=1=0=0
3=1=0=0/15=2=2=0
1=1=0=1
1=1=0=1
1=1=0=1
1=1=0=1
1=1=0=1
1=1=0=1
1=1=0=1
1=1=0=1
1=1=0=1
1=1=0=1
1=1=0=1
1=1=0=1
1=1=0=1
1=1=0=1
1=1=0=1
1=1=0=1
1=1=0=1
1=1=0=1
1=1=0=1
1=1=0=1
1=1=0=1
1=1=0=1
1=1=0=1
1=1=0=1
1=1=0=1
1=1=0=1
1=1=0=1
1=1=0=1
1=1=0=1
1=1=0=1
1=1=0=1
1=1=0=1
1=1=0=1
1=1=0=1
1=1=0=1
1=1=0=1
1=1=0=1
1=1=0=1
1=1=0=1
1=1=0=1
1=1=0=1
1=1=0=1
1=1=0=1
1=1=0=1
1=1=0=1
1=1=0=1
1=1=0=1
1=1=0=1
1=1=0=1
1=1=0=1
1=1=0=1
1=1=0=1
3=1=0=0/15=2=0=0
3=1=0=0/37=3=0=10/29=5=0=3
3=1=0=0
3=1=0=0
3=1=0=0
3=1=0=0/37=3=0=10/29=5=0=3
3=1=0=0
3=1=0=0/15=2=2=0
1=1=0=1
1=1=0=1
1=1=0=1
1=1=0=1
1=1=0=1
1=1=0=1
1=1=0=1
1=1=0=1
1=1=0=1
1=1=0=1
1=1=0=1
1=1=0=1
1=1=0=1
1=1=0=1
1=1=0=1
1=1=0=1
1=1=0=1
1=1=0=1
1=1=0=1
1=1=0=1
1=1=0=1
1=1=0=1
1=1=0=1
1=1=0=1
1=1=0=1
1=1=0=1
1=1=0=1
1=1=0=1
1=1=0=1
1=1=0=1
1=1=0=1
1=1=0=1
1=1=0=1
1=1=0=1
1=1=0=1
1=1=0=1
1=1=0=1
1=1=0=1
1=1=0=1
1=1=0=1
1=1=0=1
1=1=0=1
1=1=0=1
1=1=0=1
1=1=0=1
1=1=0=1
1=1=0=1
1=1=0=1
3=1=0=0/8=2=1=0
3=1=0=0/16=2=3=0
3=1=0=0/37=3=0=10/29=5=0=3
1=1=0=1
3=1=0=0/14=2=2=0
3=1=0=0/15=2=1=0
3=1=0=0/15=2=1=0/30=5=0=4
3=1=0=0/15=2=1=0/36=5=0=7
3=1=0=0/15=2=1=0/30=5=0=4
3=1=0=0/15=2=1=0
3=1=0=0/16=2=0=0/30=5=0=4
3=1=0=0/14=2=3=0
1=1=0=1
1=1=0=1
1=1=0=1
1=1=0=1
1=1=0=1
1=1=0=1
1=1=0=1
1=1=0=1
1=1=0=1
1=1=0=1
1=1=0=1
1=1=0=1
1=1=0=1
1=1=0=1
1=1=0=1
1=1=0=1
1=1=0=1
1=1=0=1
1=1=0=1
1=1=0=1
1=1=0=1
1=1=0=1
1=1=0=1
1=1=0=1
1=1=0=1
1=1=0=1
1=1=0=1
1=1=0=1
1=1=0=1
1=1=0=1
1=1=0=1
1=1=0=1
1=1=0=1
1=1=0=1
1=1=0=1
1=1=0=1
1=1=0=1
1=1=0=1
1=1=0=1
1=1=0=1
1=1=0=1
1=1=0=1
1=1=0=1
1=1=0=1
1=1=0=1
1=1=0=1
1=1=0=1
1=1=0=1
3=1=0=0/11=2=0=0
21=1=0=1
21=1=0=1
1=1=0=1
21=1=0=1
21=1=0=1
21=1=0=1
21=1=0=1
21=1=0=1
21=1=0=1
3=1=0=0/24=2=0=16/31=3=0=6
21=1=0=1
1=1=0=1
1=1=0=1
1=1=0=1
1=1=0=1
1=1=0=1
1=1=0=1
1=1=0=1
1=1=0=1
1=1=0=1
1=1=0=1
1=1=0=1
1=1=0=1
1=1=0=1
1=1=0=1
1=1=0=1
1=1=0=1
1=1=0=1
1=1=0=1
1=1=0=1
1=1=0=1
1=1=0=1
1=1=0=1
1=1=0=1
1=1=0=1
1=1=0=1
1=1=0=1
1=1=0=1
1=1=0=1
1=1=0=1
1=1=0=1
1=1=0=1
1=1=0=1
1=1=0=1
1=1=0=1
1=1=0=1
1=1=0=1
1=1=0=1
1=1=0=1
1=1=0=1
1=1=0=1
1=1=0=1
1=1=0=1
1=1=0=1
1=1=0=1
1=1=0=1
1=1=0=1
1=1=0=1
1=1=0=1
3=1=0=0/11=2=0=0
1=1=0=1
1=1=0=1
1=1=0=1
1=1=0=1
1=1=0=1
1=1=0=1
1=1=0=1
1=1=0=1
1=1=0=1
42=1=0=17
1=1=0=1
1=1=0=1
1=1=0=1
1=1=0=1
1=1=0=1
1=1=0=1
1=1=0=1
1=1=0=1
1=1=0=1
1=1=0=1
1=1=0=1
1=1=0=1
1=1=0=1
1=1=0=1
1=1=0=1
1=1=0=1
1=1=0=1
1=1=0=1
1=1=0=1
1=1=0=1
1=1=0=1
1=1=0=1
1=1=0=1
1=1=0=1
1=1=0=1
1=1=0=1
1=1=0=1
1=1=0=1
1=1=0=1
1=1=0=1
1=1=0=1
1=1=0=1
1=1=0=1
1=1=0=1
1=1=0=1
1=1=0=1
1=1=0=1
1=1=0=1
1=1=0=1
1=1=0=1
1=1=0=1
1=1=0=1
1=1=0=1
1=1=0=1
1=1=0=1
1=1=0=1
1=1=0=1
1=1=0=1
1=1=0=1
3=1=0=0/11=2=0=0
7=1=0=0/28=3=0=15
3=1=0=0/14=2=1=0/28=3=0=15
3=1=0=0/45=2=0=20/30=5=0=4
3=1=0=0/15=2=3=0/28=3=0=15
3=1=0=0/28=3=0=15
3=1=0=0/45=2=0=20/40=5=0=13
3=1=0=0/15=2=3=0/28=3=0=15
3=1=0=0/15=2=3=0/28=3=0=15
3=1=0=0/15=2=3=0/28=3=0=15
3=1=0=0/14=2=0=0
7=1=0=0
1=1=0=1
1=1=0=1
1=1=0=1
1=1=0=1
1=1=0=1
1=1=0=1
1=1=0=1
1=1=0=1
1=1=0=1
1=1=0=1
1=1=0=1
1=1=0=1
1=1=0=1
1=1=0=1
1=1=0=1
1=1=0=1
1=1=0=1
1=1=0=1
1=1=0=1
1=1=0=1
1=1=0=1
1=1=0=1
1=1=0=1
1=1=0=1
1=1=0=1
1=1=0=1
1=1=0=1
1=1=0=1
1=1=0=1
1=1=0=1
1=1=0=1
1=1=0=1
1=1=0=1
1=1=0=1
3=1=0=0/14=2=1=0
3=1=0=0/15=2=3=0
3=1=0=0/15=2=3=0
3=1=0=0/15=2=3=0
3=1=0=0/15=2=3=0
3=1=0=0/15=2=3=0
3=1=0=0/15=2=3=0
3=1=0=0/15=2=3=0
3=1=0=0/15=2=3=0
3=1=0=0/15=2=3=0
3=1=0=0/15=2=3=0
3=1=0=0/15=2=3=0
3=1=0=0/15=2=3=0
3=1=0=0/15=2=3=0
3=1=0=0/20=2=0=0
7=1=0=0/28=3=0=15
3=1=0=0/15=2=0=0/28=3=0=15
3=1=0=0/28=3=0=15
3=1=0=0/28=3=0=15
3=1=0=0/28=3=0=15
3=1=0=0/28=3=0=15
3=1=0=0/28=3=0=15
3=1=0=0/28=3=0=15
3=1=0=0
3=1=0=0/15=2=2=0
7=1=0=0/46=2=0=21
1=1=0=1
1=1=0=1
1=1=0=1
1=1=0=1
1=1=0=1
1=1=0=1
1=1=0=1
1=1=0=1
1=1=0=1
1=1=0=1
1=1=0=1
1=1=0=1
1=1=0=1
1=1=0=1
1=1=0=1
1=1=0=1
1=1=0=1
1=1=0=1
1=1=0=1
1=1=0=1
1=1=0=1
1=1=0=1
1=1=0=1
1=1=0=1
1=1=0=1
1=1=0=1
1=1=0=1
1=1=0=1
1=1=0=1
1=1=0=1
1=1=0=1
1=1=0=1
1=1=0=1
1=1=0=1
3=1=0=0/14=2=2=0
3=1=0=0/15=2=1=0
3=1=0=0/15=2=1=0
3=1=0=0/15=2=1=0
3=1=0=0/15=2=1=0
3=1=0=0/15=2=1=0
3=1=0=0/15=2=1=0
3=1=0=0/15=2=1=0
3=1=0=0/15=2=1=0
3=1=0=0/15=2=1=0
3=1=0=0/15=2=1=0
3=1=0=0/15=2=1=0
3=1=0=0/15=2=1=0
3=1=0=0/15=2=1=0
3=1=0=0/14=2=3=0
7=1=0=0
3=1=0=0/15=2=0=0/28=3=0=15
3=1=0=0/28=3=0=15
3=1=0=0
3=1=0=0/28=3=0=15
3=1=0=0/28=3=0=15
3=1=0=0/28=3=0=15
3=1=0=0/28=3=0=15
3=1=0=0/28=3=0=15
3=1=0=0/15=2=2=0
7=1=0=0/30=5=0=4
7=1=0=0
7=1=0=0
1=1=0=1
1=1=0=1
1=1=0=1
1=1=0=1
1=1=0=1
1=1=0=1
1=1=0=1
1=1=0=1
1=1=0=1
1=1=0=1
1=1=0=1
1=1=0=1
1=1=0=1
1=1=0=1
1=1=0=1
1=1=0=1
1=1=0=1
1=1=0=1
1=1=0=1
1=1=0=1
1=1=0=1
1=1=0=1
1=1=0=1
1=1=0=1
1=1=0=1
1=1=0=1
1=1=0=1
1=1=0=1
1=1=0=1
1=1=0=1
1=1=0=1
1=1=0=1
7=1=0=0/32=2=0=5
7=1=0=0/47=2=0=22
7=1=0=0/47=2=0=22
7=1=0=0/47=2=0=22
7=1=0=0/47=2=0=22
7=1=0=0/47=2=0=22
7=1=0=0/47=2=0=22
7=1=0=0/47=2=0=22
7=1=0=0/47=2=0=22
7=1=0=0/47=2=0=22
7=1=0=0/47=2=0=22
7=1=0=0/47=2=0=22
7=1=0=0/47=2=0=22
7=1=0=0/47=2=0=22
7=1=0=0
7=1=0=0/28=3=0=15
3=1=0=0/28=3=0=15/15=2=0=0
3=1=0=0/28=3=0=15
3=1=0=0/28=3=0=15
3=1=0=0/28=3=0=15
3=1=0=0/28=3=0=15
3=1=0=0/28=3=0=15
3=1=0=0
3=1=0=0/28=3=0=15
3=1=0=0/15=2=2=0/28=3=0=15
7=1=0=0/28=3=0=15
21=1=0=1
21=1=0=1/27=3=0=2/29=5=0=3
1=1=0=1
1=1=0=1
1=1=0=1
1=1=0=1
1=1=0=1
1=1=0=1
1=1=0=1
1=1=0=1
1=1=0=1
1=1=0=1
1=1=0=1
1=1=0=1
1=1=0=1
1=1=0=1
1=1=0=1
1=1=0=1
1=1=0=1
1=1=0=1
1=1=0=1
1=1=0=1
1=1=0=1
1=1=0=1
1=1=0=1
1=1=0=1
1=1=0=1
1=1=0=1
1=1=0=1
1=1=0=1
1=1=0=1
1=1=0=1
1=1=0=1
1=1=0=1
21=1=0=1
21=1=0=1/44=6=2=19
21=1=0=1/44=6=2=19
21=1=0=1/44=6=2=19
21=1=0=1/44=6=2=19
21=1=0=1/44=6=2=19
21=1=0=1/44=6=2=19
21=1=0=1/44=6=2=19
21=1=0=1/44=6=2=19
21=1=0=1/44=6=2=19
21=1=0=1/44=6=2=19
21=1=0=1/44=6=2=19
21=1=0=1/44=6=2=19
21=1=0=1/44=6=2=19
21=1=0=1/44=6=2=19
7=1=0=0
3=1=0=0/15=2=0=0/28=3=0=15
3=1=0=0/28=3=0=15
3=1=0=0/28=3=0=15
3=1=0=0/28=3=0=15
3=1=0=0/28=3=0=15
3=1=0=0/28=3=0=15
3=1=0=0/28=3=0=15
3=1=0=0/28=3=0=15
3=1=0=0/15=2=2=0/28=3=0=15
7=1=0=0/28=3=0=15
1=1=0=1
1=1=0=1
1=1=0=1
1=1=0=1
1=1=0=1
1=1=0=1
1=1=0=1
1=1=0=1
1=1=0=1
1=1=0=1
1=1=0=1
1=1=0=1
1=1=0=1
1=1=0=1
1=1=0=1
1=1=0=1
1=1=0=1
1=1=0=1
1=1=0=1
1=1=0=1
1=1=0=1
1=1=0=1
1=1=0=1
1=1=0=1
1=1=0=1
1=1=0=1
1=1=0=1
1=1=0=1
1=1=0=1
1=1=0=1
1=1=0=1
1=1=0=1
1=1=0=1
1=1=0=1
1=1=0=1
1=1=0=1
1=1=0=1
1=1=0=1
1=1=0=1
1=1=0=1
1=1=0=1
1=1=0=1
1=1=0=1
1=1=0=1
1=1=0=1
1=1=0=1
1=1=0=1
1=1=0=1
1=1=0=1
7=1=0=0/48=2=0=23/30=5=0=4
3=1=0=0/15=2=0=0
3=1=0=0/28=3=0=15
3=1=0=0/28=3=0=15
3=1=0=0/28=3=0=15
3=1=0=0/28=3=0=15
3=1=0=0/28=3=0=15
3=1=0=0/28=3=0=15
3=1=0=0/28=3=0=15/13=2=1=0
3=1=0=0/14=2=3=0/28=3=0=15
7=1=0=0/28=3=0=15
3=1=0=0/9=2=2=0
3=1=0=0/11=2=1=0
3=1=0=0/20=2=1=0
3=1=0=0/14=2=0=0
1=1=0=1
3=1=0=0/14=2=1=0
3=1=0=0/15=2=3=0
3=1=0=0/15=2=3=0
3=1=0=0/15=2=3=0
3=1=0=0/44=6=2=19/14=2=0=0
3=1=0=0/46=2=0=21
1=1=0=1
1=1=0=1
1=1=0=1
1=1=0=1
1=1=0=1
1=1=0=1
1=1=0=1
1=1=0=1
1=1=0=1
1=1=0=1
1=1=0=1
1=1=0=1
1=1=0=1
1=1=0=1
1=1=0=1
1=1=0=1
1=1=0=1
1=1=0=1
1=1=0=1
1=1=0=1
1=1=0=1
1=1=0=1
1=1=0=1
1=1=0=1
1=1=0=1
1=1=0=1
1=1=0=1
1=1=0=1
1=1=0=1
1=1=0=1
1=1=0=1
1=1=0=1
1=1=0=1
1=1=0=1
1=1=0=1
1=1=0=1
1=1=0=1
1=1=0=1
7=1=0=0/28=3=0=15
3=1=0=0/15=2=0=0/28=3=0=15
3=1=0=0/28=3=0=15
3=1=0=0/28=3=0=15
3=1=0=0/28=3=0=15
3=1=0=0
3=1=0=0/28=3=0=15
3=1=0=0/28=3=0=15
3=1=0=0/28=3=0=15/15=2=2=0
21=1=0=1
7=1=0=0/28=3=0=15
21=1=0=1
21=1=0=1
3=1=0=0/15=2=0=0
3=1=0=0/15=2=2=0
1=1=0=1
3=1=0=0/15=2=0=0
3=1=0=0/13=2=1=0
3=1=0=0/15=2=1=0
3=1=0=0/13=2=0=0
3=1=0=0/44=6=2=19/15=2=2=0
3=1=0=0/46=2=0=21
1=1=0=1
1=1=0=1
1=1=0=1
1=1=0=1
1=1=0=1
1=1=0=1
1=1=0=1
1=1=0=1
1=1=0=1
1=1=0=1
1=1=0=1
1=1=0=1
1=1=0=1
1=1=0=1
1=1=0=1
1=1=0=1
1=1=0=1
1=1=0=1
1=1=0=1
1=1=0=1
1=1=0=1
1=1=0=1
1=1=0=1
1=1=0=1
1=1=0=1
1=1=0=1
1=1=0=1
1=1=0=1
1=1=0=1
1=1=0=1
1=1=0=1
1=1=0=1
1=1=0=1
1=1=0=1
1=1=0=1
1=1=0=1
1=1=0=1
1=1=0=1
7=1=0=0/48=2=0=23/40=5=0=13
3=1=0=0/15=2=0=0/28=3=0=15
3=1=0=0/28=3=0=15
3=1=0=0
3=1=0=0/28=3=0=15
3=1=0=0/28=3=0=15
3=1=0=0/28=3=0=15
3=1=0=0/28=3=0=15
3=1=0=0/28=3=0=15/13=2=2=0
1=1=0=1
7=1=0=0/28=3=0=15
1=1=0=1
1=1=0=1
3=1=0=0/15=2=0=0
3=1=0=0/15=2=2=0
1=1=0=1
3=1=0=0/15=2=0=0
3=1=0=0/15=2=2=0
21=1=0=1
3=1=0=0/15=2=0=0
3=1=0=0/15=2=2=0
21=1=0=1
1=1=0=1
1=1=0=1
1=1=0=1
1=1=0=1
1=1=0=1
1=1=0=1
1=1=0=1
1=1=0=1
1=1=0=1
1=1=0=1
1=1=0=1
1=1=0=1
1=1=0=1
1=1=0=1
1=1=0=1
1=1=0=1
1=1=0=1
1=1=0=1
1=1=0=1
1=1=0=1
1=1=0=1
1=1=0=1
1=1=0=1
1=1=0=1
1=1=0=1
1=1=0=1
1=1=0=1
1=1=0=1
1=1=0=1
1=1=0=1
1=1=0=1
1=1=0=1
1=1=0=1
1=1=0=1
1=1=0=1
1=1=0=1
1=1=0=1
1=1=0=1
7=1=0=0
3=1=0=0/14=2=2=0
3=1=0=0/15=2=1=0/28=3=0=15
3=1=0=0/15=2=1=0/28=3=0=15
3=1=0=0/15=2=1=0/28=3=0=15
3=1=0=0/16=2=0=0/28=3=0=15
3=1=0=0/15=2=1=0/28=3=0=15
3=1=0=0/16=2=0=0
3=1=0=0/15=2=1=0/28=3=0=15
3=1=0=0/14=2=3=0/28=3=0=15
7=1=0=0/28=3=0=15
1=1=0=1
1=1=0=1
3=1=0=0/15=2=0=0
3=1=0=0/13=2=2=0
3=1=0=0/19=2=1=0
3=1=0=0/19=2=3=0
3=1=0=0/14=2=3=0
1=1=0=1
3=1=0=0/14=2=2=0
3=1=0=0/14=2=3=0
1=1=0=1
1=1=0=1
1=1=0=1
1=1=0=1
1=1=0=1
1=1=0=1
1=1=0=1
1=1=0=1
1=1=0=1
1=1=0=1
1=1=0=1
1=1=0=1
1=1=0=1
1=1=0=1
1=1=0=1
1=1=0=1
1=1=0=1
1=1=0=1
1=1=0=1
1=1=0=1
1=1=0=1
1=1=0=1
1=1=0=1
1=1=0=1
1=1=0=1
1=1=0=1
1=1=0=1
1=1=0=1
1=1=0=1
1=1=0=1
1=1=0=1
1=1=0=1
1=1=0=1
1=1=0=1
1=1=0=1
1=1=0=1
1=1=0=1
1=1=0=1
1=1=0=1
21=1=0=1/27=3=0=2/29=5=0=3
21=1=0=1
21=1=0=1
21=1=0=1
21=1=0=1
3=1=0=0/24=2=0=16
21=1=0=1
3=1=0=0/11=2=0=0
21=1=0=1
21=1=0=1
21=1=0=1
1=1=0=1
1=1=0=1
3=1=0=0/14=2=2=0
3=1=0=0/15=2=1=0
3=1=0=0/14=2=3=0
7=1=0=0/47=2=0=22
7=1=0=0/47=2=0=22
1=1=0=1
7=1=0=0/47=2=0=22
7=1=0=0/47=2=0=22
7=1=0=0/41=3=0=14/29=5=0=3
1=1=0=1
1=1=0=1
1=1=0=1
1=1=0=1
1=1=0=1
1=1=0=1
1=1=0=1
1=1=0=1
1=1=0=1
1=1=0=1
1=1=0=1
1=1=0=1
1=1=0=1
1=1=0=1
1=1=0=1
1=1=0=1
1=1=0=1
1=1=0=1
1=1=0=1
1=1=0=1
1=1=0=1
1=1=0=1
1=1=0=1
1=1=0=1
1=1=0=1
1=1=0=1
1=1=0=1
1=1=0=1
1=1=0=1
1=1=0=1
1=1=0=1
1=1=0=1
1=1=0=1
1=1=0=1
1=1=0=1
1=1=0=1
1=1=0=1
1=1=0=1
1=1=0=1
1=1=0=1
1=1=0=1
1=1=0=1
1=1=0=1
42=1=0=17
1=1=0=1
3=1=0=0/11=2=0=0
1=1=0=1
1=1=0=1
1=1=0=1
1=1=0=1
1=1=0=1
21=1=0=1/30=5=0=4
21=1=0=1/36=5=0=7
21=1=0=1/30=5=0=4
21=1=0=1/44=6=1=19
21=1=0=1/44=6=1=19
1=1=0=1
21=1=0=1/44=6=1=19
21=1=0=1/44=6=1=19
21=1=0=1
1=1=0=1
1=1=0=1
1=1=0=1
1=1=0=1
1=1=0=1
1=1=0=1
1=1=0=1
1=1=0=1
1=1=0=1
1=1=0=1
1=1=0=1
1=1=0=1
1=1=0=1
1=1=0=1
1=1=0=1
1=1=0=1
1=1=0=1
1=1=0=1
1=1=0=1
1=1=0=1
1=1=0=1
1=1=0=1
1=1=0=1
1=1=0=1
1=1=0=1
1=1=0=1
1=1=0=1
1=1=0=1
1=1=0=1
1=1=0=1
1=1=0=1
1=1=0=1
1=1=0=1
1=1=0=1
3=1=0=0/28=3=0=15/14=2=1=0
3=1=0=0/28=3=0=15/15=2=3=0
3=1=0=0/28=3=0=15/15=2=3=0
3=1=0=0/28=3=0=15/15=2=3=0
3=1=0=0/28=3=0=15/15=2=3=0
3=1=0=0/28=3=0=15/15=2=3=0
3=1=0=0/28=3=0=15/15=2=3=0
3=1=0=0/15=2=3=0
3=1=0=0/19=2=1=0
3=1=0=0/8=2=3=0
1=1=0=1
3=1=0=0/30=5=0=4/19=2=2=0
3=1=0=0/36=5=0=7/19=2=1=0
3=1=0=0/30=5=0=4/11=2=1=0
3=1=0=0/30=5=0=4/11=2=1=0
3=1=0=0/36=5=0=7/20=2=1=0
3=1=0=0/30=5=0=4/14=2=0=0
1=1=0=1
1=1=0=1
1=1=0=1
1=1=0=1
1=1=0=1
1=1=0=1
1=1=0=1
1=1=0=1
1=1=0=1
1=1=0=1
1=1=0=1
1=1=0=1
1=1=0=1
1=1=0=1
1=1=0=1
1=1=0=1
1=1=0=1
1=1=0=1
1=1=0=1
1=1=0=1
1=1=0=1
1=1=0=1
1=1=0=1
1=1=0=1
1=1=0=1
1=1=0=1
1=1=0=1
1=1=0=1
1=1=0=1
1=1=0=1
1=1=0=1
1=1=0=1
1=1=0=1
1=1=0=1
1=1=0=1
1=1=0=1
1=1=0=1
1=1=0=1
1=1=0=1
1=1=0=1
1=1=0=1
1=1=0=1
1=1=0=1
3=1=0=0/28=3=0=15/15=2=0=0
3=1=0=0/28=3=0=15
3=1=0=0/28=3=0=15
3=1=0=0/28=3=0=15
3=1=0=0/28=3=0=15
3=1=0=0/28=3=0=15
3=1=0=0/28=3=0=15
3=1=0=0
3=1=0=0/15=2=2=0
21=1=0=1/27=3=0=2/29=5=0=3
1=1=0=1
3=1=0=0/15=2=0=0
3=1=0=0/15=2=2=0
21=1=0=1
21=1=0=1
3=1=0=0/15=2=0=0
3=1=0=0/15=2=2=0
1=1=0=1
1=1=0=1
1=1=0=1
1=1=0=1
1=1=0=1
1=1=0=1
1=1=0=1
1=1=0=1
1=1=0=1
1=1=0=1
1=1=0=1
1=1=0=1
1=1=0=1
1=1=0=1
1=1=0=1
1=1=0=1
1=1=0=1
1=1=0=1
1=1=0=1
1=1=0=1
1=1=0=1
1=1=0=1
1=1=0=1
1=1=0=1
1=1=0=1
1=1=0=1
1=1=0=1
1=1=0=1
1=1=0=1
1=1=0=1
1=1=0=1
1=1=0=1
1=1=0=1
1=1=0=1
1=1=0=1
1=1=0=1
1=1=0=1
1=1=0=1
1=1=0=1
1=1=0=1
1=1=0=1
1=1=0=1
1=1=0=1
3=1=0=0/28=3=0=15/15=2=0=0
3=1=0=0
3=1=0=0
3=1=0=0
3=1=0=0/28=3=0=15
3=1=0=0/28=3=0=15
3=1=0=0/28=3=0=15
3=1=0=0
3=1=0=0/15=2=2=0
1=1=0=1
1=1=0=1
3=1=0=0/15=2=0=0
3=1=0=0/15=2=2=0
1=1=0=1
1=1=0=1
3=1=0=0/15=2=0=0
3=1=0=0/15=2=2=0
1=1=0=1
1=1=0=1
1=1=0=1
1=1=0=1
1=1=0=1
1=1=0=1
1=1=0=1
1=1=0=1
1=1=0=1
1=1=0=1
1=1=0=1
1=1=0=1
1=1=0=1
1=1=0=1
1=1=0=1
1=1=0=1
1=1=0=1
1=1=0=1
1=1=0=1
1=1=0=1
1=1=0=1
1=1=0=1
1=1=0=1
1=1=0=1
1=1=0=1
1=1=0=1
1=1=0=1
1=1=0=1
1=1=0=1
1=1=0=1
1=1=0=1
1=1=0=1
1=1=0=1
1=1=0=1
1=1=0=1
1=1=0=1
1=1=0=1
1=1=0=1
1=1=0=1
1=1=0=1
1=1=0=1
1=1=0=1
1=1=0=1
3=1=0=0/28=3=0=15/15=2=0=0
3=1=0=0
3=1=0=0/28=3=0=15
3=1=0=0
3=1=0=0
3=1=0=0
3=1=0=0/28=3=0=15
3=1=0=0
3=1=0=0/13=2=2=0
3=1=0=0/14=2=0=0
1=1=0=1
3=1=0=0/14=2=2=0
3=1=0=0/14=2=3=0
1=1=0=1
1=1=0=1
3=1=0=0/14=2=2=0
3=1=0=0/14=2=3=0
1=1=0=1
1=1=0=1
1=1=0=1
1=1=0=1
1=1=0=1
1=1=0=1
1=1=0=1
1=1=0=1
1=1=0=1
1=1=0=1
1=1=0=1
1=1=0=1
1=1=0=1
1=1=0=1
1=1=0=1
1=1=0=1
1=1=0=1
1=1=0=1
1=1=0=1
1=1=0=1
1=1=0=1
1=1=0=1
1=1=0=1
1=1=0=1
1=1=0=1
1=1=0=1
1=1=0=1
1=1=0=1
1=1=0=1
1=1=0=1
1=1=0=1
1=1=0=1
1=1=0=1
1=1=0=1
1=1=0=1
1=1=0=1
1=1=0=1
1=1=0=1
1=1=0=1
1=1=0=1
1=1=0=1
1=1=0=1
1=1=0=1
3=1=0=0/28=3=0=15/15=2=0=0
3=1=0=0
3=1=0=0/28=3=0=15
3=1=0=0/28=3=0=15
3=1=0=0/28=3=0=15
3=1=0=0
3=1=0=0
3=1=0=0
3=1=0=0
3=1=0=0/15=2=2=0
1=1=0=1
21=1=0=1/27=3=0=2/29=5=0=3
21=1=0=1/27=3=0=2/29=5=0=3
1=1=0=1
1=1=0=1
21=1=0=1/27=3=0=2/29=5=0=3
21=1=0=1/27=3=0=2/29=5=0=3
1=1=0=1
1=1=0=1
1=1=0=1
1=1=0=1
1=1=0=1
1=1=0=1
1=1=0=1
1=1=0=1
1=1=0=1
1=1=0=1
1=1=0=1
1=1=0=1
1=1=0=1
1=1=0=1
1=1=0=1
1=1=0=1
1=1=0=1
1=1=0=1
1=1=0=1
1=1=0=1
1=1=0=1
1=1=0=1
1=1=0=1
1=1=0=1
1=1=0=1
1=1=0=1
1=1=0=1
1=1=0=1
1=1=0=1
1=1=0=1
1=1=0=1
1=1=0=1
1=1=0=1
1=1=0=1
1=1=0=1
1=1=0=1
1=1=0=1
1=1=0=1
1=1=0=1
1=1=0=1
1=1=0=1
1=1=0=1
1=1=0=1
3=1=0=0/28=3=0=15/15=2=0=0
3=1=0=0
3=1=0=0/28=3=0=15
3=1=0=0/28=3=0=15
3=1=0=0/28=3=0=15
3=1=0=0/28=3=0=15
3=1=0=0/28=3=0=15
3=1=0=0/28=3=0=15
3=1=0=0/28=3=0=15
3=1=0=0/28=3=0=15/15=2=2=0
1=1=0=1
1=1=0=1
1=1=0=1
1=1=0=1
1=1=0=1
1=1=0=1
1=1=0=1
1=1=0=1
1=1=0=1
1=1=0=1
1=1=0=1
1=1=0=1
1=1=0=1
1=1=0=1
1=1=0=1
1=1=0=1
1=1=0=1
1=1=0=1
1=1=0=1
1=1=0=1
1=1=0=1
1=1=0=1
1=1=0=1
1=1=0=1
1=1=0=1
1=1=0=1
1=1=0=1
1=1=0=1
1=1=0=1
1=1=0=1
1=1=0=1
1=1=0=1
1=1=0=1
1=1=0=1
1=1=0=1
1=1=0=1
1=1=0=1
1=1=0=1
1=1=0=1
1=1=0=1
1=1=0=1
1=1=0=1
1=1=0=1
1=1=0=1
1=1=0=1
1=1=0=1
1=1=0=1
1=1=0=1
1=1=0=1
1=1=0=1
3=1=0=0/28=3=0=15/14=2=2=0
3=1=0=0/30=5=0=4/16=2=0=0
3=1=0=0/28=3=0=15/15=2=1=0
3=1=0=0/28=3=0=15/15=2=1=0
3=1=0=0/28=3=0=15/15=2=1=0
3=1=0=0/28=3=0=15/15=2=1=0
3=1=0=0/28=3=0=15/15=2=1=0
3=1=0=0/28=3=0=15/15=2=1=0
3=1=0=0/28=3=0=15/15=2=1=0
3=1=0=0/28=3=0=15/14=2=3=0
1=1=0=1
1=1=0=1
1=1=0=1
1=1=0=1
1=1=0=1
1=1=0=1
1=1=0=1
1=1=0=1
1=1=0=1
1=1=0=1
1=1=0=1
1=1=0=1
1=1=0=1
1=1=0=1
1=1=0=1
1=1=0=1
1=1=0=1
1=1=0=1
1=1=0=1
1=1=0=1
1=1=0=1
1=1=0=1
1=1=0=1
1=1=0=1
1=1=0=1
1=1=0=1
1=1=0=1
1=1=0=1
1=1=0=1
1=1=0=1
1=1=0=1
1=1=0=1
1=1=0=1
1=1=0=1
1=1=0=1
1=1=0=1
1=1=0=1
1=1=0=1
1=1=0=1
1=1=0=1
1=1=0=1
1=1=0=1
1=1=0=1
1=1=0=1
1=1=0=1
1=1=0=1
1=1=0=1
1=1=0=1
1=1=0=1
1=1=0=1
21=1=0=1
3=1=0=0/24=2=0=16/31=3=0=6
21=1=0=1
21=1=0=1
21=1=0=1
21=1=0=1
21=1=0=1
21=1=0=1
21=1=0=1
21=1=0=1
1=1=0=1
1=1=0=1
1=1=0=1
1=1=0=1
1=1=0=1
1=1=0=1
1=1=0=1
1=1=0=1
1=1=0=1
1=1=0=1
1=1=0=1
1=1=0=1
1=1=0=1
1=1=0=1
1=1=0=1
1=1=0=1
1=1=0=1
1=1=0=1
1=1=0=1
1=1=0=1
1=1=0=1
1=1=0=1
1=1=0=1
1=1=0=1
1=1=0=1
1=1=0=1
1=1=0=1
1=1=0=1
1=1=0=1
1=1=0=1
1=1=0=1
1=1=0=1
1=1=0=1
1=1=0=1
1=1=0=1
1=1=0=1
1=1=0=1
1=1=0=1
1=1=0=1
1=1=0=1
1=1=0=1
1=1=0=1
1=1=0=1
1=1=0=1
1=1=0=1
1=1=0=1
1=1=0=1
1=1=0=1
1=1=0=1
1=1=0=1
1=1=0=1
42=1=0=17/39=7=0=12
1=1=0=1
1=1=0=1
1=1=0=1
1=1=0=1
1=1=0=1
1=1=0=1
1=1=0=1
1=1=0=1
1=1=0=1
1=1=0=1
1=1=0=1
1=1=0=1
1=1=0=1
1=1=0=1
1=1=0=1
1=1=0=1
1=1=0=1
1=1=0=1
1=1=0=1
1=1=0=1
1=1=0=1
1=1=0=1
1=1=0=1
1=1=0=1
1=1=0=1
1=1=0=1
1=1=0=1
1=1=0=1
1=1=0=1
1=1=0=1
1=1=0=1
1=1=0=1
1=1=0=1
1=1=0=1
1=1=0=1
1=1=0=1
1=1=0=1
1=1=0=1
1=1=0=1
1=1=0=1
1=1=0=1
1=1=0=1
1=1=0=1
1=1=0=1
1=1=0=1
1=1=0=1
1=1=0=1
1=1=0=1
1=1=0=1
1=1=0=1
1=1=0=1
1=1=0=1
1=1=0=1
1=1=0=1
1=1=0=1
1=1=0=1
1=1=0=1
1=1=0=1
1=1=0=1
1=1=0=1
1=1=0=1
1=1=0=1
1=1=0=1
1=1=0=1
1=1=0=1
1=1=0=1
1=1=0=1
1=1=0=1
1=1=0=1
1=1=0=1
1=1=0=1
1=1=0=1
1=1=0=1
1=1=0=1
1=1=0=1
1=1=0=1
1=1=0=1
1=1=0=1
1=1=0=1
1=1=0=1
1=1=0=1
1=1=0=1
1=1=0=1
1=1=0=1
1=1=0=1
1=1=0=1
1=1=0=1
1=1=0=1
1=1=0=1
1=1=0=1
1=1=0=1
1=1=0=1
1=1=0=1
1=1=0=1
1=1=0=1
1=1=0=1
1=1=0=1
1=1=0=1
1=1=0=1
1=1=0=1
1=1=0=1
1=1=0=1
1=1=0=1
1=1=0=1
1=1=0=1
1=1=0=1
1=1=0=1
1=1=0=1
1=1=0=1
1=1=0=1
1=1=0=1
1=1=0=1
1=1=0=1
1=1=0=1
1=1=0=1
1=1=0=1
1=1=0=1
1=1=0=1
1=1=0=1
1=1=0=1
1=1=0=1
1=1=0=1
1=1=0=1
1=1=0=1
1=1=0=1
1=1=0=1
1=1=0=1
1=1=0=1
1=1=0=1
1=1=0=1
1=1=0=1
1=1=0=1
1=1=0=1
1=1=0=1
1=1=0=1
1=1=0=1
1=1=0=1
1=1=0=1
1=1=0=1
1=1=0=1
1=1=0=1
1=1=0=1
1=1=0=1
1=1=0=1
1=1=0=1
1=1=0=1
1=1=0=1
1=1=0=1
1=1=0=1
1=1=0=1
1=1=0=1
1=1=0=1
1=1=0=1
1=1=0=1
1=1=0=1
1=1=0=1
1=1=0=1
1=1=0=1
1=1=0=1
1=1=0=1
1=1=0=1
1=1=0=1
1=1=0=1
1=1=0=1
1=1=0=1
1=1=0=1
1=1=0=1
1=1=0=1
1=1=0=1
1=1=0=1
1=1=0=1
1=1=0=1
1=1=0=1
1=1=0=1
1=1=0=1
1=1=0=1
1=1=0=1
1=1=0=1
1=1=0=1
1=1=0=1
1=1=0=1
1=1=0=1
1=1=0=1
1=1=0=1
1=1=0=1
1=1=0=1
1=1=0=1
1=1=0=1
1=1=0=1
1=1=0=1
1=1=0=1
1=1=0=1
1=1=0=1
1=1=0=1
1=1=0=1
1=1=0=1
1=1=0=1
1=1=0=1
1=1=0=1
1=1=0=1
1=1=0=1
1=1=0=1
1=1=0=1
1=1=0=1
1=1=0=1
1=1=0=1
1=1=0=1
1=1=0=1
1=1=0=1
1=1=0=1
1=1=0=1
1=1=0=1
1=1=0=1
1=1=0=1
1=1=0=1
1=1=0=1
1=1=0=1
1=1=0=1
1=1=0=1
1=1=0=1
1=1=0=1
1=1=0=1
1=1=0=1
1=1=0=1
1=1=0=1
1=1=0=1
1=1=0=1
1=1=0=1
1=1=0=1
1=1=0=1
1=1=0=1
1=1=0=1
1=1=0=1
1=1=0=1
1=1=0=1
1=1=0=1
1=1=0=1
1=1=0=1
1=1=0=1
1=1=0=1
1=1=0=1
1=1=0=1
1=1=0=1
1=1=0=1
1=1=0=1
1=1=0=1
1=1=0=1
1=1=0=1
1=1=0=1
1=1=0=1
1=1=0=1
1=1=0=1
1=1=0=1
1=1=0=1
1=1=0=1
1=1=0=1
1=1=0=1
1=1=0=1
1=1=0=1
1=1=0=1
1=1=0=1
1=1=0=1
1=1=0=1
1=1=0=1
1=1=0=1
1=1=0=1
1=1=0=1
1=1=0=1
1=1=0=1
1=1=0=1
1=1=0=1
1=1=0=1
1=1=0=1
1=1=0=1
1=1=0=1
1=1=0=1
1=1=0=1
1=1=0=1
1=1=0=1
1=1=0=1
1=1=0=1
1=1=0=1
1=1=0=1
1=1=0=1
1=1=0=1
1=1=0=1
1=1=0=1
1=1=0=1
1=1=0=1
1=1=0=1
1=1=0=1
1=1=0=1
1=1=0=1
1=1=0=1
1=1=0=1
1=1=0=1
1=1=0=1
1=1=0=1
1=1=0=1
1=1=0=1
1=1=0=1
1=1=0=1
1=1=0=1
1=1=0=1
1=1=0=1
1=1=0=1
1=1=0=1
1=1=0=1
1=1=0=1
1=1=0=1
1=1=0=1
1=1=0=1
1=1=0=1
1=1=0=1
1=1=0=1
1=1=0=1
1=1=0=1
1=1=0=1
1=1=0=1
1=1=0=1
1=1=0=1
1=1=0=1
1=1=0=1
1=1=0=1
1=1=0=1
1=1=0=1
1=1=0=1
1=1=0=1
1=1=0=1
1=1=0=1
1=1=0=1
1=1=0=1
1=1=0=1
1=1=0=1
1=1=0=1
1=1=0=1
1=1=0=1
1=1=0=1
1=1=0=1
1=1=0=1
1=1=0=1
1=1=0=1
1=1=0=1
1=1=0=1
1=1=0=1
1=1=0=1
1=1=0=1
1=1=0=1
1=1=0=1
1=1=0=1
1=1=0=1
1=1=0=1
1=1=0=1
1=1=0=1
1=1=0=1
1=1=0=1
1=1=0=1
1=1=0=1
1=1=0=1
1=1=0=1
1=1=0=1
1=1=0=1
1=1=0=1
1=1=0=1
1=1=0=1
1=1=0=1
1=1=0=1
1=1=0=1
1=1=0=1
1=1=0=1
1=1=0=1
1=1=0=1
1=1=0=1
1=1=0=1
1=1=0=1
1=1=0=1
1=1=0=1
1=1=0=1
1=1=0=1
1=1=0=1
1=1=0=1
1=1=0=1
1=1=0=1
1=1=0=1
1=1=0=1
1=1=0=1
1=1=0=1
1=1=0=1
1=1=0=1
1=1=0=1
1=1=0=1
1=1=0=1
1=1=0=1
1=1=0=1
1=1=0=1
1=1=0=1
1=1=0=1
1=1=0=1
1=1=0=1
1=1=0=1
1=1=0=1
1=1=0=1
1=1=0=1
1=1=0=1
1=1=0=1
1=1=0=1
1=1=0=1
1=1=0=1
1=1=0=1
1=1=0=1
1=1=0=1
1=1=0=1
1=1=0=1
1=1=0=1
1=1=0=1
1=1=0=1
1=1=0=1
1=1=0=1
1=1=0=1
1=1=0=1
1=1=0=1
1=1=0=1
1=1=0=1
1=1=0=1
1=1=0=1
1=1=0=1
1=1=0=1
1=1=0=1
1=1=0=1
1=1=0=1
1=1=0=1
1=1=0=1
1=1=0=1
1=1=0=1
1=1=0=1
1=1=0=1
1=1=0=1
1=1=0=1
1=1=0=1
1=1=0=1
1=1=0=1
1=1=0=1
1=1=0=1
1=1=0=1
1=1=0=1
1=1=0=1
1=1=0=1
1=1=0=1
1=1=0=1
1=1=0=1
1=1=0=1
1=1=0=1
1=1=0=1
1=1=0=1
1=1=0=1
1=1=0=1
1=1=0=1
1=1=0=1
1=1=0=1
1=1=0=1
1=1=0=1
1=1=0=1
1=1=0=1
1=1=0=1
1=1=0=1
1=1=0=1
1=1=0=1
1=1=0=1
1=1=0=1
1=1=0=1
1=1=0=1
1=1=0=1
1=1=0=1
1=1=0=1
1=1=0=1
1=1=0=1
1=1=0=1
1=1=0=1
1=1=0=1
1=1=0=1
1=1=0=1
1=1=0=1
1=1=0=1
1=1=0=1
1=1=0=1
1=1=0=1
1=1=0=1
1=1=0=1
1=1=0=1
1=1=0=1
1=1=0=1
1=1=0=1
1=1=0=1
1=1=0=1
1=1=0=1
1=1=0=1
1=1=0=1
1=1=0=1
1=1=0=1
1=1=0=1
1=1=0=1
1=1=0=1
1=1=0=1
1=1=0=1
1=1=0=1
1=1=0=1
1=1=0=1
1=1=0=1
1=1=0=1
1=1=0=1
1=1=0=1
1=1=0=1
1=1=0=1
1=1=0=1
1=1=0=1
1=1=0=1
1=1=0=1
1=1=0=1
1=1=0=1
1=1=0=1
1=1=0=1
1=1=0=1
1=1=0=1
1=1=0=1
1=1=0=1
1=1=0=1
1=1=0=1
1=1=0=1
1=1=0=1
1=1=0=1
1=1=0=1
1=1=0=1
1=1=0=1
1=1=0=1
1=1=0=1
1=1=0=1
1=1=0=1
1=1=0=1
1=1=0=1
1=1=0=1
1=1=0=1
1=1=0=1
1=1=0=1
1=1=0=1
1=1=0=1
1=1=0=1
1=1=0=1
1=1=0=1
1=1=0=1
1=1=0=1
1=1=0=1
1=1=0=1
1=1=0=1
1=1=0=1
1=1=0=1
1=1=0=1
1=1=0=1
1=1=0=1
1=1=0=1
1=1=0=1
1=1=0=1
1=1=0=1
1=1=0=1
1=1=0=1
1=1=0=1
1=1=0=1
1=1=0=1
1=1=0=1
1=1=0=1
1=1=0=1
1=1=0=1
1=1=0=1
1=1=0=1
1=1=0=1
1=1=0=1
1=1=0=1
1=1=0=1
1=1=0=1
1=1=0=1
1=1=0=1
1=1=0=1
1=1=0=1
1=1=0=1
1=1=0=1
1=1=0=1
1=1=0=1
1=1=0=1
1=1=0=1
1=1=0=1
1=1=0=1
1=1=0=1
1=1=0=1
1=1=0=1
1=1=0=1
1=1=0=1
1=1=0=1
1=1=0=1
1=1=0=1
1=1=0=1
1=1=0=1
1=1=0=1
1=1=0=1
1=1=0=1
1=1=0=1
1=1=0=1
1=1=0=1
1=1=0=1
1=1=0=1
1=1=0=1
1=1=0=1
1=1=0=1
1=1=0=1
1=1=0=1
1=1=0=1
1=1=0=1
1=1=0=1
1=1=0=1
1=1=0=1
1=1=0=1
1=1=0=1
1=1=0=1
1=1=0=1
1=1=0=1
1=1=0=1
1=1=0=1
1=1=0=1
1=1=0=1
1=1=0=1
1=1=0=1
1=1=0=1
1=1=0=1
1=1=0=1
1=1=0=1
1=1=0=1
1=1=0=1
1=1=0=1
1=1=0=1
1=1=0=1
1=1=0=1
1=1=0=1
1=1=0=1
1=1=0=1
1=1=0=1
1=1=0=1
1=1=0=1
1=1=0=1
1=1=0=1
1=1=0=1
1=1=0=1
1=1=0=1
1=1=0=1
1=1=0=1
1=1=0=1
1=1=0=1
1=1=0=1
1=1=0=1
1=1=0=1
1=1=0=1
1=1=0=1
1=1=0=1
1=1=0=1
1=1=0=1
1=1=0=1
1=1=0=1
1=1=0=1
1=1=0=1
1=1=0=1
1=1=0=1
1=1=0=1
1=1=0=1
1=1=0=1
1=1=0=1
1=1=0=1
1=1=0=1
1=1=0=1
1=1=0=1
1=1=0=1
1=1=0=1
1=1=0=1
1=1=0=1
1=1=0=1
1=1=0=1
1=1=0=1
1=1=0=1
1=1=0=1
1=1=0=1
1=1=0=1
1=1=0=1
1=1=0=1
1=1=0=1
1=1=0=1
1=1=0=1
1=1=0=1
1=1=0=1
1=1=0=1
1=1=0=1
1=1=0=1
1=1=0=1
1=1=0=1
1=1=0=1
1=1=0=1
1=1=0=1
1=1=0=1
1=1=0=1
1=1=0=1
1=1=0=1
1=1=0=1
1=1=0=1
1=1=0=1
1=1=0=1
1=1=0=1
1=1=0=1
1=1=0=1
1=1=0=1
1=1=0=1
1=1=0=1
1=1=0=1
1=1=0=1
1=1=0=1
1=1=0=1
1=1=0=1
1=1=0=1
1=1=0=1
1=1=0=1
1=1=0=1
1=1=0=1
1=1=0=1
1=1=0=1
1=1=0=1
1=1=0=1
1=1=0=1
1=1=0=1
1=1=0=1
1=1=0=1
1=1=0=1
1=1=0=1
1=1=0=1
1=1=0=1
1=1=0=1
1=1=0=1
1=1=0=1
1=1=0=1
1=1=0=1
1=1=0=1
1=1=0=1
1=1=0=1
