1=1=0=1
1=1=0=1
1=1=0=1
1=1=0=1
1=1=0=1
1=1=0=1
1=1=0=1
1=1=0=1
1=1=0=1
1=1=0=1
1=1=0=1
1=1=0=1
1=1=0=1
1=1=0=1
1=1=0=1
1=1=0=1
1=1=0=1
1=1=0=1
1=1=0=1
1=1=0=1
1=1=0=1
1=1=0=1
1=1=0=1
1=1=0=1
1=1=0=1
1=1=0=1
1=1=0=1
1=1=0=1
1=1=0=1
1=1=0=1
1=1=0=1
1=1=0=1
1=1=0=1
1=1=0=1
1=1=0=1
1=1=0=1
1=1=0=1
1=1=0=1
1=1=0=1
1=1=0=1
1=1=0=1
1=1=0=1
1=1=0=1
1=1=0=1
1=1=0=1
1=1=0=1
1=1=0=1
1=1=0=1
1=1=0=1
1=1=0=1
1=1=0=1
1=1=0=1
1=1=0=1
1=1=0=1
1=1=0=1
1=1=0=1
1=1=0=1
1=1=0=1
1=1=0=1
1=1=0=1
1=1=0=1
1=1=0=1
1=1=0=1
1=1=0=1
1=1=0=1
1=1=0=1
1=1=0=1
1=1=0=1
1=1=0=1
1=1=0=1
1=1=0=1
1=1=0=1
1=1=0=1
1=1=0=1
1=1=0=1
1=1=0=1
1=1=0=1
1=1=0=1
1=1=0=1
1=1=0=1
1=1=0=1
1=1=0=1
1=1=0=1
1=1=0=1
1=1=0=1
1=1=0=1
1=1=0=1
1=1=0=1
1=1=0=1
1=1=0=1
1=1=0=1
1=1=0=1
1=1=0=1
1=1=0=1
1=1=0=1
6=1=0=0
6=1=0=0
6=1=0=0/38=7=0=11
6=1=0=0
6=1=0=0
6=1=0=0
1=1=0=1
1=1=0=1
1=1=0=1
1=1=0=1
1=1=0=1
1=1=0=1
1=1=0=1
1=1=0=1
1=1=0=1
1=1=0=1
1=1=0=1
1=1=0=1
1=1=0=1
1=1=0=1
1=1=0=1
1=1=0=1
1=1=0=1
1=1=0=1
1=1=0=1
1=1=0=1
1=1=0=1
1=1=0=1
1=1=0=1
1=1=0=1
1=1=0=1
1=1=0=1
1=1=0=1
1=1=0=1
1=1=0=1
1=1=0=1
1=1=0=1
1=1=0=1
1=1=0=1
1=1=0=1
1=1=0=1
1=1=0=1
1=1=0=1
1=1=0=1
1=1=0=1
1=1=0=1
1=1=0=1
1=1=0=1
1=1=0=1
1=1=0=1
1=1=0=1
1=1=0=1
1=1=0=1
1=1=0=1
1=1=0=1
1=1=0=1
1=1=0=1
1=1=0=1
1=1=0=1
1=1=0=1
6=1=0=0
6=1=0=0
6=1=0=0
6=1=0=0
6=1=0=0/52=4=0=28
6=1=0=0
1=1=0=1
1=1=0=1
1=1=0=1
1=1=0=1
1=1=0=1
1=1=0=1
1=1=0=1
1=1=0=1
1=1=0=1
1=1=0=1
1=1=0=1
1=1=0=1
1=1=0=1
1=1=0=1
1=1=0=1
1=1=0=1
1=1=0=1
1=1=0=1
1=1=0=1
1=1=0=1
1=1=0=1
1=1=0=1
1=1=0=1
1=1=0=1
1=1=0=1
1=1=0=1
1=1=0=1
1=1=0=1
1=1=0=1
1=1=0=1
1=1=0=1
1=1=0=1
1=1=0=1
1=1=0=1
1=1=0=1
1=1=0=1
1=1=0=1
1=1=0=1
1=1=0=1
1=1=0=1
1=1=0=1
1=1=0=1
1=1=0=1
1=1=0=1
1=1=0=1
1=1=0=1
1=1=0=1
1=1=0=1
1=1=0=1
1=1=0=1
1=1=0=1
1=1=0=1
1=1=0=1
1=1=0=1
6=1=0=0
23=1=0=1/51=3=0=27
23=1=0=1
23=1=0=1/43=3=0=18
23=1=0=1/51=3=0=27
6=1=0=0
1=1=0=1
1=1=0=1
1=1=0=1
1=1=0=1
1=1=0=1
1=1=0=1
1=1=0=1
1=1=0=1
1=1=0=1
1=1=0=1
1=1=0=1
1=1=0=1
1=1=0=1
1=1=0=1
1=1=0=1
1=1=0=1
1=1=0=1
1=1=0=1
1=1=0=1
1=1=0=1
1=1=0=1
1=1=0=1
1=1=0=1
1=1=0=1
1=1=0=1
1=1=0=1
1=1=0=1
1=1=0=1
1=1=0=1
1=1=0=1
1=1=0=1
1=1=0=1
1=1=0=1
1=1=0=1
1=1=0=1
1=1=0=1
1=1=0=1
1=1=0=1
1=1=0=1
1=1=0=1
1=1=0=1
1=1=0=1
1=1=0=1
1=1=0=1
1=1=0=1
1=1=0=1
1=1=0=1
1=1=0=1
1=1=0=1
1=1=0=1
1=1=0=1
6=1=0=0
6=1=0=0/37=3=0=10/29=5=0=3
6=1=0=0
6=1=0=0
1=1=0=1
1=1=0=1
1=1=0=1
1=1=0=1
6=1=0=0
6=1=0=0
6=1=0=0/37=3=0=10/29=5=0=3
6=1=0=0
1=1=0=1
1=1=0=1
1=1=0=1
1=1=0=1
1=1=0=1
1=1=0=1
1=1=0=1
1=1=0=1
1=1=0=1
1=1=0=1
1=1=0=1
1=1=0=1
1=1=0=1
1=1=0=1
1=1=0=1
1=1=0=1
1=1=0=1
1=1=0=1
1=1=0=1
1=1=0=1
1=1=0=1
1=1=0=1
1=1=0=1
1=1=0=1
1=1=0=1
1=1=0=1
1=1=0=1
1=1=0=1
1=1=0=1
1=1=0=1
1=1=0=1
1=1=0=1
1=1=0=1
1=1=0=1
1=1=0=1
1=1=0=1
1=1=0=1
1=1=0=1
1=1=0=1
1=1=0=1
1=1=0=1
1=1=0=1
1=1=0=1
1=1=0=1
1=1=0=1
1=1=0=1
1=1=0=1
1=1=0=1
6=1=0=0
6=1=0=0
6=1=0=0
6=1=0=0
6=1=0=0
6=1=0=0
6=1=0=0/44=6=1=19
6=1=0=0/29=5=0=3
6=1=0=0
6=1=0=0
6=1=0=0/29=5=0=3
6=1=0=0/46=2=0=21/30=5=0=4/50=3=0=26
1=1=0=1
1=1=0=1
1=1=0=1
1=1=0=1
1=1=0=1
1=1=0=1
1=1=0=1
1=1=0=1
1=1=0=1
1=1=0=1
1=1=0=1
1=1=0=1
1=1=0=1
1=1=0=1
1=1=0=1
1=1=0=1
1=1=0=1
1=1=0=1
1=1=0=1
1=1=0=1
1=1=0=1
1=1=0=1
1=1=0=1
1=1=0=1
1=1=0=1
1=1=0=1
1=1=0=1
1=1=0=1
1=1=0=1
1=1=0=1
1=1=0=1
1=1=0=1
1=1=0=1
1=1=0=1
1=1=0=1
1=1=0=1
1=1=0=1
1=1=0=1
1=1=0=1
1=1=0=1
1=1=0=1
1=1=0=1
1=1=0=1
1=1=0=1
1=1=0=1
1=1=0=1
1=1=0=1
1=1=0=1
6=1=0=0/48=2=0=23/30=5=0=4/50=3=0=26
6=1=0=0/29=5=0=3
6=1=0=0
6=1=0=0
6=1=0=0
6=1=0=0
6=1=0=0
6=1=0=0
6=1=0=0
6=1=0=0
6=1=0=0
6=1=0=0
1=1=0=1
1=1=0=1
1=1=0=1
1=1=0=1
1=1=0=1
1=1=0=1
1=1=0=1
1=1=0=1
1=1=0=1
1=1=0=1
1=1=0=1
1=1=0=1
1=1=0=1
1=1=0=1
1=1=0=1
1=1=0=1
1=1=0=1
1=1=0=1
1=1=0=1
1=1=0=1
1=1=0=1
1=1=0=1
1=1=0=1
1=1=0=1
1=1=0=1
1=1=0=1
1=1=0=1
1=1=0=1
1=1=0=1
1=1=0=1
1=1=0=1
1=1=0=1
1=1=0=1
1=1=0=1
1=1=0=1
1=1=0=1
1=1=0=1
1=1=0=1
1=1=0=1
1=1=0=1
1=1=0=1
1=1=0=1
1=1=0=1
1=1=0=1
1=1=0=1
1=1=0=1
1=1=0=1
1=1=0=1
6=1=0=0
6=1=0=0
6=1=0=0
6=1=0=0
6=1=0=0
6=1=0=0
6=1=0=0
6=1=0=0
6=1=0=0
6=1=0=0
6=1=0=0/29=5=0=3
6=1=0=0/46=2=0=21/30=5=0=4/50=3=0=26
1=1=0=1
1=1=0=1
1=1=0=1
1=1=0=1
1=1=0=1
1=1=0=1
1=1=0=1
1=1=0=1
1=1=0=1
1=1=0=1
1=1=0=1
1=1=0=1
1=1=0=1
1=1=0=1
1=1=0=1
1=1=0=1
1=1=0=1
1=1=0=1
1=1=0=1
1=1=0=1
1=1=0=1
1=1=0=1
1=1=0=1
1=1=0=1
1=1=0=1
1=1=0=1
1=1=0=1
1=1=0=1
1=1=0=1
1=1=0=1
1=1=0=1
1=1=0=1
1=1=0=1
1=1=0=1
1=1=0=1
1=1=0=1
1=1=0=1
1=1=0=1
1=1=0=1
1=1=0=1
1=1=0=1
1=1=0=1
1=1=0=1
1=1=0=1
1=1=0=1
1=1=0=1
1=1=0=1
1=1=0=1
6=1=0=0/48=2=0=23/30=5=0=4/50=3=0=26
6=1=0=0/29=5=0=3
6=1=0=0
6=1=0=0
6=1=0=0
6=1=0=0/30=5=0=4
6=1=0=0/36=5=0=7
6=1=0=0/30=5=0=4
6=1=0=0
6=1=0=0
6=1=0=0
6=1=0=0
1=1=0=1
1=1=0=1
1=1=0=1
1=1=0=1
1=1=0=1
1=1=0=1
1=1=0=1
1=1=0=1
1=1=0=1
1=1=0=1
1=1=0=1
1=1=0=1
1=1=0=1
1=1=0=1
1=1=0=1
1=1=0=1
1=1=0=1
1=1=0=1
1=1=0=1
1=1=0=1
1=1=0=1
1=1=0=1
1=1=0=1
1=1=0=1
1=1=0=1
1=1=0=1
1=1=0=1
1=1=0=1
1=1=0=1
1=1=0=1
1=1=0=1
1=1=0=1
1=1=0=1
1=1=0=1
1=1=0=1
1=1=0=1
1=1=0=1
1=1=0=1
1=1=0=1
1=1=0=1
1=1=0=1
1=1=0=1
1=1=0=1
1=1=0=1
1=1=0=1
1=1=0=1
1=1=0=1
1=1=0=1
6=1=0=0
6=1=0=0
6=1=0=0
6=1=0=0
6=1=0=0
6=1=0=0
6=1=0=0
6=1=0=0
6=1=0=0
6=1=0=0
6=1=0=0/29=5=0=3
6=1=0=0/46=2=0=21/30=5=0=4/51=3=0=27
1=1=0=1
1=1=0=1
1=1=0=1
1=1=0=1
1=1=0=1
1=1=0=1
1=1=0=1
1=1=0=1
1=1=0=1
1=1=0=1
1=1=0=1
1=1=0=1
1=1=0=1
1=1=0=1
1=1=0=1
1=1=0=1
1=1=0=1
1=1=0=1
1=1=0=1
1=1=0=1
1=1=0=1
1=1=0=1
1=1=0=1
1=1=0=1
1=1=0=1
1=1=0=1
1=1=0=1
1=1=0=1
1=1=0=1
1=1=0=1
1=1=0=1
1=1=0=1
1=1=0=1
1=1=0=1
1=1=0=1
1=1=0=1
1=1=0=1
1=1=0=1
1=1=0=1
1=1=0=1
1=1=0=1
1=1=0=1
1=1=0=1
1=1=0=1
1=1=0=1
1=1=0=1
1=1=0=1
1=1=0=1
6=1=0=0/48=2=0=23/30=5=0=4/51=3=0=27
6=1=0=0/29=5=0=3
6=1=0=0
6=1=0=0
6=1=0=0
6=1=0=0
6=1=0=0
6=1=0=0
6=1=0=0
6=1=0=0
6=1=0=0
6=1=0=0
1=1=0=1
1=1=0=1
1=1=0=1
1=1=0=1
1=1=0=1
1=1=0=1
1=1=0=1
1=1=0=1
1=1=0=1
1=1=0=1
1=1=0=1
1=1=0=1
1=1=0=1
1=1=0=1
1=1=0=1
1=1=0=1
1=1=0=1
1=1=0=1
1=1=0=1
1=1=0=1
1=1=0=1
1=1=0=1
1=1=0=1
1=1=0=1
1=1=0=1
1=1=0=1
1=1=0=1
1=1=0=1
1=1=0=1
1=1=0=1
1=1=0=1
1=1=0=1
1=1=0=1
1=1=0=1
1=1=0=1
1=1=0=1
1=1=0=1
1=1=0=1
1=1=0=1
1=1=0=1
1=1=0=1
1=1=0=1
1=1=0=1
1=1=0=1
1=1=0=1
1=1=0=1
1=1=0=1
1=1=0=1
6=1=0=0
6=1=0=0
6=1=0=0
6=1=0=0
6=1=0=0
6=1=0=0
6=1=0=0
6=1=0=0
6=1=0=0
6=1=0=0
6=1=0=0/29=5=0=3
6=1=0=0/46=2=0=21/30=5=0=4/50=3=0=26
1=1=0=1
1=1=0=1
1=1=0=1
1=1=0=1
1=1=0=1
1=1=0=1
1=1=0=1
1=1=0=1
1=1=0=1
1=1=0=1
1=1=0=1
1=1=0=1
1=1=0=1
1=1=0=1
1=1=0=1
1=1=0=1
1=1=0=1
1=1=0=1
1=1=0=1
1=1=0=1
1=1=0=1
1=1=0=1
1=1=0=1
1=1=0=1
1=1=0=1
1=1=0=1
1=1=0=1
1=1=0=1
1=1=0=1
1=1=0=1
1=1=0=1
1=1=0=1
1=1=0=1
1=1=0=1
1=1=0=1
1=1=0=1
1=1=0=1
1=1=0=1
1=1=0=1
1=1=0=1
1=1=0=1
1=1=0=1
1=1=0=1
1=1=0=1
1=1=0=1
1=1=0=1
1=1=0=1
1=1=0=1
6=1=0=0/48=2=0=23/30=5=0=4/50=3=0=26
6=1=0=0/29=5=0=3
6=1=0=0
6=1=0=0
6=1=0=0
6=1=0=0
6=1=0=0
6=1=0=0
6=1=0=0
6=1=0=0
6=1=0=0
6=1=0=0
1=1=0=1
1=1=0=1
1=1=0=1
1=1=0=1
1=1=0=1
1=1=0=1
1=1=0=1
1=1=0=1
1=1=0=1
1=1=0=1
1=1=0=1
1=1=0=1
1=1=0=1
1=1=0=1
1=1=0=1
1=1=0=1
1=1=0=1
1=1=0=1
1=1=0=1
1=1=0=1
1=1=0=1
1=1=0=1
1=1=0=1
1=1=0=1
1=1=0=1
1=1=0=1
1=1=0=1
1=1=0=1
1=1=0=1
1=1=0=1
1=1=0=1
1=1=0=1
1=1=0=1
1=1=0=1
1=1=0=1
1=1=0=1
1=1=0=1
1=1=0=1
1=1=0=1
1=1=0=1
1=1=0=1
1=1=0=1
1=1=0=1
1=1=0=1
1=1=0=1
1=1=0=1
1=1=0=1
1=1=0=1
6=1=0=0
6=1=0=0
6=1=0=0
6=1=0=0
6=1=0=0
6=1=0=0
6=1=0=0
6=1=0=0
6=1=0=0
6=1=0=0
6=1=0=0/29=5=0=3
6=1=0=0/46=2=0=21/30=5=0=4/50=3=0=26
1=1=0=1
1=1=0=1
1=1=0=1
1=1=0=1
1=1=0=1
1=1=0=1
1=1=0=1
1=1=0=1
1=1=0=1
1=1=0=1
1=1=0=1
1=1=0=1
1=1=0=1
1=1=0=1
1=1=0=1
1=1=0=1
1=1=0=1
1=1=0=1
1=1=0=1
1=1=0=1
1=1=0=1
1=1=0=1
1=1=0=1
1=1=0=1
1=1=0=1
1=1=0=1
1=1=0=1
1=1=0=1
1=1=0=1
1=1=0=1
1=1=0=1
1=1=0=1
1=1=0=1
1=1=0=1
1=1=0=1
1=1=0=1
1=1=0=1
1=1=0=1
1=1=0=1
1=1=0=1
1=1=0=1
1=1=0=1
1=1=0=1
1=1=0=1
1=1=0=1
1=1=0=1
1=1=0=1
1=1=0=1
6=1=0=0/48=2=0=23/30=5=0=4/50=3=0=26
6=1=0=0/29=5=0=3
6=1=0=0
6=1=0=0
6=1=0=0
6=1=0=0
6=1=0=0
6=1=0=0
6=1=0=0
6=1=0=0
6=1=0=0
6=1=0=0
1=1=0=1
1=1=0=1
1=1=0=1
1=1=0=1
1=1=0=1
1=1=0=1
1=1=0=1
1=1=0=1
1=1=0=1
1=1=0=1
1=1=0=1
1=1=0=1
1=1=0=1
1=1=0=1
1=1=0=1
1=1=0=1
1=1=0=1
1=1=0=1
1=1=0=1
1=1=0=1
1=1=0=1
1=1=0=1
1=1=0=1
1=1=0=1
1=1=0=1
1=1=0=1
1=1=0=1
1=1=0=1
1=1=0=1
1=1=0=1
1=1=0=1
1=1=0=1
1=1=0=1
1=1=0=1
1=1=0=1
1=1=0=1
1=1=0=1
1=1=0=1
1=1=0=1
1=1=0=1
1=1=0=1
1=1=0=1
1=1=0=1
1=1=0=1
1=1=0=1
1=1=0=1
1=1=0=1
1=1=0=1
6=1=0=0
6=1=0=0
6=1=0=0
6=1=0=0
6=1=0=0
6=1=0=0
6=1=0=0
6=1=0=0
6=1=0=0
6=1=0=0
6=1=0=0/30=5=0=4
6=1=0=0/29=5=0=3/46=2=0=21/50=3=0=26
1=1=0=1
1=1=0=1
1=1=0=1
1=1=0=1
1=1=0=1
1=1=0=1
1=1=0=1
1=1=0=1
1=1=0=1
1=1=0=1
1=1=0=1
1=1=0=1
1=1=0=1
1=1=0=1
1=1=0=1
1=1=0=1
1=1=0=1
1=1=0=1
1=1=0=1
1=1=0=1
1=1=0=1
1=1=0=1
1=1=0=1
1=1=0=1
1=1=0=1
1=1=0=1
1=1=0=1
1=1=0=1
1=1=0=1
1=1=0=1
1=1=0=1
1=1=0=1
1=1=0=1
1=1=0=1
1=1=0=1
1=1=0=1
1=1=0=1
1=1=0=1
1=1=0=1
1=1=0=1
1=1=0=1
1=1=0=1
1=1=0=1
1=1=0=1
1=1=0=1
1=1=0=1
1=1=0=1
1=1=0=1
6=1=0=0/48=2=0=23/50=3=0=26
6=1=0=0/30=5=0=4
6=1=0=0
6=1=0=0
6=1=0=0
6=1=0=0
6=1=0=0
6=1=0=0
6=1=0=0
6=1=0=0
6=1=0=0
6=1=0=0
1=1=0=1
1=1=0=1
1=1=0=1
1=1=0=1
1=1=0=1
1=1=0=1
1=1=0=1
1=1=0=1
1=1=0=1
1=1=0=1
1=1=0=1
1=1=0=1
1=1=0=1
1=1=0=1
1=1=0=1
1=1=0=1
1=1=0=1
1=1=0=1
1=1=0=1
1=1=0=1
1=1=0=1
1=1=0=1
1=1=0=1
1=1=0=1
1=1=0=1
1=1=0=1
1=1=0=1
1=1=0=1
1=1=0=1
1=1=0=1
1=1=0=1
1=1=0=1
1=1=0=1
1=1=0=1
1=1=0=1
1=1=0=1
1=1=0=1
1=1=0=1
1=1=0=1
1=1=0=1
1=1=0=1
1=1=0=1
1=1=0=1
1=1=0=1
1=1=0=1
1=1=0=1
1=1=0=1
1=1=0=1
6=1=0=0/32=2=0=5
6=1=0=0
6=1=0=0
6=1=0=0
6=1=0=0
6=1=0=0
6=1=0=0/30=5=0=4
6=1=0=0
6=1=0=0
6=1=0=0
6=1=0=0
6=1=0=0/32=2=0=5
1=1=0=1
1=1=0=1
1=1=0=1
1=1=0=1
1=1=0=1
1=1=0=1
1=1=0=1
1=1=0=1
1=1=0=1
1=1=0=1
1=1=0=1
1=1=0=1
1=1=0=1
1=1=0=1
1=1=0=1
1=1=0=1
1=1=0=1
1=1=0=1
1=1=0=1
1=1=0=1
1=1=0=1
1=1=0=1
1=1=0=1
1=1=0=1
1=1=0=1
1=1=0=1
1=1=0=1
1=1=0=1
1=1=0=1
1=1=0=1
1=1=0=1
1=1=0=1
1=1=0=1
1=1=0=1
1=1=0=1
1=1=0=1
1=1=0=1
1=1=0=1
1=1=0=1
1=1=0=1
1=1=0=1
1=1=0=1
1=1=0=1
1=1=0=1
1=1=0=1
1=1=0=1
1=1=0=1
1=1=0=1
23=1=0=1/51=3=0=27
23=1=0=1
23=1=0=1/51=3=0=27
23=1=0=1
23=1=0=1/51=3=0=27
23=1=0=1
6=1=0=0/26=2=0=16/31=3=0=6
23=1=0=1
23=1=0=1/51=3=0=27
23=1=0=1
23=1=0=1/51=3=0=27
23=1=0=1
1=1=0=1
1=1=0=1
1=1=0=1
1=1=0=1
1=1=0=1
1=1=0=1
1=1=0=1
1=1=0=1
1=1=0=1
1=1=0=1
1=1=0=1
1=1=0=1
1=1=0=1
1=1=0=1
1=1=0=1
1=1=0=1
1=1=0=1
1=1=0=1
1=1=0=1
1=1=0=1
1=1=0=1
1=1=0=1
1=1=0=1
1=1=0=1
1=1=0=1
1=1=0=1
1=1=0=1
1=1=0=1
1=1=0=1
1=1=0=1
1=1=0=1
1=1=0=1
1=1=0=1
1=1=0=1
1=1=0=1
1=1=0=1
1=1=0=1
1=1=0=1
1=1=0=1
1=1=0=1
1=1=0=1
1=1=0=1
1=1=0=1
1=1=0=1
1=1=0=1
1=1=0=1
1=1=0=1
1=1=0=1
1=1=0=1
1=1=0=1
1=1=0=1
1=1=0=1
1=1=0=1
1=1=0=1
1=1=0=1
1=1=0=1
1=1=0=1
1=1=0=1
1=1=0=1
1=1=0=1
1=1=0=1
1=1=0=1
1=1=0=1
1=1=0=1
1=1=0=1
1=1=0=1
1=1=0=1
1=1=0=1
1=1=0=1
1=1=0=1
1=1=0=1
1=1=0=1
1=1=0=1
1=1=0=1
1=1=0=1
1=1=0=1
1=1=0=1
1=1=0=1
1=1=0=1
1=1=0=1
1=1=0=1
1=1=0=1
1=1=0=1
1=1=0=1
1=1=0=1
1=1=0=1
1=1=0=1
1=1=0=1
1=1=0=1
1=1=0=1
1=1=0=1
1=1=0=1
1=1=0=1
1=1=0=1
1=1=0=1
1=1=0=1
1=1=0=1
1=1=0=1
1=1=0=1
1=1=0=1
1=1=0=1
1=1=0=1
1=1=0=1
1=1=0=1
1=1=0=1
1=1=0=1
1=1=0=1
1=1=0=1
6=1=0=0/44=6=3=19
6=1=0=0
6=1=0=0/45=2=0=20
6=1=0=0/44=6=3=19
6=1=0=0/45=2=0=20
6=1=0=0
6=1=0=0
6=1=0=0
6=1=0=0/45=2=0=20
6=1=0=0/44=6=3=19
6=1=0=0/45=2=0=20
6=1=0=0
1=1=0=1
1=1=0=1
1=1=0=1
1=1=0=1
1=1=0=1
1=1=0=1
1=1=0=1
1=1=0=1
1=1=0=1
1=1=0=1
1=1=0=1
1=1=0=1
1=1=0=1
1=1=0=1
1=1=0=1
1=1=0=1
1=1=0=1
1=1=0=1
1=1=0=1
1=1=0=1
1=1=0=1
1=1=0=1
1=1=0=1
1=1=0=1
1=1=0=1
1=1=0=1
1=1=0=1
1=1=0=1
1=1=0=1
1=1=0=1
1=1=0=1
1=1=0=1
1=1=0=1
1=1=0=1
1=1=0=1
1=1=0=1
1=1=0=1
1=1=0=1
1=1=0=1
1=1=0=1
1=1=0=1
1=1=0=1
1=1=0=1
1=1=0=1
1=1=0=1
1=1=0=1
1=1=0=1
1=1=0=1
6=1=0=0/48=2=0=23/51=3=0=27
6=1=0=0
6=1=0=0
6=1=0=0
6=1=0=0
6=1=0=0
6=1=0=0
6=1=0=0
6=1=0=0
6=1=0=0
6=1=0=0
6=1=0=0/46=2=0=21/51=3=0=27
1=1=0=1
1=1=0=1
1=1=0=1
1=1=0=1
1=1=0=1
1=1=0=1
1=1=0=1
1=1=0=1
1=1=0=1
1=1=0=1
1=1=0=1
1=1=0=1
1=1=0=1
1=1=0=1
1=1=0=1
1=1=0=1
1=1=0=1
1=1=0=1
1=1=0=1
1=1=0=1
1=1=0=1
1=1=0=1
1=1=0=1
1=1=0=1
1=1=0=1
1=1=0=1
1=1=0=1
1=1=0=1
1=1=0=1
1=1=0=1
1=1=0=1
1=1=0=1
1=1=0=1
1=1=0=1
1=1=0=1
1=1=0=1
1=1=0=1
1=1=0=1
1=1=0=1
1=1=0=1
1=1=0=1
1=1=0=1
1=1=0=1
1=1=0=1
1=1=0=1
1=1=0=1
1=1=0=1
1=1=0=1
6=1=0=0
6=1=0=0
6=1=0=0
6=1=0=0
6=1=0=0
6=1=0=0
6=1=0=0
6=1=0=0
6=1=0=0
6=1=0=0
6=1=0=0
6=1=0=0/44=6=2=19
1=1=0=1
1=1=0=1
1=1=0=1
1=1=0=1
1=1=0=1
1=1=0=1
1=1=0=1
1=1=0=1
1=1=0=1
1=1=0=1
1=1=0=1
1=1=0=1
1=1=0=1
1=1=0=1
1=1=0=1
1=1=0=1
1=1=0=1
1=1=0=1
1=1=0=1
1=1=0=1
1=1=0=1
1=1=0=1
1=1=0=1
1=1=0=1
1=1=0=1
1=1=0=1
1=1=0=1
1=1=0=1
1=1=0=1
1=1=0=1
1=1=0=1
1=1=0=1
1=1=0=1
1=1=0=1
1=1=0=1
1=1=0=1
1=1=0=1
1=1=0=1
1=1=0=1
1=1=0=1
1=1=0=1
1=1=0=1
1=1=0=1
1=1=0=1
1=1=0=1
1=1=0=1
1=1=0=1
1=1=0=1
6=1=0=0/48=2=0=23/51=3=0=27
6=1=0=0
6=1=0=0
6=1=0=0
6=1=0=0
6=1=0=0
6=1=0=0
6=1=0=0
6=1=0=0
6=1=0=0
6=1=0=0
6=1=0=0/46=2=0=21/51=3=0=27
1=1=0=1
1=1=0=1
1=1=0=1
1=1=0=1
1=1=0=1
1=1=0=1
1=1=0=1
1=1=0=1
1=1=0=1
1=1=0=1
1=1=0=1
1=1=0=1
1=1=0=1
1=1=0=1
1=1=0=1
1=1=0=1
1=1=0=1
1=1=0=1
1=1=0=1
1=1=0=1
1=1=0=1
1=1=0=1
1=1=0=1
1=1=0=1
1=1=0=1
1=1=0=1
1=1=0=1
1=1=0=1
1=1=0=1
1=1=0=1
1=1=0=1
1=1=0=1
1=1=0=1
1=1=0=1
1=1=0=1
1=1=0=1
1=1=0=1
1=1=0=1
1=1=0=1
1=1=0=1
1=1=0=1
1=1=0=1
1=1=0=1
1=1=0=1
6=1=0=0
6=1=0=0
6=1=0=0
6=1=0=0
6=1=0=0/44=6=3=19
6=1=0=0
6=1=0=0
6=1=0=0
6=1=0=0
6=1=0=0
6=1=0=0
6=1=0=0
6=1=0=0
6=1=0=0
6=1=0=0
6=1=0=0
1=1=0=1
1=1=0=1
1=1=0=1
1=1=0=1
1=1=0=1
1=1=0=1
1=1=0=1
1=1=0=1
1=1=0=1
1=1=0=1
1=1=0=1
1=1=0=1
1=1=0=1
1=1=0=1
1=1=0=1
1=1=0=1
1=1=0=1
1=1=0=1
1=1=0=1
1=1=0=1
1=1=0=1
1=1=0=1
1=1=0=1
1=1=0=1
1=1=0=1
1=1=0=1
1=1=0=1
1=1=0=1
1=1=0=1
1=1=0=1
1=1=0=1
1=1=0=1
1=1=0=1
1=1=0=1
1=1=0=1
1=1=0=1
1=1=0=1
1=1=0=1
1=1=0=1
1=1=0=1
1=1=0=1
1=1=0=1
1=1=0=1
1=1=0=1
6=1=0=0
6=1=0=0
6=1=0=0
6=1=0=0
6=1=0=0/48=2=0=23/51=3=0=27
6=1=0=0
6=1=0=0
6=1=0=0
6=1=0=0
6=1=0=0
6=1=0=0
6=1=0=0
6=1=0=0
6=1=0=0
6=1=0=0
6=1=0=0/46=2=0=21/51=3=0=27
6=1=0=0
6=1=0=0
6=1=0=0
6=1=0=0
6=1=0=0
6=1=0=0
1=1=0=1
1=1=0=1
1=1=0=1
1=1=0=1
1=1=0=1
1=1=0=1
1=1=0=1
1=1=0=1
1=1=0=1
1=1=0=1
1=1=0=1
1=1=0=1
1=1=0=1
1=1=0=1
1=1=0=1
1=1=0=1
1=1=0=1
1=1=0=1
1=1=0=1
1=1=0=1
1=1=0=1
1=1=0=1
1=1=0=1
1=1=0=1
1=1=0=1
1=1=0=1
1=1=0=1
1=1=0=1
1=1=0=1
1=1=0=1
1=1=0=1
1=1=0=1
1=1=0=1
1=1=0=1
1=1=0=1
1=1=0=1
1=1=0=1
1=1=0=1
6=1=0=0
6=1=0=0
6=1=0=0
23=1=0=1/51=3=0=27
6=1=0=0/48=2=0=23
6=1=0=0/44=6=3=19
6=1=0=0
6=1=0=0
6=1=0=0
6=1=0=0
6=1=0=0
6=1=0=0
6=1=0=0
6=1=0=0
6=1=0=0
6=1=0=0/44=6=2=19
6=1=0=0
6=1=0=0/32=2=0=5
6=1=0=0/32=2=0=5
6=1=0=0/32=2=0=5
6=1=0=0/32=2=0=5
6=1=0=0/29=5=0=3/49=2=0=24
1=1=0=1
1=1=0=1
1=1=0=1
1=1=0=1
1=1=0=1
1=1=0=1
1=1=0=1
1=1=0=1
1=1=0=1
1=1=0=1
1=1=0=1
1=1=0=1
1=1=0=1
1=1=0=1
1=1=0=1
1=1=0=1
1=1=0=1
1=1=0=1
1=1=0=1
1=1=0=1
1=1=0=1
1=1=0=1
1=1=0=1
1=1=0=1
1=1=0=1
1=1=0=1
1=1=0=1
1=1=0=1
1=1=0=1
1=1=0=1
1=1=0=1
1=1=0=1
1=1=0=1
1=1=0=1
1=1=0=1
1=1=0=1
1=1=0=1
1=1=0=1
6=1=0=0
6=1=0=0/30=5=0=4
6=1=0=0
1=1=0=1
6=1=0=0/48=2=0=23/51=3=0=27
6=1=0=0
6=1=0=0
6=1=0=0
6=1=0=0
6=1=0=0
6=1=0=0
6=1=0=0
6=1=0=0
6=1=0=0
6=1=0=0
6=1=0=0/46=2=0=21/51=3=0=27
23=1=0=1/51=3=0=27
23=1=0=1
23=1=0=1/51=3=0=27
23=1=0=1
23=1=0=1/51=3=0=27
23=1=0=1
1=1=0=1
1=1=0=1
1=1=0=1
1=1=0=1
1=1=0=1
1=1=0=1
1=1=0=1
1=1=0=1
1=1=0=1
1=1=0=1
1=1=0=1
1=1=0=1
1=1=0=1
1=1=0=1
1=1=0=1
1=1=0=1
1=1=0=1
1=1=0=1
1=1=0=1
1=1=0=1
1=1=0=1
1=1=0=1
1=1=0=1
1=1=0=1
1=1=0=1
1=1=0=1
1=1=0=1
1=1=0=1
1=1=0=1
1=1=0=1
1=1=0=1
1=1=0=1
1=1=0=1
1=1=0=1
1=1=0=1
1=1=0=1
1=1=0=1
1=1=0=1
23=1=0=1/51=3=0=27
6=1=0=0/26=2=0=16/31=3=0=6
23=1=0=1/51=3=0=27
1=1=0=1
6=1=0=0/44=6=3=19
6=1=0=0
6=1=0=0
6=1=0=0
6=1=0=0
6=1=0=0
6=1=0=0
6=1=0=0
6=1=0=0
6=1=0=0
6=1=0=0
6=1=0=0
1=1=0=1
1=1=0=1
1=1=0=1
1=1=0=1
1=1=0=1
1=1=0=1
1=1=0=1
1=1=0=1
1=1=0=1
1=1=0=1
1=1=0=1
1=1=0=1
1=1=0=1
1=1=0=1
1=1=0=1
1=1=0=1
1=1=0=1
1=1=0=1
1=1=0=1
1=1=0=1
1=1=0=1
1=1=0=1
1=1=0=1
1=1=0=1
1=1=0=1
1=1=0=1
1=1=0=1
1=1=0=1
1=1=0=1
1=1=0=1
1=1=0=1
1=1=0=1
1=1=0=1
1=1=0=1
1=1=0=1
1=1=0=1
1=1=0=1
1=1=0=1
1=1=0=1
1=1=0=1
1=1=0=1
1=1=0=1
1=1=0=1
1=1=0=1
1=1=0=1
1=1=0=1
1=1=0=1
1=1=0=1
6=1=0=0/48=2=0=23/51=3=0=27
6=1=0=0
6=1=0=0
6=1=0=0
6=1=0=0
6=1=0=0
6=1=0=0
6=1=0=0
6=1=0=0
6=1=0=0
6=1=0=0
6=1=0=0/46=2=0=21/51=3=0=27
1=1=0=1
6=1=0=0/37=3=0=10/29=5=0=3
6=1=0=0/37=3=0=10/29=5=0=3
6=1=0=0
6=1=0=0/37=3=0=10/29=5=0=3
6=1=0=0/37=3=0=10/29=5=0=3
1=1=0=1
1=1=0=1
1=1=0=1
1=1=0=1
1=1=0=1
1=1=0=1
1=1=0=1
1=1=0=1
1=1=0=1
1=1=0=1
1=1=0=1
1=1=0=1
1=1=0=1
1=1=0=1
1=1=0=1
1=1=0=1
1=1=0=1
1=1=0=1
1=1=0=1
1=1=0=1
1=1=0=1
1=1=0=1
1=1=0=1
1=1=0=1
1=1=0=1
1=1=0=1
1=1=0=1
1=1=0=1
1=1=0=1
1=1=0=1
1=1=0=1
1=1=0=1
1=1=0=1
1=1=0=1
1=1=0=1
1=1=0=1
1=1=0=1
1=1=0=1
6=1=0=0
6=1=0=0
6=1=0=0
1=1=0=1
6=1=0=0
6=1=0=0/47=2=0=22
6=1=0=0/44=6=2=19
6=1=0=0/47=2=0=22
6=1=0=0/44=6=2=19
6=1=0=0/47=2=0=22
6=1=0=0/44=6=2=19
6=1=0=0/47=2=0=22
6=1=0=0/44=6=2=19
6=1=0=0/47=2=0=22
6=1=0=0
6=1=0=0/44=6=2=19
1=1=0=1
6=1=0=0
6=1=0=0
23=1=0=1/50=3=0=26/30=5=0=4
6=1=0=0
6=1=0=0
1=1=0=1
1=1=0=1
1=1=0=1
1=1=0=1
1=1=0=1
1=1=0=1
1=1=0=1
1=1=0=1
1=1=0=1
1=1=0=1
1=1=0=1
1=1=0=1
1=1=0=1
1=1=0=1
1=1=0=1
1=1=0=1
1=1=0=1
1=1=0=1
1=1=0=1
1=1=0=1
1=1=0=1
1=1=0=1
1=1=0=1
1=1=0=1
1=1=0=1
1=1=0=1
1=1=0=1
1=1=0=1
1=1=0=1
1=1=0=1
1=1=0=1
1=1=0=1
1=1=0=1
1=1=0=1
1=1=0=1
1=1=0=1
1=1=0=1
1=1=0=1
6=1=0=0
6=1=0=0
6=1=0=0
1=1=0=1
6=1=0=0/48=2=0=23/51=3=0=27
6=1=0=0
6=1=0=0
6=1=0=0
6=1=0=0
6=1=0=0
6=1=0=0
6=1=0=0
6=1=0=0
6=1=0=0
6=1=0=0
6=1=0=0/46=2=0=21/51=3=0=27
1=1=0=1
6=1=0=0
6=1=0=0
1=1=0=1
6=1=0=0
6=1=0=0
1=1=0=1
1=1=0=1
1=1=0=1
1=1=0=1
1=1=0=1
1=1=0=1
1=1=0=1
1=1=0=1
1=1=0=1
1=1=0=1
1=1=0=1
1=1=0=1
1=1=0=1
1=1=0=1
1=1=0=1
1=1=0=1
1=1=0=1
1=1=0=1
1=1=0=1
1=1=0=1
1=1=0=1
1=1=0=1
1=1=0=1
1=1=0=1
1=1=0=1
1=1=0=1
1=1=0=1
1=1=0=1
1=1=0=1
1=1=0=1
1=1=0=1
1=1=0=1
1=1=0=1
1=1=0=1
1=1=0=1
1=1=0=1
1=1=0=1
1=1=0=1
6=1=0=0
23=1=0=1/51=3=0=27
6=1=0=0
1=1=0=1
23=1=0=1/44=6=3=19
23=1=0=1
23=1=0=1
23=1=0=1
23=1=0=1
23=1=0=1
23=1=0=1
23=1=0=1
23=1=0=1
23=1=0=1
23=1=0=1
23=1=0=1
1=1=0=1
6=1=0=0
6=1=0=0
6=1=0=0/41=3=0=14/29=5=0=3
6=1=0=0
6=1=0=0
1=1=0=1
1=1=0=1
1=1=0=1
1=1=0=1
1=1=0=1
1=1=0=1
1=1=0=1
1=1=0=1
1=1=0=1
1=1=0=1
1=1=0=1
1=1=0=1
1=1=0=1
1=1=0=1
1=1=0=1
1=1=0=1
1=1=0=1
1=1=0=1
1=1=0=1
1=1=0=1
1=1=0=1
1=1=0=1
1=1=0=1
1=1=0=1
1=1=0=1
1=1=0=1
1=1=0=1
1=1=0=1
1=1=0=1
1=1=0=1
1=1=0=1
1=1=0=1
1=1=0=1
1=1=0=1
1=1=0=1
1=1=0=1
1=1=0=1
1=1=0=1
6=1=0=0
1=1=0=1
6=1=0=0
1=1=0=1
1=1=0=1
1=1=0=1
1=1=0=1
1=1=0=1
1=1=0=1
1=1=0=1
1=1=0=1
1=1=0=1
1=1=0=1
1=1=0=1
1=1=0=1
1=1=0=1
1=1=0=1
6=1=0=0
6=1=0=0
6=1=0=0
6=1=0=0
6=1=0=0
1=1=0=1
1=1=0=1
1=1=0=1
1=1=0=1
1=1=0=1
1=1=0=1
1=1=0=1
1=1=0=1
1=1=0=1
1=1=0=1
1=1=0=1
1=1=0=1
1=1=0=1
1=1=0=1
1=1=0=1
1=1=0=1
1=1=0=1
1=1=0=1
1=1=0=1
1=1=0=1
1=1=0=1
1=1=0=1
1=1=0=1
1=1=0=1
1=1=0=1
1=1=0=1
1=1=0=1
1=1=0=1
1=1=0=1
1=1=0=1
1=1=0=1
1=1=0=1
1=1=0=1
1=1=0=1
1=1=0=1
1=1=0=1
1=1=0=1
1=1=0=1
6=1=0=0/44=6=0=19
6=1=0=0/29=5=0=3
6=1=0=0
6=1=0=0
6=1=0=0
6=1=0=0
6=1=0=0/30=5=0=4
6=1=0=0/36=5=0=7
6=1=0=0/30=5=0=4
6=1=0=0
6=1=0=0/30=5=0=4
6=1=0=0/36=5=0=7
6=1=0=0/30=5=0=4
6=1=0=0
6=1=0=0
6=1=0=0/30=5=0=4
6=1=0=0/36=5=0=7
6=1=0=0/30=5=0=4
6=1=0=0
6=1=0=0
6=1=0=0
23=1=0=1/50=3=0=26/30=5=0=4
1=1=0=1
1=1=0=1
1=1=0=1
1=1=0=1
1=1=0=1
1=1=0=1
1=1=0=1
1=1=0=1
1=1=0=1
1=1=0=1
1=1=0=1
1=1=0=1
1=1=0=1
1=1=0=1
1=1=0=1
1=1=0=1
1=1=0=1
1=1=0=1
1=1=0=1
1=1=0=1
1=1=0=1
1=1=0=1
1=1=0=1
1=1=0=1
1=1=0=1
1=1=0=1
1=1=0=1
1=1=0=1
1=1=0=1
1=1=0=1
1=1=0=1
1=1=0=1
1=1=0=1
1=1=0=1
1=1=0=1
1=1=0=1
1=1=0=1
1=1=0=1
6=1=0=0
6=1=0=0
6=1=0=0
6=1=0=0
6=1=0=0
6=1=0=0
6=1=0=0
6=1=0=0
6=1=0=0
6=1=0=0
6=1=0=0
6=1=0=0
6=1=0=0
6=1=0=0
6=1=0=0
6=1=0=0
6=1=0=0
6=1=0=0
6=1=0=0
6=1=0=0
6=1=0=0
1=1=0=1
1=1=0=1
1=1=0=1
1=1=0=1
1=1=0=1
1=1=0=1
1=1=0=1
1=1=0=1
1=1=0=1
1=1=0=1
1=1=0=1
1=1=0=1
1=1=0=1
1=1=0=1
1=1=0=1
1=1=0=1
1=1=0=1
1=1=0=1
1=1=0=1
1=1=0=1
1=1=0=1
1=1=0=1
1=1=0=1
1=1=0=1
1=1=0=1
1=1=0=1
1=1=0=1
1=1=0=1
1=1=0=1
1=1=0=1
1=1=0=1
1=1=0=1
1=1=0=1
1=1=0=1
1=1=0=1
1=1=0=1
1=1=0=1
1=1=0=1
1=1=0=1
6=1=0=0/29=5=0=3
6=1=0=0
6=1=0=0/29=5=0=3
6=1=0=0
6=1=0=0/29=5=0=3
6=1=0=0
6=1=0=0/29=5=0=3
6=1=0=0
6=1=0=0/29=5=0=3
6=1=0=0
6=1=0=0/29=5=0=3
6=1=0=0
6=1=0=0/29=5=0=3
6=1=0=0
6=1=0=0/29=5=0=3
6=1=0=0
6=1=0=0/29=5=0=3
6=1=0=0
6=1=0=0/29=5=0=3
6=1=0=0
6=1=0=0/29=5=0=3
1=1=0=1
1=1=0=1
1=1=0=1
1=1=0=1
1=1=0=1
1=1=0=1
1=1=0=1
1=1=0=1
1=1=0=1
1=1=0=1
1=1=0=1
1=1=0=1
1=1=0=1
1=1=0=1
1=1=0=1
1=1=0=1
1=1=0=1
1=1=0=1
1=1=0=1
1=1=0=1
1=1=0=1
1=1=0=1
1=1=0=1
1=1=0=1
1=1=0=1
1=1=0=1
1=1=0=1
1=1=0=1
1=1=0=1
1=1=0=1
1=1=0=1
1=1=0=1
1=1=0=1
1=1=0=1
1=1=0=1
1=1=0=1
1=1=0=1
1=1=0=1
1=1=0=1
23=1=0=1/50=3=0=26/30=5=0=4
23=1=0=1
23=1=0=1/50=3=0=26/30=5=0=4
23=1=0=1
23=1=0=1/50=3=0=26/30=5=0=4
23=1=0=1
23=1=0=1/50=3=0=26/30=5=0=4
23=1=0=1
23=1=0=1/50=3=0=26/30=5=0=4
23=1=0=1
23=1=0=1/50=3=0=26/30=5=0=4
6=1=0=0
23=1=0=1/50=3=0=26/30=5=0=4
23=1=0=1
23=1=0=1/50=3=0=26/30=5=0=4
23=1=0=1
23=1=0=1/50=3=0=26/30=5=0=4
23=1=0=1
23=1=0=1/50=3=0=26/30=5=0=4
23=1=0=1
23=1=0=1/50=3=0=26/30=5=0=4
1=1=0=1
1=1=0=1
1=1=0=1
1=1=0=1
1=1=0=1
1=1=0=1
1=1=0=1
1=1=0=1
1=1=0=1
1=1=0=1
1=1=0=1
1=1=0=1
1=1=0=1
1=1=0=1
1=1=0=1
1=1=0=1
1=1=0=1
1=1=0=1
1=1=0=1
1=1=0=1
1=1=0=1
1=1=0=1
1=1=0=1
1=1=0=1
1=1=0=1
1=1=0=1
1=1=0=1
1=1=0=1
1=1=0=1
1=1=0=1
1=1=0=1
1=1=0=1
1=1=0=1
1=1=0=1
1=1=0=1
1=1=0=1
1=1=0=1
1=1=0=1
1=1=0=1
1=1=0=1
1=1=0=1
1=1=0=1
1=1=0=1
1=1=0=1
1=1=0=1
1=1=0=1
1=1=0=1
1=1=0=1
1=1=0=1
1=1=0=1
6=1=0=0
1=1=0=1
1=1=0=1
1=1=0=1
1=1=0=1
1=1=0=1
1=1=0=1
1=1=0=1
1=1=0=1
1=1=0=1
1=1=0=1
1=1=0=1
1=1=0=1
1=1=0=1
1=1=0=1
1=1=0=1
1=1=0=1
1=1=0=1
1=1=0=1
1=1=0=1
1=1=0=1
1=1=0=1
1=1=0=1
1=1=0=1
1=1=0=1
1=1=0=1
1=1=0=1
1=1=0=1
1=1=0=1
1=1=0=1
1=1=0=1
1=1=0=1
1=1=0=1
1=1=0=1
1=1=0=1
1=1=0=1
1=1=0=1
1=1=0=1
1=1=0=1
1=1=0=1
1=1=0=1
1=1=0=1
1=1=0=1
1=1=0=1
1=1=0=1
1=1=0=1
1=1=0=1
1=1=0=1
1=1=0=1
1=1=0=1
1=1=0=1
1=1=0=1
1=1=0=1
1=1=0=1
1=1=0=1
1=1=0=1
1=1=0=1
1=1=0=1
1=1=0=1
6=1=0=0
6=1=0=0/30=5=0=4
6=1=0=0
1=1=0=1
1=1=0=1
1=1=0=1
1=1=0=1
1=1=0=1
1=1=0=1
1=1=0=1
1=1=0=1
1=1=0=1
1=1=0=1
1=1=0=1
1=1=0=1
1=1=0=1
1=1=0=1
1=1=0=1
1=1=0=1
1=1=0=1
1=1=0=1
1=1=0=1
1=1=0=1
1=1=0=1
1=1=0=1
1=1=0=1
1=1=0=1
1=1=0=1
1=1=0=1
1=1=0=1
1=1=0=1
1=1=0=1
1=1=0=1
1=1=0=1
1=1=0=1
1=1=0=1
1=1=0=1
1=1=0=1
1=1=0=1
1=1=0=1
1=1=0=1
1=1=0=1
1=1=0=1
1=1=0=1
1=1=0=1
1=1=0=1
1=1=0=1
1=1=0=1
1=1=0=1
1=1=0=1
1=1=0=1
1=1=0=1
1=1=0=1
1=1=0=1
1=1=0=1
1=1=0=1
1=1=0=1
1=1=0=1
1=1=0=1
1=1=0=1
23=1=0=1/51=3=0=27
6=1=0=0/26=2=0=16/31=3=0=6
23=1=0=1/51=3=0=27
1=1=0=1
1=1=0=1
1=1=0=1
1=1=0=1
1=1=0=1
1=1=0=1
1=1=0=1
1=1=0=1
1=1=0=1
1=1=0=1
1=1=0=1
1=1=0=1
1=1=0=1
1=1=0=1
1=1=0=1
1=1=0=1
1=1=0=1
1=1=0=1
1=1=0=1
1=1=0=1
1=1=0=1
1=1=0=1
1=1=0=1
1=1=0=1
1=1=0=1
1=1=0=1
1=1=0=1
1=1=0=1
1=1=0=1
1=1=0=1
1=1=0=1
1=1=0=1
1=1=0=1
1=1=0=1
1=1=0=1
1=1=0=1
1=1=0=1
1=1=0=1
1=1=0=1
1=1=0=1
1=1=0=1
1=1=0=1
1=1=0=1
1=1=0=1
1=1=0=1
1=1=0=1
1=1=0=1
1=1=0=1
1=1=0=1
1=1=0=1
1=1=0=1
1=1=0=1
1=1=0=1
1=1=0=1
1=1=0=1
1=1=0=1
1=1=0=1
1=1=0=1
42=1=0=17/39=7=0=12
1=1=0=1
1=1=0=1
1=1=0=1
1=1=0=1
1=1=0=1
1=1=0=1
1=1=0=1
1=1=0=1
1=1=0=1
1=1=0=1
1=1=0=1
1=1=0=1
1=1=0=1
1=1=0=1
1=1=0=1
1=1=0=1
1=1=0=1
1=1=0=1
1=1=0=1
1=1=0=1
1=1=0=1
1=1=0=1
1=1=0=1
1=1=0=1
1=1=0=1
1=1=0=1
1=1=0=1
1=1=0=1
1=1=0=1
1=1=0=1
1=1=0=1
1=1=0=1
1=1=0=1
1=1=0=1
1=1=0=1
1=1=0=1
1=1=0=1
1=1=0=1
1=1=0=1
1=1=0=1
1=1=0=1
1=1=0=1
1=1=0=1
1=1=0=1
1=1=0=1
1=1=0=1
1=1=0=1
1=1=0=1
1=1=0=1
1=1=0=1
1=1=0=1
1=1=0=1
1=1=0=1
1=1=0=1
1=1=0=1
1=1=0=1
1=1=0=1
1=1=0=1
1=1=0=1
1=1=0=1
1=1=0=1
1=1=0=1
1=1=0=1
1=1=0=1
1=1=0=1
1=1=0=1
1=1=0=1
1=1=0=1
1=1=0=1
1=1=0=1
1=1=0=1
1=1=0=1
1=1=0=1
1=1=0=1
1=1=0=1
1=1=0=1
1=1=0=1
1=1=0=1
1=1=0=1
1=1=0=1
1=1=0=1
1=1=0=1
1=1=0=1
1=1=0=1
1=1=0=1
1=1=0=1
1=1=0=1
1=1=0=1
1=1=0=1
1=1=0=1
1=1=0=1
1=1=0=1
1=1=0=1
1=1=0=1
1=1=0=1
1=1=0=1
1=1=0=1
1=1=0=1
1=1=0=1
1=1=0=1
1=1=0=1
1=1=0=1
1=1=0=1
1=1=0=1
1=1=0=1
1=1=0=1
1=1=0=1
1=1=0=1
1=1=0=1
1=1=0=1
1=1=0=1
1=1=0=1
1=1=0=1
1=1=0=1
1=1=0=1
1=1=0=1
1=1=0=1
1=1=0=1
1=1=0=1
1=1=0=1
1=1=0=1
1=1=0=1
1=1=0=1
1=1=0=1
1=1=0=1
1=1=0=1
1=1=0=1
1=1=0=1
1=1=0=1
1=1=0=1
1=1=0=1
1=1=0=1
1=1=0=1
1=1=0=1
1=1=0=1
1=1=0=1
1=1=0=1
1=1=0=1
1=1=0=1
1=1=0=1
1=1=0=1
1=1=0=1
1=1=0=1
1=1=0=1
1=1=0=1
1=1=0=1
1=1=0=1
1=1=0=1
1=1=0=1
1=1=0=1
1=1=0=1
1=1=0=1
1=1=0=1
1=1=0=1
1=1=0=1
1=1=0=1
1=1=0=1
1=1=0=1
1=1=0=1
1=1=0=1
1=1=0=1
1=1=0=1
1=1=0=1
1=1=0=1
1=1=0=1
1=1=0=1
1=1=0=1
1=1=0=1
1=1=0=1
1=1=0=1
1=1=0=1
1=1=0=1
1=1=0=1
1=1=0=1
1=1=0=1
1=1=0=1
1=1=0=1
1=1=0=1
1=1=0=1
1=1=0=1
1=1=0=1
1=1=0=1
1=1=0=1
1=1=0=1
1=1=0=1
1=1=0=1
1=1=0=1
1=1=0=1
1=1=0=1
1=1=0=1
1=1=0=1
1=1=0=1
1=1=0=1
1=1=0=1
1=1=0=1
1=1=0=1
1=1=0=1
1=1=0=1
1=1=0=1
1=1=0=1
1=1=0=1
1=1=0=1
1=1=0=1
1=1=0=1
1=1=0=1
1=1=0=1
1=1=0=1
1=1=0=1
1=1=0=1
1=1=0=1
1=1=0=1
1=1=0=1
1=1=0=1
1=1=0=1
1=1=0=1
1=1=0=1
1=1=0=1
1=1=0=1
1=1=0=1
1=1=0=1
1=1=0=1
1=1=0=1
1=1=0=1
1=1=0=1
1=1=0=1
1=1=0=1
1=1=0=1
1=1=0=1
1=1=0=1
1=1=0=1
1=1=0=1
1=1=0=1
1=1=0=1
1=1=0=1
1=1=0=1
1=1=0=1
1=1=0=1
1=1=0=1
1=1=0=1
1=1=0=1
1=1=0=1
1=1=0=1
1=1=0=1
1=1=0=1
1=1=0=1
1=1=0=1
1=1=0=1
1=1=0=1
1=1=0=1
1=1=0=1
1=1=0=1
1=1=0=1
1=1=0=1
1=1=0=1
1=1=0=1
1=1=0=1
1=1=0=1
1=1=0=1
1=1=0=1
1=1=0=1
1=1=0=1
1=1=0=1
1=1=0=1
1=1=0=1
1=1=0=1
1=1=0=1
1=1=0=1
1=1=0=1
1=1=0=1
1=1=0=1
1=1=0=1
1=1=0=1
1=1=0=1
1=1=0=1
1=1=0=1
1=1=0=1
1=1=0=1
1=1=0=1
1=1=0=1
1=1=0=1
1=1=0=1
1=1=0=1
1=1=0=1
1=1=0=1
1=1=0=1
1=1=0=1
1=1=0=1
1=1=0=1
1=1=0=1
1=1=0=1
1=1=0=1
1=1=0=1
1=1=0=1
1=1=0=1
1=1=0=1
1=1=0=1
1=1=0=1
1=1=0=1
1=1=0=1
1=1=0=1
1=1=0=1
1=1=0=1
1=1=0=1
1=1=0=1
1=1=0=1
1=1=0=1
1=1=0=1
1=1=0=1
1=1=0=1
1=1=0=1
1=1=0=1
1=1=0=1
1=1=0=1
1=1=0=1
1=1=0=1
1=1=0=1
1=1=0=1
1=1=0=1
1=1=0=1
1=1=0=1
1=1=0=1
1=1=0=1
1=1=0=1
1=1=0=1
1=1=0=1
1=1=0=1
1=1=0=1
1=1=0=1
1=1=0=1
1=1=0=1
1=1=0=1
1=1=0=1
1=1=0=1
1=1=0=1
1=1=0=1
1=1=0=1
1=1=0=1
1=1=0=1
1=1=0=1
1=1=0=1
1=1=0=1
1=1=0=1
1=1=0=1
1=1=0=1
1=1=0=1
1=1=0=1
1=1=0=1
1=1=0=1
1=1=0=1
1=1=0=1
1=1=0=1
1=1=0=1
1=1=0=1
1=1=0=1
1=1=0=1
1=1=0=1
1=1=0=1
1=1=0=1
1=1=0=1
1=1=0=1
1=1=0=1
1=1=0=1
1=1=0=1
1=1=0=1
1=1=0=1
1=1=0=1
1=1=0=1
1=1=0=1
1=1=0=1
1=1=0=1
1=1=0=1
1=1=0=1
1=1=0=1
1=1=0=1
1=1=0=1
1=1=0=1
1=1=0=1
1=1=0=1
1=1=0=1
1=1=0=1
1=1=0=1
1=1=0=1
1=1=0=1
1=1=0=1
1=1=0=1
1=1=0=1
1=1=0=1
1=1=0=1
1=1=0=1
1=1=0=1
1=1=0=1
1=1=0=1
1=1=0=1
1=1=0=1
1=1=0=1
1=1=0=1
1=1=0=1
1=1=0=1
1=1=0=1
1=1=0=1
1=1=0=1
1=1=0=1
1=1=0=1
1=1=0=1
1=1=0=1
1=1=0=1
1=1=0=1
1=1=0=1
1=1=0=1
1=1=0=1
1=1=0=1
1=1=0=1
1=1=0=1
1=1=0=1
1=1=0=1
1=1=0=1
1=1=0=1
1=1=0=1
1=1=0=1
1=1=0=1
1=1=0=1
1=1=0=1
1=1=0=1
1=1=0=1
1=1=0=1
1=1=0=1
1=1=0=1
1=1=0=1
1=1=0=1
1=1=0=1
1=1=0=1
1=1=0=1
1=1=0=1
1=1=0=1
1=1=0=1
1=1=0=1
1=1=0=1
1=1=0=1
1=1=0=1
1=1=0=1
1=1=0=1
1=1=0=1
1=1=0=1
1=1=0=1
1=1=0=1
1=1=0=1
1=1=0=1
1=1=0=1
1=1=0=1
1=1=0=1
1=1=0=1
1=1=0=1
1=1=0=1
1=1=0=1
1=1=0=1
1=1=0=1
1=1=0=1
1=1=0=1
1=1=0=1
1=1=0=1
1=1=0=1
1=1=0=1
1=1=0=1
1=1=0=1
1=1=0=1
1=1=0=1
1=1=0=1
1=1=0=1
1=1=0=1
1=1=0=1
1=1=0=1
1=1=0=1
1=1=0=1
1=1=0=1
1=1=0=1
1=1=0=1
1=1=0=1
1=1=0=1
1=1=0=1
1=1=0=1
1=1=0=1
1=1=0=1
1=1=0=1
1=1=0=1
1=1=0=1
1=1=0=1
1=1=0=1
1=1=0=1
1=1=0=1
1=1=0=1
1=1=0=1
1=1=0=1
1=1=0=1
1=1=0=1
1=1=0=1
1=1=0=1
1=1=0=1
1=1=0=1
1=1=0=1
1=1=0=1
1=1=0=1
1=1=0=1
1=1=0=1
1=1=0=1
1=1=0=1
1=1=0=1
1=1=0=1
1=1=0=1
1=1=0=1
1=1=0=1
1=1=0=1
1=1=0=1
1=1=0=1
1=1=0=1
1=1=0=1
1=1=0=1
1=1=0=1
1=1=0=1
1=1=0=1
1=1=0=1
1=1=0=1
1=1=0=1
1=1=0=1
1=1=0=1
1=1=0=1
1=1=0=1
1=1=0=1
1=1=0=1
1=1=0=1
1=1=0=1
1=1=0=1
1=1=0=1
1=1=0=1
1=1=0=1
1=1=0=1
1=1=0=1
1=1=0=1
1=1=0=1
1=1=0=1
1=1=0=1
1=1=0=1
1=1=0=1
1=1=0=1
1=1=0=1
1=1=0=1
1=1=0=1
1=1=0=1
1=1=0=1
1=1=0=1
1=1=0=1
1=1=0=1
1=1=0=1
1=1=0=1
1=1=0=1
1=1=0=1
1=1=0=1
1=1=0=1
1=1=0=1
1=1=0=1
1=1=0=1
1=1=0=1
1=1=0=1
1=1=0=1
1=1=0=1
1=1=0=1
1=1=0=1
1=1=0=1
1=1=0=1
1=1=0=1
1=1=0=1
1=1=0=1
1=1=0=1
1=1=0=1
1=1=0=1
1=1=0=1
1=1=0=1
1=1=0=1
1=1=0=1
1=1=0=1
1=1=0=1
1=1=0=1
1=1=0=1
1=1=0=1
1=1=0=1
1=1=0=1
1=1=0=1
1=1=0=1
1=1=0=1
1=1=0=1
1=1=0=1
1=1=0=1
1=1=0=1
1=1=0=1
1=1=0=1
1=1=0=1
1=1=0=1
1=1=0=1
1=1=0=1
1=1=0=1
1=1=0=1
1=1=0=1
1=1=0=1
1=1=0=1
1=1=0=1
1=1=0=1
1=1=0=1
1=1=0=1
1=1=0=1
1=1=0=1
1=1=0=1
1=1=0=1
1=1=0=1
1=1=0=1
1=1=0=1
1=1=0=1
1=1=0=1
1=1=0=1
1=1=0=1
1=1=0=1
1=1=0=1
1=1=0=1
1=1=0=1
1=1=0=1
1=1=0=1
1=1=0=1
1=1=0=1
1=1=0=1
1=1=0=1
1=1=0=1
1=1=0=1
1=1=0=1
1=1=0=1
1=1=0=1
1=1=0=1
1=1=0=1
1=1=0=1
1=1=0=1
1=1=0=1
1=1=0=1
1=1=0=1
1=1=0=1
1=1=0=1
1=1=0=1
1=1=0=1
1=1=0=1
1=1=0=1
1=1=0=1
1=1=0=1
1=1=0=1
1=1=0=1
1=1=0=1
1=1=0=1
1=1=0=1
1=1=0=1
1=1=0=1
1=1=0=1
1=1=0=1
1=1=0=1
1=1=0=1
1=1=0=1
1=1=0=1
1=1=0=1
1=1=0=1
1=1=0=1
1=1=0=1
1=1=0=1
1=1=0=1
1=1=0=1
1=1=0=1
1=1=0=1
1=1=0=1
1=1=0=1
1=1=0=1
1=1=0=1
1=1=0=1
1=1=0=1
1=1=0=1
1=1=0=1
1=1=0=1
1=1=0=1
1=1=0=1
1=1=0=1
1=1=0=1
1=1=0=1
1=1=0=1
1=1=0=1
1=1=0=1
1=1=0=1
1=1=0=1
1=1=0=1
1=1=0=1
1=1=0=1
1=1=0=1
1=1=0=1
1=1=0=1
1=1=0=1
1=1=0=1
1=1=0=1
1=1=0=1
1=1=0=1
1=1=0=1
1=1=0=1
1=1=0=1
1=1=0=1
1=1=0=1
1=1=0=1
1=1=0=1
1=1=0=1
1=1=0=1
1=1=0=1
1=1=0=1
1=1=0=1
1=1=0=1
1=1=0=1
1=1=0=1
1=1=0=1
1=1=0=1
1=1=0=1
1=1=0=1
1=1=0=1
1=1=0=1
1=1=0=1
1=1=0=1
1=1=0=1
1=1=0=1
1=1=0=1
1=1=0=1
1=1=0=1
1=1=0=1
1=1=0=1
1=1=0=1
1=1=0=1
1=1=0=1
1=1=0=1
1=1=0=1
1=1=0=1
1=1=0=1
1=1=0=1
1=1=0=1
1=1=0=1
1=1=0=1
1=1=0=1
1=1=0=1
1=1=0=1
1=1=0=1
1=1=0=1
1=1=0=1
1=1=0=1
1=1=0=1
1=1=0=1
1=1=0=1
1=1=0=1
1=1=0=1
1=1=0=1
1=1=0=1
1=1=0=1
1=1=0=1
1=1=0=1
1=1=0=1
1=1=0=1
1=1=0=1
1=1=0=1
1=1=0=1
1=1=0=1
1=1=0=1
1=1=0=1
1=1=0=1
1=1=0=1
1=1=0=1
1=1=0=1
1=1=0=1
1=1=0=1
1=1=0=1
1=1=0=1
1=1=0=1
1=1=0=1
1=1=0=1
1=1=0=1
1=1=0=1
1=1=0=1
1=1=0=1
1=1=0=1
1=1=0=1
1=1=0=1
1=1=0=1
1=1=0=1
1=1=0=1
1=1=0=1
1=1=0=1
1=1=0=1
1=1=0=1
1=1=0=1
1=1=0=1
1=1=0=1
1=1=0=1
1=1=0=1
1=1=0=1
1=1=0=1
1=1=0=1
1=1=0=1
1=1=0=1
1=1=0=1
1=1=0=1
1=1=0=1
1=1=0=1
1=1=0=1
1=1=0=1
1=1=0=1
1=1=0=1
1=1=0=1
1=1=0=1
1=1=0=1
1=1=0=1
1=1=0=1
1=1=0=1
1=1=0=1
1=1=0=1
1=1=0=1
1=1=0=1
1=1=0=1
1=1=0=1
1=1=0=1
1=1=0=1
1=1=0=1
1=1=0=1
1=1=0=1
1=1=0=1
1=1=0=1
1=1=0=1
1=1=0=1
1=1=0=1
1=1=0=1
1=1=0=1
1=1=0=1
1=1=0=1
1=1=0=1
1=1=0=1
1=1=0=1
1=1=0=1
1=1=0=1
1=1=0=1
1=1=0=1
1=1=0=1
1=1=0=1
1=1=0=1
1=1=0=1
1=1=0=1
1=1=0=1
1=1=0=1
1=1=0=1
1=1=0=1
1=1=0=1
1=1=0=1
1=1=0=1
1=1=0=1
1=1=0=1
1=1=0=1
1=1=0=1
1=1=0=1
1=1=0=1
1=1=0=1
1=1=0=1
1=1=0=1
1=1=0=1
1=1=0=1
1=1=0=1
1=1=0=1
1=1=0=1
1=1=0=1
1=1=0=1
1=1=0=1
1=1=0=1
1=1=0=1
1=1=0=1
1=1=0=1
1=1=0=1
1=1=0=1
1=1=0=1
1=1=0=1
1=1=0=1
1=1=0=1
1=1=0=1
1=1=0=1
1=1=0=1
1=1=0=1
1=1=0=1
1=1=0=1
1=1=0=1
1=1=0=1
1=1=0=1
1=1=0=1
1=1=0=1
1=1=0=1
1=1=0=1
1=1=0=1
1=1=0=1
1=1=0=1
1=1=0=1
1=1=0=1
1=1=0=1
1=1=0=1
1=1=0=1
1=1=0=1
1=1=0=1
1=1=0=1
1=1=0=1
1=1=0=1
1=1=0=1
1=1=0=1
1=1=0=1
1=1=0=1
1=1=0=1
1=1=0=1
1=1=0=1
1=1=0=1
1=1=0=1
1=1=0=1
1=1=0=1
1=1=0=1
1=1=0=1
1=1=0=1
1=1=0=1
1=1=0=1
1=1=0=1
1=1=0=1
1=1=0=1
1=1=0=1
1=1=0=1
1=1=0=1
1=1=0=1
1=1=0=1
1=1=0=1
1=1=0=1
1=1=0=1
1=1=0=1
1=1=0=1
1=1=0=1
1=1=0=1
1=1=0=1
1=1=0=1
1=1=0=1
1=1=0=1
1=1=0=1
1=1=0=1
1=1=0=1
1=1=0=1
1=1=0=1
1=1=0=1
1=1=0=1
1=1=0=1
1=1=0=1
1=1=0=1
1=1=0=1
1=1=0=1
1=1=0=1
1=1=0=1
1=1=0=1
1=1=0=1
1=1=0=1
1=1=0=1
1=1=0=1
1=1=0=1
1=1=0=1
1=1=0=1
1=1=0=1
1=1=0=1
1=1=0=1
1=1=0=1
1=1=0=1
1=1=0=1
1=1=0=1
1=1=0=1
1=1=0=1
1=1=0=1
1=1=0=1
1=1=0=1
1=1=0=1
1=1=0=1
1=1=0=1
1=1=0=1
1=1=0=1
1=1=0=1
1=1=0=1
1=1=0=1
1=1=0=1
1=1=0=1
1=1=0=1
1=1=0=1
1=1=0=1
1=1=0=1
1=1=0=1
1=1=0=1
1=1=0=1
1=1=0=1
1=1=0=1
1=1=0=1
1=1=0=1
1=1=0=1
1=1=0=1
1=1=0=1
1=1=0=1
1=1=0=1
1=1=0=1
1=1=0=1
1=1=0=1
1=1=0=1
1=1=0=1
1=1=0=1
1=1=0=1
1=1=0=1
1=1=0=1
1=1=0=1
1=1=0=1
1=1=0=1
1=1=0=1
1=1=0=1
1=1=0=1
1=1=0=1
1=1=0=1
1=1=0=1
1=1=0=1
1=1=0=1
1=1=0=1
1=1=0=1
1=1=0=1
1=1=0=1
1=1=0=1
1=1=0=1
1=1=0=1
1=1=0=1
1=1=0=1
1=1=0=1
1=1=0=1
1=1=0=1
1=1=0=1
1=1=0=1
1=1=0=1
1=1=0=1
1=1=0=1
1=1=0=1
1=1=0=1
1=1=0=1
1=1=0=1
1=1=0=1
1=1=0=1
1=1=0=1
1=1=0=1
1=1=0=1
1=1=0=1
1=1=0=1
1=1=0=1
1=1=0=1
1=1=0=1
1=1=0=1
1=1=0=1
1=1=0=1
1=1=0=1
1=1=0=1
1=1=0=1
1=1=0=1
1=1=0=1
1=1=0=1
1=1=0=1
1=1=0=1
1=1=0=1
1=1=0=1
1=1=0=1
1=1=0=1
1=1=0=1
1=1=0=1
1=1=0=1
1=1=0=1
1=1=0=1
1=1=0=1
1=1=0=1
1=1=0=1
1=1=0=1
1=1=0=1
1=1=0=1
1=1=0=1
1=1=0=1
1=1=0=1
1=1=0=1
1=1=0=1
1=1=0=1
1=1=0=1
1=1=0=1
1=1=0=1
1=1=0=1
1=1=0=1
1=1=0=1
1=1=0=1
1=1=0=1
1=1=0=1
1=1=0=1
1=1=0=1
1=1=0=1
1=1=0=1
1=1=0=1
1=1=0=1
