1=1=0=1
1=1=0=1
1=1=0=1
1=1=0=1
1=1=0=1
1=1=0=1
1=1=0=1
1=1=0=1
1=1=0=1
1=1=0=1
1=1=0=1
1=1=0=1
1=1=0=1
1=1=0=1
1=1=0=1
1=1=0=1
1=1=0=1
1=1=0=1
1=1=0=1
1=1=0=1
1=1=0=1
1=1=0=1
1=1=0=1
1=1=0=1
1=1=0=1
1=1=0=1
1=1=0=1
1=1=0=1
1=1=0=1
1=1=0=1
1=1=0=1
1=1=0=1
1=1=0=1
1=1=0=1
1=1=0=1
1=1=0=1
1=1=0=1
1=1=0=1
1=1=0=1
1=1=0=1
1=1=0=1
1=1=0=1
1=1=0=1
1=1=0=1
1=1=0=1
1=1=0=1
1=1=0=1
1=1=0=1
1=1=0=1
1=1=0=1
1=1=0=1
1=1=0=1
1=1=0=1
1=1=0=1
1=1=0=1
1=1=0=1
1=1=0=1
1=1=0=1
1=1=0=1
1=1=0=1
1=1=0=1
1=1=0=1
1=1=0=1
1=1=0=1
1=1=0=1
1=1=0=1
1=1=0=1
1=1=0=1
1=1=0=1
1=1=0=1
1=1=0=1
1=1=0=1
1=1=0=1
1=1=0=1
1=1=0=1
1=1=0=1
1=1=0=1
1=1=0=1
1=1=0=1
1=1=0=1
1=1=0=1
1=1=0=1
1=1=0=1
1=1=0=1
1=1=0=1
1=1=0=1
1=1=0=1
1=1=0=1
1=1=0=1
1=1=0=1
1=1=0=1
1=1=0=1
1=1=0=1
1=1=0=1
1=1=0=1
7=1=0=0
7=1=0=0
7=1=0=0
5=1=0=0/14=2=1=0
5=1=0=0/15=2=3=0
5=1=0=0/14=2=0=0
5=1=0=0/9=2=1=0
5=1=0=0/14=2=1=0
5=1=0=0/15=2=3=0
5=1=0=0/14=2=0=0
7=1=0=0
7=1=0=0
7=1=0=0
1=1=0=1
1=1=0=1
1=1=0=1
1=1=0=1
1=1=0=1
1=1=0=1
1=1=0=1
1=1=0=1
1=1=0=1
1=1=0=1
1=1=0=1
1=1=0=1
1=1=0=1
1=1=0=1
1=1=0=1
1=1=0=1
1=1=0=1
1=1=0=1
1=1=0=1
1=1=0=1
1=1=0=1
1=1=0=1
1=1=0=1
1=1=0=1
1=1=0=1
1=1=0=1
1=1=0=1
1=1=0=1
1=1=0=1
1=1=0=1
1=1=0=1
1=1=0=1
1=1=0=1
1=1=0=1
1=1=0=1
1=1=0=1
1=1=0=1
1=1=0=1
1=1=0=1
1=1=0=1
1=1=0=1
1=1=0=1
1=1=0=1
1=1=0=1
1=1=0=1
1=1=0=1
1=1=0=1
7=1=0=0
7=1=0=0
7=1=0=0
5=1=0=0/15=2=0=0
5=1=0=0/28=3=0=15
5=1=0=0/15=2=2=0
5=1=0=0/11=2=0=0
5=1=0=0/15=2=0=0
5=1=0=0/28=3=0=15
5=1=0=0/15=2=2=0
7=1=0=0
7=1=0=0
7=1=0=0
1=1=0=1
1=1=0=1
1=1=0=1
1=1=0=1
1=1=0=1
1=1=0=1
1=1=0=1
1=1=0=1
1=1=0=1
1=1=0=1
1=1=0=1
1=1=0=1
1=1=0=1
1=1=0=1
1=1=0=1
1=1=0=1
1=1=0=1
1=1=0=1
1=1=0=1
1=1=0=1
1=1=0=1
1=1=0=1
1=1=0=1
1=1=0=1
1=1=0=1
1=1=0=1
1=1=0=1
1=1=0=1
1=1=0=1
1=1=0=1
1=1=0=1
1=1=0=1
1=1=0=1
1=1=0=1
1=1=0=1
1=1=0=1
1=1=0=1
1=1=0=1
1=1=0=1
1=1=0=1
1=1=0=1
1=1=0=1
1=1=0=1
1=1=0=1
1=1=0=1
1=1=0=1
1=1=0=1
7=1=0=0
7=1=0=0
7=1=0=0
5=1=0=0/15=2=0=0
5=1=0=0/28=3=0=15
5=1=0=0/15=2=2=0
5=1=0=0/9=2=3=0/38=7=0=11
5=1=0=0/15=2=0=0
5=1=0=0/28=3=0=15
5=1=0=0/15=2=2=0
7=1=0=0
7=1=0=0
7=1=0=0
1=1=0=1
1=1=0=1
1=1=0=1
1=1=0=1
1=1=0=1
1=1=0=1
1=1=0=1
1=1=0=1
1=1=0=1
1=1=0=1
1=1=0=1
1=1=0=1
1=1=0=1
1=1=0=1
1=1=0=1
1=1=0=1
1=1=0=1
1=1=0=1
1=1=0=1
1=1=0=1
1=1=0=1
1=1=0=1
1=1=0=1
1=1=0=1
1=1=0=1
1=1=0=1
1=1=0=1
1=1=0=1
1=1=0=1
1=1=0=1
1=1=0=1
1=1=0=1
1=1=0=1
1=1=0=1
1=1=0=1
1=1=0=1
1=1=0=1
1=1=0=1
1=1=0=1
1=1=0=1
1=1=0=1
1=1=0=1
1=1=0=1
1=1=0=1
1=1=0=1
1=1=0=1
1=1=0=1
5=1=0=0/15=2=3=0
5=1=0=0/15=2=3=0
5=1=0=0/15=2=3=0
5=1=0=0/13=2=3=0
5=1=0=0/28=3=0=15
5=1=0=0/15=2=2=0
22=1=0=1/43=3=0=18
5=1=0=0/15=2=0=0
5=1=0=0/28=3=0=15
5=1=0=0/13=2=2=0
5=1=0=0/15=2=3=0
5=1=0=0/15=2=3=0
5=1=0=0/15=2=3=0
1=1=0=1
1=1=0=1
1=1=0=1
1=1=0=1
1=1=0=1
1=1=0=1
1=1=0=1
1=1=0=1
1=1=0=1
1=1=0=1
1=1=0=1
1=1=0=1
1=1=0=1
1=1=0=1
1=1=0=1
1=1=0=1
1=1=0=1
1=1=0=1
1=1=0=1
1=1=0=1
1=1=0=1
1=1=0=1
1=1=0=1
1=1=0=1
1=1=0=1
1=1=0=1
1=1=0=1
1=1=0=1
1=1=0=1
1=1=0=1
1=1=0=1
1=1=0=1
1=1=0=1
1=1=0=1
1=1=0=1
1=1=0=1
1=1=0=1
1=1=0=1
1=1=0=1
1=1=0=1
1=1=0=1
1=1=0=1
1=1=0=1
1=1=0=1
1=1=0=1
1=1=0=1
1=1=0=1
5=1=0=0
5=1=0=0
5=1=0=0
5=1=0=0
5=1=0=0/28=3=0=15
5=1=0=0/28=3=0=15/13=2=2=0
1=1=0=1
5=1=0=0/28=3=0=15/13=2=3=0
5=1=0=0/28=3=0=15
5=1=0=0
5=1=0=0
5=1=0=0
5=1=0=0
1=1=0=1
1=1=0=1
1=1=0=1
1=1=0=1
1=1=0=1
1=1=0=1
1=1=0=1
1=1=0=1
1=1=0=1
1=1=0=1
1=1=0=1
1=1=0=1
1=1=0=1
1=1=0=1
1=1=0=1
1=1=0=1
1=1=0=1
1=1=0=1
1=1=0=1
1=1=0=1
1=1=0=1
1=1=0=1
1=1=0=1
1=1=0=1
1=1=0=1
1=1=0=1
1=1=0=1
1=1=0=1
1=1=0=1
1=1=0=1
1=1=0=1
1=1=0=1
1=1=0=1
1=1=0=1
1=1=0=1
1=1=0=1
1=1=0=1
1=1=0=1
1=1=0=1
1=1=0=1
1=1=0=1
1=1=0=1
1=1=0=1
1=1=0=1
1=1=0=1
1=1=0=1
1=1=0=1
5=1=0=0
5=1=0=0
5=1=0=0
5=1=0=0
5=1=0=0
5=1=0=0
5=1=0=0
5=1=0=0
5=1=0=0
5=1=0=0
5=1=0=0
5=1=0=0
5=1=0=0
1=1=0=1
1=1=0=1
1=1=0=1
1=1=0=1
1=1=0=1
1=1=0=1
1=1=0=1
1=1=0=1
1=1=0=1
1=1=0=1
1=1=0=1
1=1=0=1
1=1=0=1
1=1=0=1
1=1=0=1
1=1=0=1
1=1=0=1
1=1=0=1
1=1=0=1
1=1=0=1
1=1=0=1
1=1=0=1
1=1=0=1
1=1=0=1
1=1=0=1
1=1=0=1
1=1=0=1
1=1=0=1
1=1=0=1
1=1=0=1
1=1=0=1
1=1=0=1
1=1=0=1
1=1=0=1
1=1=0=1
1=1=0=1
1=1=0=1
1=1=0=1
1=1=0=1
1=1=0=1
1=1=0=1
1=1=0=1
1=1=0=1
1=1=0=1
1=1=0=1
1=1=0=1
1=1=0=1
5=1=0=0
5=1=0=0
5=1=0=0
5=1=0=0
5=1=0=0
5=1=0=0
5=1=0=0/28=3=0=15
5=1=0=0
5=1=0=0
5=1=0=0
5=1=0=0
5=1=0=0
5=1=0=0
1=1=0=1
1=1=0=1
1=1=0=1
1=1=0=1
1=1=0=1
1=1=0=1
1=1=0=1
1=1=0=1
1=1=0=1
1=1=0=1
1=1=0=1
1=1=0=1
1=1=0=1
1=1=0=1
1=1=0=1
1=1=0=1
1=1=0=1
1=1=0=1
1=1=0=1
1=1=0=1
1=1=0=1
1=1=0=1
1=1=0=1
1=1=0=1
1=1=0=1
1=1=0=1
1=1=0=1
1=1=0=1
1=1=0=1
1=1=0=1
1=1=0=1
1=1=0=1
1=1=0=1
1=1=0=1
1=1=0=1
1=1=0=1
1=1=0=1
1=1=0=1
1=1=0=1
1=1=0=1
1=1=0=1
1=1=0=1
1=1=0=1
1=1=0=1
1=1=0=1
1=1=0=1
1=1=0=1
5=1=0=0
5=1=0=0
5=1=0=0/28=3=0=15
5=1=0=0
5=1=0=0
5=1=0=0/30=5=0=4
5=1=0=0/36=5=0=7
5=1=0=0/30=5=0=4
5=1=0=0
5=1=0=0
5=1=0=0/28=3=0=15
5=1=0=0
5=1=0=0
1=1=0=1
1=1=0=1
1=1=0=1
1=1=0=1
1=1=0=1
1=1=0=1
1=1=0=1
1=1=0=1
1=1=0=1
1=1=0=1
1=1=0=1
1=1=0=1
1=1=0=1
1=1=0=1
1=1=0=1
1=1=0=1
1=1=0=1
1=1=0=1
1=1=0=1
1=1=0=1
1=1=0=1
1=1=0=1
1=1=0=1
1=1=0=1
1=1=0=1
1=1=0=1
1=1=0=1
1=1=0=1
1=1=0=1
1=1=0=1
1=1=0=1
1=1=0=1
1=1=0=1
1=1=0=1
1=1=0=1
1=1=0=1
1=1=0=1
1=1=0=1
1=1=0=1
1=1=0=1
1=1=0=1
1=1=0=1
1=1=0=1
1=1=0=1
1=1=0=1
1=1=0=1
1=1=0=1
5=1=0=0
5=1=0=0/13=2=1=0
5=1=0=0/15=2=1=0
5=1=0=0/13=2=0=0
5=1=0=0
5=1=0=0
5=1=0=0
5=1=0=0
5=1=0=0
5=1=0=0/13=2=1=0
5=1=0=0/15=2=1=0
5=1=0=0/13=2=0=0
5=1=0=0
1=1=0=1
1=1=0=1
1=1=0=1
1=1=0=1
1=1=0=1
1=1=0=1
1=1=0=1
1=1=0=1
1=1=0=1
1=1=0=1
1=1=0=1
1=1=0=1
1=1=0=1
1=1=0=1
1=1=0=1
1=1=0=1
1=1=0=1
1=1=0=1
1=1=0=1
1=1=0=1
1=1=0=1
1=1=0=1
1=1=0=1
1=1=0=1
1=1=0=1
1=1=0=1
1=1=0=1
1=1=0=1
1=1=0=1
1=1=0=1
1=1=0=1
1=1=0=1
1=1=0=1
1=1=0=1
1=1=0=1
1=1=0=1
1=1=0=1
1=1=0=1
1=1=0=1
1=1=0=1
1=1=0=1
1=1=0=1
1=1=0=1
1=1=0=1
1=1=0=1
1=1=0=1
1=1=0=1
22=1=0=1/51=3=0=27
22=1=0=1
22=1=0=1/27=3=0=2/29=5=0=3
22=1=0=1
22=1=0=1
22=1=0=1/30=5=0=4
5=1=0=0/25=2=0=16/31=3=0=6
22=1=0=1/43=3=0=18
22=1=0=1
22=1=0=1
22=1=0=1/27=3=0=2/29=5=0=3
22=1=0=1
22=1=0=1/51=3=0=27
1=1=0=1
1=1=0=1
1=1=0=1
1=1=0=1
1=1=0=1
1=1=0=1
1=1=0=1
1=1=0=1
1=1=0=1
1=1=0=1
1=1=0=1
1=1=0=1
1=1=0=1
1=1=0=1
1=1=0=1
1=1=0=1
1=1=0=1
1=1=0=1
1=1=0=1
1=1=0=1
1=1=0=1
1=1=0=1
1=1=0=1
1=1=0=1
1=1=0=1
1=1=0=1
1=1=0=1
1=1=0=1
1=1=0=1
1=1=0=1
1=1=0=1
1=1=0=1
1=1=0=1
1=1=0=1
1=1=0=1
1=1=0=1
1=1=0=1
1=1=0=1
1=1=0=1
1=1=0=1
1=1=0=1
1=1=0=1
1=1=0=1
1=1=0=1
1=1=0=1
1=1=0=1
1=1=0=1
1=1=0=1
1=1=0=1
1=1=0=1
1=1=0=1
1=1=0=1
1=1=0=1
1=1=0=1
1=1=0=1
1=1=0=1
1=1=0=1
1=1=0=1
1=1=0=1
1=1=0=1
1=1=0=1
1=1=0=1
1=1=0=1
1=1=0=1
1=1=0=1
1=1=0=1
1=1=0=1
1=1=0=1
1=1=0=1
1=1=0=1
1=1=0=1
1=1=0=1
1=1=0=1
1=1=0=1
1=1=0=1
1=1=0=1
1=1=0=1
1=1=0=1
1=1=0=1
1=1=0=1
1=1=0=1
1=1=0=1
1=1=0=1
1=1=0=1
1=1=0=1
1=1=0=1
1=1=0=1
1=1=0=1
1=1=0=1
1=1=0=1
1=1=0=1
1=1=0=1
1=1=0=1
1=1=0=1
1=1=0=1
1=1=0=1
1=1=0=1
1=1=0=1
1=1=0=1
1=1=0=1
1=1=0=1
1=1=0=1
1=1=0=1
1=1=0=1
1=1=0=1
1=1=0=1
1=1=0=1
1=1=0=1
5=1=0=0
5=1=0=0
5=1=0=0/30=5=0=4
5=1=0=0/28=3=0=15/36=5=0=7
5=1=0=0/30=5=0=4
5=1=0=0
5=1=0=0/30=5=0=4
5=1=0=0/28=3=0=15
5=1=0=0/41=3=0=14/29=5=0=3
5=1=0=0
5=1=0=0/28=3=0=15
1=1=0=1
1=1=0=1
1=1=0=1
1=1=0=1
1=1=0=1
1=1=0=1
1=1=0=1
1=1=0=1
1=1=0=1
1=1=0=1
1=1=0=1
1=1=0=1
1=1=0=1
1=1=0=1
1=1=0=1
1=1=0=1
1=1=0=1
1=1=0=1
1=1=0=1
1=1=0=1
1=1=0=1
1=1=0=1
1=1=0=1
1=1=0=1
1=1=0=1
1=1=0=1
1=1=0=1
1=1=0=1
1=1=0=1
1=1=0=1
1=1=0=1
1=1=0=1
1=1=0=1
1=1=0=1
1=1=0=1
1=1=0=1
1=1=0=1
1=1=0=1
1=1=0=1
1=1=0=1
1=1=0=1
1=1=0=1
1=1=0=1
1=1=0=1
1=1=0=1
1=1=0=1
1=1=0=1
1=1=0=1
1=1=0=1
5=1=0=0
5=1=0=0/28=3=0=15
5=1=0=0
5=1=0=0
5=1=0=0
5=1=0=0/28=3=0=15
5=1=0=0/36=5=0=7
5=1=0=0
5=1=0=0/28=3=0=15
5=1=0=0
5=1=0=0
1=1=0=1
1=1=0=1
1=1=0=1
1=1=0=1
1=1=0=1
1=1=0=1
1=1=0=1
1=1=0=1
1=1=0=1
1=1=0=1
1=1=0=1
1=1=0=1
1=1=0=1
1=1=0=1
1=1=0=1
1=1=0=1
1=1=0=1
1=1=0=1
1=1=0=1
1=1=0=1
1=1=0=1
1=1=0=1
1=1=0=1
1=1=0=1
1=1=0=1
1=1=0=1
1=1=0=1
1=1=0=1
1=1=0=1
1=1=0=1
1=1=0=1
1=1=0=1
1=1=0=1
1=1=0=1
1=1=0=1
1=1=0=1
1=1=0=1
1=1=0=1
1=1=0=1
1=1=0=1
1=1=0=1
1=1=0=1
1=1=0=1
1=1=0=1
1=1=0=1
1=1=0=1
1=1=0=1
1=1=0=1
1=1=0=1
5=1=0=0
5=1=0=0
5=1=0=0/28=3=0=15/30=5=0=4
5=1=0=0/28=3=0=15/36=5=0=7
5=1=0=0/28=3=0=15/30=5=0=4
5=1=0=0
5=1=0=0/30=5=0=4
5=1=0=0
5=1=0=0
5=1=0=0/28=3=0=15
5=1=0=0
1=1=0=1
1=1=0=1
1=1=0=1
1=1=0=1
1=1=0=1
1=1=0=1
1=1=0=1
1=1=0=1
1=1=0=1
1=1=0=1
1=1=0=1
1=1=0=1
1=1=0=1
1=1=0=1
1=1=0=1
1=1=0=1
1=1=0=1
1=1=0=1
1=1=0=1
1=1=0=1
1=1=0=1
1=1=0=1
1=1=0=1
1=1=0=1
1=1=0=1
1=1=0=1
1=1=0=1
1=1=0=1
1=1=0=1
1=1=0=1
1=1=0=1
1=1=0=1
1=1=0=1
1=1=0=1
1=1=0=1
1=1=0=1
1=1=0=1
1=1=0=1
1=1=0=1
1=1=0=1
1=1=0=1
1=1=0=1
1=1=0=1
1=1=0=1
1=1=0=1
1=1=0=1
1=1=0=1
1=1=0=1
1=1=0=1
5=1=0=0/28=3=0=15
5=1=0=0
5=1=0=0/28=3=0=15
5=1=0=0
5=1=0=0
5=1=0=0
5=1=0=0/28=3=0=15
5=1=0=0/28=3=0=15
5=1=0=0
5=1=0=0
5=1=0=0
1=1=0=1
1=1=0=1
1=1=0=1
1=1=0=1
1=1=0=1
1=1=0=1
1=1=0=1
1=1=0=1
1=1=0=1
1=1=0=1
1=1=0=1
1=1=0=1
1=1=0=1
1=1=0=1
1=1=0=1
1=1=0=1
1=1=0=1
1=1=0=1
1=1=0=1
1=1=0=1
1=1=0=1
1=1=0=1
1=1=0=1
1=1=0=1
1=1=0=1
1=1=0=1
1=1=0=1
1=1=0=1
1=1=0=1
1=1=0=1
1=1=0=1
1=1=0=1
1=1=0=1
1=1=0=1
1=1=0=1
1=1=0=1
1=1=0=1
1=1=0=1
1=1=0=1
1=1=0=1
1=1=0=1
1=1=0=1
5=1=0=0
5=1=0=0/32=2=0=5
5=1=0=0/28=3=0=15
5=1=0=0/32=2=0=5
5=1=0=0
1=1=0=1
1=1=0=1
5=1=0=0/41=3=0=14/29=5=0=3
5=1=0=0
5=1=0=0/28=3=0=15
5=1=0=0/41=3=0=14/29=5=0=3
5=1=0=0/28=3=0=15
5=1=0=0/30=5=0=4
5=1=0=0
5=1=0=0/41=3=0=14/29=5=0=3
5=1=0=0/28=3=0=15
5=1=0=0
5=1=0=0
1=1=0=1
1=1=0=1
1=1=0=1
1=1=0=1
1=1=0=1
1=1=0=1
1=1=0=1
1=1=0=1
1=1=0=1
1=1=0=1
1=1=0=1
1=1=0=1
1=1=0=1
1=1=0=1
1=1=0=1
1=1=0=1
1=1=0=1
1=1=0=1
1=1=0=1
1=1=0=1
1=1=0=1
1=1=0=1
1=1=0=1
1=1=0=1
1=1=0=1
1=1=0=1
1=1=0=1
1=1=0=1
1=1=0=1
1=1=0=1
1=1=0=1
1=1=0=1
1=1=0=1
1=1=0=1
1=1=0=1
1=1=0=1
1=1=0=1
1=1=0=1
1=1=0=1
1=1=0=1
1=1=0=1
1=1=0=1
5=1=0=0
5=1=0=0/28=3=0=15
5=1=0=0/28=3=0=15
5=1=0=0/28=3=0=15
5=1=0=0
1=1=0=1
1=1=0=1
22=1=0=1
22=1=0=1
22=1=0=1
22=1=0=1
22=1=0=1
5=1=0=0/25=2=0=16/31=3=0=6
22=1=0=1
22=1=0=1
22=1=0=1
22=1=0=1
22=1=0=1
1=1=0=1
1=1=0=1
1=1=0=1
1=1=0=1
1=1=0=1
1=1=0=1
1=1=0=1
1=1=0=1
1=1=0=1
1=1=0=1
1=1=0=1
1=1=0=1
1=1=0=1
1=1=0=1
1=1=0=1
1=1=0=1
1=1=0=1
1=1=0=1
1=1=0=1
1=1=0=1
1=1=0=1
1=1=0=1
1=1=0=1
1=1=0=1
1=1=0=1
1=1=0=1
1=1=0=1
1=1=0=1
1=1=0=1
1=1=0=1
1=1=0=1
1=1=0=1
1=1=0=1
1=1=0=1
1=1=0=1
1=1=0=1
1=1=0=1
1=1=0=1
1=1=0=1
1=1=0=1
1=1=0=1
1=1=0=1
5=1=0=0
5=1=0=0
5=1=0=0
5=1=0=0
5=1=0=0
1=1=0=1
1=1=0=1
1=1=0=1
1=1=0=1
1=1=0=1
1=1=0=1
1=1=0=1
1=1=0=1
1=1=0=1
1=1=0=1
1=1=0=1
1=1=0=1
1=1=0=1
1=1=0=1
1=1=0=1
1=1=0=1
1=1=0=1
1=1=0=1
1=1=0=1
1=1=0=1
1=1=0=1
1=1=0=1
1=1=0=1
1=1=0=1
1=1=0=1
1=1=0=1
1=1=0=1
1=1=0=1
1=1=0=1
1=1=0=1
1=1=0=1
1=1=0=1
1=1=0=1
1=1=0=1
1=1=0=1
1=1=0=1
1=1=0=1
1=1=0=1
1=1=0=1
1=1=0=1
1=1=0=1
1=1=0=1
1=1=0=1
1=1=0=1
1=1=0=1
1=1=0=1
1=1=0=1
1=1=0=1
1=1=0=1
1=1=0=1
1=1=0=1
1=1=0=1
1=1=0=1
1=1=0=1
1=1=0=1
5=1=0=0/28=3=0=15
5=1=0=0/28=3=0=15
5=1=0=0
5=1=0=0/28=3=0=15
5=1=0=0/28=3=0=15
5=1=0=0/28=3=0=15
5=1=0=0/28=3=0=15
5=1=0=0/28=3=0=15
5=1=0=0
5=1=0=0
5=1=0=0
5=1=0=0
5=1=0=0
1=1=0=1
1=1=0=1
1=1=0=1
1=1=0=1
1=1=0=1
1=1=0=1
1=1=0=1
1=1=0=1
1=1=0=1
1=1=0=1
1=1=0=1
1=1=0=1
1=1=0=1
1=1=0=1
1=1=0=1
1=1=0=1
1=1=0=1
1=1=0=1
1=1=0=1
1=1=0=1
1=1=0=1
1=1=0=1
1=1=0=1
1=1=0=1
1=1=0=1
1=1=0=1
1=1=0=1
1=1=0=1
1=1=0=1
1=1=0=1
1=1=0=1
1=1=0=1
1=1=0=1
1=1=0=1
1=1=0=1
1=1=0=1
1=1=0=1
1=1=0=1
1=1=0=1
1=1=0=1
1=1=0=1
1=1=0=1
1=1=0=1
1=1=0=1
1=1=0=1
1=1=0=1
1=1=0=1
5=1=0=0
5=1=0=0
5=1=0=0
5=1=0=0
5=1=0=0
5=1=0=0
5=1=0=0
5=1=0=0
5=1=0=0
5=1=0=0
5=1=0=0
5=1=0=0
5=1=0=0
1=1=0=1
1=1=0=1
1=1=0=1
1=1=0=1
1=1=0=1
1=1=0=1
1=1=0=1
1=1=0=1
1=1=0=1
1=1=0=1
1=1=0=1
1=1=0=1
1=1=0=1
1=1=0=1
1=1=0=1
1=1=0=1
1=1=0=1
1=1=0=1
1=1=0=1
1=1=0=1
1=1=0=1
1=1=0=1
1=1=0=1
1=1=0=1
1=1=0=1
1=1=0=1
1=1=0=1
1=1=0=1
1=1=0=1
1=1=0=1
1=1=0=1
1=1=0=1
1=1=0=1
1=1=0=1
1=1=0=1
1=1=0=1
1=1=0=1
1=1=0=1
1=1=0=1
1=1=0=1
1=1=0=1
1=1=0=1
1=1=0=1
1=1=0=1
1=1=0=1
1=1=0=1
1=1=0=1
5=1=0=0
5=1=0=0/28=3=0=15
5=1=0=0/28=3=0=15
5=1=0=0/28=3=0=15
5=1=0=0/28=3=0=15
5=1=0=0/28=3=0=15
5=1=0=0
5=1=0=0
5=1=0=0
5=1=0=0/37=3=0=10/29=5=0=3
5=1=0=0
5=1=0=0
5=1=0=0
1=1=0=1
1=1=0=1
1=1=0=1
1=1=0=1
1=1=0=1
1=1=0=1
1=1=0=1
1=1=0=1
1=1=0=1
1=1=0=1
1=1=0=1
1=1=0=1
1=1=0=1
1=1=0=1
1=1=0=1
1=1=0=1
1=1=0=1
1=1=0=1
1=1=0=1
1=1=0=1
1=1=0=1
1=1=0=1
1=1=0=1
1=1=0=1
1=1=0=1
1=1=0=1
1=1=0=1
1=1=0=1
1=1=0=1
1=1=0=1
1=1=0=1
1=1=0=1
1=1=0=1
1=1=0=1
1=1=0=1
1=1=0=1
1=1=0=1
1=1=0=1
1=1=0=1
1=1=0=1
1=1=0=1
1=1=0=1
1=1=0=1
1=1=0=1
1=1=0=1
1=1=0=1
1=1=0=1
5=1=0=0
5=1=0=0
5=1=0=0
5=1=0=0
5=1=0=0
5=1=0=0
5=1=0=0
5=1=0=0
5=1=0=0
5=1=0=0
5=1=0=0
5=1=0=0
5=1=0=0
1=1=0=1
1=1=0=1
1=1=0=1
1=1=0=1
1=1=0=1
1=1=0=1
1=1=0=1
1=1=0=1
1=1=0=1
1=1=0=1
1=1=0=1
1=1=0=1
1=1=0=1
1=1=0=1
1=1=0=1
1=1=0=1
1=1=0=1
1=1=0=1
1=1=0=1
1=1=0=1
1=1=0=1
1=1=0=1
1=1=0=1
1=1=0=1
1=1=0=1
1=1=0=1
1=1=0=1
1=1=0=1
1=1=0=1
1=1=0=1
1=1=0=1
1=1=0=1
1=1=0=1
1=1=0=1
1=1=0=1
1=1=0=1
1=1=0=1
1=1=0=1
1=1=0=1
1=1=0=1
1=1=0=1
1=1=0=1
1=1=0=1
1=1=0=1
1=1=0=1
1=1=0=1
1=1=0=1
22=1=0=1/51=3=0=27
22=1=0=1
22=1=0=1
22=1=0=1
22=1=0=1
22=1=0=1
22=1=0=1/51=3=0=27
22=1=0=1
22=1=0=1/30=5=0=4
5=1=0=0/25=2=0=16/31=3=0=6
22=1=0=1/30=5=0=4
22=1=0=1
22=1=0=1
1=1=0=1
1=1=0=1
1=1=0=1
1=1=0=1
1=1=0=1
1=1=0=1
1=1=0=1
1=1=0=1
1=1=0=1
1=1=0=1
1=1=0=1
1=1=0=1
1=1=0=1
1=1=0=1
1=1=0=1
1=1=0=1
1=1=0=1
1=1=0=1
1=1=0=1
1=1=0=1
1=1=0=1
1=1=0=1
1=1=0=1
1=1=0=1
1=1=0=1
1=1=0=1
1=1=0=1
1=1=0=1
1=1=0=1
1=1=0=1
1=1=0=1
1=1=0=1
1=1=0=1
1=1=0=1
1=1=0=1
1=1=0=1
1=1=0=1
1=1=0=1
1=1=0=1
1=1=0=1
1=1=0=1
1=1=0=1
1=1=0=1
1=1=0=1
1=1=0=1
1=1=0=1
1=1=0=1
1=1=0=1
1=1=0=1
1=1=0=1
1=1=0=1
1=1=0=1
1=1=0=1
1=1=0=1
1=1=0=1
1=1=0=1
1=1=0=1
1=1=0=1
1=1=0=1
1=1=0=1
1=1=0=1
1=1=0=1
1=1=0=1
1=1=0=1
1=1=0=1
1=1=0=1
1=1=0=1
1=1=0=1
1=1=0=1
1=1=0=1
1=1=0=1
1=1=0=1
1=1=0=1
1=1=0=1
1=1=0=1
1=1=0=1
1=1=0=1
1=1=0=1
1=1=0=1
1=1=0=1
1=1=0=1
1=1=0=1
1=1=0=1
1=1=0=1
1=1=0=1
1=1=0=1
1=1=0=1
1=1=0=1
1=1=0=1
1=1=0=1
1=1=0=1
1=1=0=1
1=1=0=1
1=1=0=1
1=1=0=1
1=1=0=1
1=1=0=1
1=1=0=1
1=1=0=1
1=1=0=1
1=1=0=1
1=1=0=1
1=1=0=1
1=1=0=1
1=1=0=1
1=1=0=1
1=1=0=1
1=1=0=1
1=1=0=1
1=1=0=1
1=1=0=1
1=1=0=1
1=1=0=1
5=1=0=0/30=5=0=4
5=1=0=0/36=5=0=7
5=1=0=0/30=5=0=4
5=1=0=0
5=1=0=0
5=1=0=0
5=1=0=0
1=1=0=1
1=1=0=1
1=1=0=1
1=1=0=1
1=1=0=1
1=1=0=1
1=1=0=1
1=1=0=1
1=1=0=1
1=1=0=1
1=1=0=1
1=1=0=1
1=1=0=1
1=1=0=1
1=1=0=1
1=1=0=1
1=1=0=1
1=1=0=1
1=1=0=1
1=1=0=1
1=1=0=1
1=1=0=1
1=1=0=1
1=1=0=1
1=1=0=1
1=1=0=1
1=1=0=1
1=1=0=1
1=1=0=1
1=1=0=1
1=1=0=1
1=1=0=1
1=1=0=1
1=1=0=1
1=1=0=1
1=1=0=1
1=1=0=1
1=1=0=1
1=1=0=1
1=1=0=1
1=1=0=1
1=1=0=1
1=1=0=1
1=1=0=1
1=1=0=1
1=1=0=1
1=1=0=1
1=1=0=1
1=1=0=1
1=1=0=1
1=1=0=1
1=1=0=1
1=1=0=1
5=1=0=0/29=5=0=3
5=1=0=0
5=1=0=0/29=5=0=3
5=1=0=0/37=3=0=10/29=5=0=3
5=1=0=0
5=1=0=0
5=1=0=0
1=1=0=1
1=1=0=1
1=1=0=1
1=1=0=1
1=1=0=1
1=1=0=1
1=1=0=1
1=1=0=1
1=1=0=1
1=1=0=1
1=1=0=1
1=1=0=1
1=1=0=1
1=1=0=1
1=1=0=1
1=1=0=1
1=1=0=1
1=1=0=1
1=1=0=1
1=1=0=1
1=1=0=1
1=1=0=1
1=1=0=1
1=1=0=1
1=1=0=1
1=1=0=1
1=1=0=1
1=1=0=1
1=1=0=1
1=1=0=1
1=1=0=1
1=1=0=1
1=1=0=1
1=1=0=1
1=1=0=1
1=1=0=1
1=1=0=1
1=1=0=1
1=1=0=1
1=1=0=1
1=1=0=1
1=1=0=1
1=1=0=1
1=1=0=1
1=1=0=1
1=1=0=1
1=1=0=1
1=1=0=1
1=1=0=1
1=1=0=1
1=1=0=1
1=1=0=1
1=1=0=1
5=1=0=0
5=1=0=0
5=1=0=0
5=1=0=0
5=1=0=0
5=1=0=0
5=1=0=0
1=1=0=1
1=1=0=1
1=1=0=1
1=1=0=1
1=1=0=1
1=1=0=1
1=1=0=1
1=1=0=1
1=1=0=1
1=1=0=1
1=1=0=1
1=1=0=1
1=1=0=1
1=1=0=1
1=1=0=1
1=1=0=1
1=1=0=1
1=1=0=1
1=1=0=1
1=1=0=1
1=1=0=1
1=1=0=1
1=1=0=1
1=1=0=1
1=1=0=1
1=1=0=1
1=1=0=1
1=1=0=1
1=1=0=1
1=1=0=1
1=1=0=1
1=1=0=1
1=1=0=1
1=1=0=1
1=1=0=1
1=1=0=1
1=1=0=1
1=1=0=1
1=1=0=1
1=1=0=1
1=1=0=1
1=1=0=1
1=1=0=1
1=1=0=1
1=1=0=1
1=1=0=1
1=1=0=1
1=1=0=1
1=1=0=1
1=1=0=1
1=1=0=1
1=1=0=1
1=1=0=1
5=1=0=0
5=1=0=0/37=3=0=10/29=5=0=3
5=1=0=0
5=1=0=0
5=1=0=0
5=1=0=0/37=3=0=10/29=5=0=3
5=1=0=0
1=1=0=1
1=1=0=1
1=1=0=1
1=1=0=1
1=1=0=1
1=1=0=1
1=1=0=1
1=1=0=1
1=1=0=1
1=1=0=1
1=1=0=1
1=1=0=1
1=1=0=1
1=1=0=1
1=1=0=1
1=1=0=1
1=1=0=1
1=1=0=1
1=1=0=1
1=1=0=1
1=1=0=1
1=1=0=1
1=1=0=1
1=1=0=1
1=1=0=1
1=1=0=1
1=1=0=1
1=1=0=1
1=1=0=1
1=1=0=1
1=1=0=1
1=1=0=1
1=1=0=1
1=1=0=1
1=1=0=1
1=1=0=1
1=1=0=1
1=1=0=1
1=1=0=1
1=1=0=1
1=1=0=1
1=1=0=1
1=1=0=1
1=1=0=1
1=1=0=1
1=1=0=1
1=1=0=1
1=1=0=1
1=1=0=1
1=1=0=1
1=1=0=1
1=1=0=1
1=1=0=1
5=1=0=0
5=1=0=0
5=1=0=0/30=5=0=4
5=1=0=0/30=5=0=4
5=1=0=0/30=5=0=4
5=1=0=0
5=1=0=0
1=1=0=1
1=1=0=1
1=1=0=1
1=1=0=1
1=1=0=1
1=1=0=1
1=1=0=1
1=1=0=1
1=1=0=1
1=1=0=1
1=1=0=1
1=1=0=1
1=1=0=1
1=1=0=1
1=1=0=1
1=1=0=1
1=1=0=1
1=1=0=1
1=1=0=1
1=1=0=1
1=1=0=1
1=1=0=1
1=1=0=1
1=1=0=1
1=1=0=1
1=1=0=1
1=1=0=1
1=1=0=1
1=1=0=1
1=1=0=1
1=1=0=1
1=1=0=1
1=1=0=1
1=1=0=1
1=1=0=1
1=1=0=1
1=1=0=1
1=1=0=1
1=1=0=1
1=1=0=1
1=1=0=1
1=1=0=1
1=1=0=1
1=1=0=1
1=1=0=1
1=1=0=1
1=1=0=1
1=1=0=1
1=1=0=1
1=1=0=1
1=1=0=1
1=1=0=1
1=1=0=1
22=1=0=1
22=1=0=1
22=1=0=1/50=3=0=26
5=1=0=0/25=2=0=16/31=3=0=6
22=1=0=1/50=3=0=26
22=1=0=1
22=1=0=1
1=1=0=1
1=1=0=1
1=1=0=1
1=1=0=1
1=1=0=1
1=1=0=1
1=1=0=1
1=1=0=1
1=1=0=1
1=1=0=1
1=1=0=1
1=1=0=1
1=1=0=1
1=1=0=1
1=1=0=1
1=1=0=1
1=1=0=1
1=1=0=1
1=1=0=1
1=1=0=1
1=1=0=1
1=1=0=1
1=1=0=1
1=1=0=1
1=1=0=1
1=1=0=1
1=1=0=1
1=1=0=1
1=1=0=1
1=1=0=1
1=1=0=1
1=1=0=1
1=1=0=1
1=1=0=1
1=1=0=1
1=1=0=1
1=1=0=1
1=1=0=1
1=1=0=1
1=1=0=1
1=1=0=1
1=1=0=1
1=1=0=1
1=1=0=1
1=1=0=1
1=1=0=1
1=1=0=1
1=1=0=1
1=1=0=1
1=1=0=1
1=1=0=1
1=1=0=1
1=1=0=1
1=1=0=1
1=1=0=1
1=1=0=1
42=1=0=17/39=7=0=12
1=1=0=1
1=1=0=1
1=1=0=1
1=1=0=1
1=1=0=1
1=1=0=1
1=1=0=1
1=1=0=1
1=1=0=1
1=1=0=1
1=1=0=1
1=1=0=1
1=1=0=1
1=1=0=1
1=1=0=1
1=1=0=1
1=1=0=1
1=1=0=1
1=1=0=1
1=1=0=1
1=1=0=1
1=1=0=1
1=1=0=1
1=1=0=1
1=1=0=1
1=1=0=1
1=1=0=1
1=1=0=1
1=1=0=1
1=1=0=1
1=1=0=1
1=1=0=1
1=1=0=1
1=1=0=1
1=1=0=1
1=1=0=1
1=1=0=1
1=1=0=1
1=1=0=1
1=1=0=1
1=1=0=1
1=1=0=1
1=1=0=1
1=1=0=1
1=1=0=1
1=1=0=1
1=1=0=1
1=1=0=1
1=1=0=1
1=1=0=1
1=1=0=1
1=1=0=1
1=1=0=1
1=1=0=1
1=1=0=1
1=1=0=1
1=1=0=1
1=1=0=1
1=1=0=1
1=1=0=1
1=1=0=1
1=1=0=1
1=1=0=1
1=1=0=1
1=1=0=1
1=1=0=1
1=1=0=1
1=1=0=1
1=1=0=1
1=1=0=1
1=1=0=1
1=1=0=1
1=1=0=1
1=1=0=1
1=1=0=1
1=1=0=1
1=1=0=1
1=1=0=1
1=1=0=1
1=1=0=1
1=1=0=1
1=1=0=1
1=1=0=1
1=1=0=1
1=1=0=1
1=1=0=1
1=1=0=1
1=1=0=1
1=1=0=1
1=1=0=1
1=1=0=1
1=1=0=1
1=1=0=1
1=1=0=1
1=1=0=1
1=1=0=1
1=1=0=1
1=1=0=1
1=1=0=1
1=1=0=1
1=1=0=1
1=1=0=1
1=1=0=1
1=1=0=1
1=1=0=1
1=1=0=1
1=1=0=1
1=1=0=1
1=1=0=1
1=1=0=1
1=1=0=1
1=1=0=1
1=1=0=1
1=1=0=1
1=1=0=1
1=1=0=1
1=1=0=1
1=1=0=1
1=1=0=1
1=1=0=1
1=1=0=1
1=1=0=1
1=1=0=1
1=1=0=1
1=1=0=1
1=1=0=1
1=1=0=1
1=1=0=1
1=1=0=1
1=1=0=1
1=1=0=1
1=1=0=1
1=1=0=1
1=1=0=1
1=1=0=1
1=1=0=1
1=1=0=1
1=1=0=1
1=1=0=1
1=1=0=1
1=1=0=1
1=1=0=1
1=1=0=1
1=1=0=1
1=1=0=1
1=1=0=1
1=1=0=1
1=1=0=1
1=1=0=1
1=1=0=1
1=1=0=1
1=1=0=1
1=1=0=1
1=1=0=1
1=1=0=1
1=1=0=1
1=1=0=1
1=1=0=1
1=1=0=1
1=1=0=1
1=1=0=1
1=1=0=1
1=1=0=1
1=1=0=1
1=1=0=1
1=1=0=1
1=1=0=1
1=1=0=1
1=1=0=1
1=1=0=1
1=1=0=1
1=1=0=1
1=1=0=1
1=1=0=1
1=1=0=1
1=1=0=1
1=1=0=1
1=1=0=1
1=1=0=1
1=1=0=1
1=1=0=1
1=1=0=1
1=1=0=1
1=1=0=1
1=1=0=1
1=1=0=1
1=1=0=1
1=1=0=1
1=1=0=1
1=1=0=1
1=1=0=1
1=1=0=1
1=1=0=1
1=1=0=1
1=1=0=1
1=1=0=1
1=1=0=1
1=1=0=1
1=1=0=1
1=1=0=1
1=1=0=1
1=1=0=1
1=1=0=1
1=1=0=1
1=1=0=1
1=1=0=1
1=1=0=1
1=1=0=1
1=1=0=1
1=1=0=1
1=1=0=1
1=1=0=1
1=1=0=1
1=1=0=1
1=1=0=1
1=1=0=1
1=1=0=1
1=1=0=1
1=1=0=1
1=1=0=1
1=1=0=1
1=1=0=1
1=1=0=1
1=1=0=1
1=1=0=1
1=1=0=1
1=1=0=1
1=1=0=1
1=1=0=1
1=1=0=1
1=1=0=1
1=1=0=1
1=1=0=1
1=1=0=1
1=1=0=1
1=1=0=1
1=1=0=1
1=1=0=1
1=1=0=1
1=1=0=1
1=1=0=1
1=1=0=1
1=1=0=1
1=1=0=1
1=1=0=1
1=1=0=1
1=1=0=1
1=1=0=1
1=1=0=1
1=1=0=1
1=1=0=1
1=1=0=1
1=1=0=1
1=1=0=1
1=1=0=1
1=1=0=1
1=1=0=1
1=1=0=1
1=1=0=1
1=1=0=1
1=1=0=1
1=1=0=1
1=1=0=1
1=1=0=1
1=1=0=1
1=1=0=1
1=1=0=1
1=1=0=1
1=1=0=1
1=1=0=1
1=1=0=1
1=1=0=1
1=1=0=1
1=1=0=1
1=1=0=1
1=1=0=1
1=1=0=1
1=1=0=1
1=1=0=1
1=1=0=1
1=1=0=1
1=1=0=1
1=1=0=1
1=1=0=1
1=1=0=1
1=1=0=1
1=1=0=1
1=1=0=1
1=1=0=1
1=1=0=1
1=1=0=1
1=1=0=1
1=1=0=1
1=1=0=1
1=1=0=1
1=1=0=1
1=1=0=1
1=1=0=1
1=1=0=1
1=1=0=1
1=1=0=1
1=1=0=1
1=1=0=1
1=1=0=1
1=1=0=1
1=1=0=1
1=1=0=1
1=1=0=1
1=1=0=1
1=1=0=1
1=1=0=1
1=1=0=1
1=1=0=1
1=1=0=1
1=1=0=1
1=1=0=1
1=1=0=1
1=1=0=1
1=1=0=1
1=1=0=1
1=1=0=1
1=1=0=1
1=1=0=1
1=1=0=1
1=1=0=1
1=1=0=1
1=1=0=1
1=1=0=1
1=1=0=1
1=1=0=1
1=1=0=1
1=1=0=1
1=1=0=1
1=1=0=1
1=1=0=1
1=1=0=1
1=1=0=1
1=1=0=1
1=1=0=1
1=1=0=1
1=1=0=1
1=1=0=1
1=1=0=1
1=1=0=1
1=1=0=1
1=1=0=1
1=1=0=1
1=1=0=1
1=1=0=1
1=1=0=1
1=1=0=1
1=1=0=1
1=1=0=1
1=1=0=1
1=1=0=1
1=1=0=1
1=1=0=1
1=1=0=1
1=1=0=1
1=1=0=1
1=1=0=1
1=1=0=1
1=1=0=1
1=1=0=1
1=1=0=1
1=1=0=1
1=1=0=1
1=1=0=1
1=1=0=1
1=1=0=1
1=1=0=1
1=1=0=1
1=1=0=1
1=1=0=1
1=1=0=1
1=1=0=1
1=1=0=1
1=1=0=1
1=1=0=1
1=1=0=1
1=1=0=1
1=1=0=1
1=1=0=1
1=1=0=1
1=1=0=1
1=1=0=1
1=1=0=1
1=1=0=1
1=1=0=1
1=1=0=1
1=1=0=1
1=1=0=1
1=1=0=1
1=1=0=1
1=1=0=1
1=1=0=1
1=1=0=1
1=1=0=1
1=1=0=1
1=1=0=1
1=1=0=1
1=1=0=1
1=1=0=1
1=1=0=1
1=1=0=1
1=1=0=1
1=1=0=1
1=1=0=1
1=1=0=1
1=1=0=1
1=1=0=1
1=1=0=1
1=1=0=1
1=1=0=1
1=1=0=1
1=1=0=1
1=1=0=1
1=1=0=1
1=1=0=1
1=1=0=1
1=1=0=1
1=1=0=1
1=1=0=1
1=1=0=1
1=1=0=1
1=1=0=1
1=1=0=1
1=1=0=1
1=1=0=1
1=1=0=1
1=1=0=1
1=1=0=1
1=1=0=1
1=1=0=1
1=1=0=1
1=1=0=1
1=1=0=1
1=1=0=1
1=1=0=1
1=1=0=1
1=1=0=1
1=1=0=1
1=1=0=1
1=1=0=1
1=1=0=1
1=1=0=1
1=1=0=1
1=1=0=1
1=1=0=1
1=1=0=1
1=1=0=1
1=1=0=1
1=1=0=1
1=1=0=1
1=1=0=1
1=1=0=1
1=1=0=1
1=1=0=1
1=1=0=1
1=1=0=1
1=1=0=1
1=1=0=1
1=1=0=1
1=1=0=1
1=1=0=1
1=1=0=1
1=1=0=1
1=1=0=1
1=1=0=1
1=1=0=1
1=1=0=1
1=1=0=1
1=1=0=1
1=1=0=1
1=1=0=1
1=1=0=1
1=1=0=1
1=1=0=1
1=1=0=1
1=1=0=1
1=1=0=1
1=1=0=1
1=1=0=1
1=1=0=1
1=1=0=1
1=1=0=1
1=1=0=1
1=1=0=1
1=1=0=1
1=1=0=1
1=1=0=1
1=1=0=1
1=1=0=1
1=1=0=1
1=1=0=1
1=1=0=1
1=1=0=1
1=1=0=1
1=1=0=1
1=1=0=1
1=1=0=1
1=1=0=1
1=1=0=1
1=1=0=1
1=1=0=1
1=1=0=1
1=1=0=1
1=1=0=1
1=1=0=1
1=1=0=1
1=1=0=1
1=1=0=1
1=1=0=1
1=1=0=1
1=1=0=1
1=1=0=1
1=1=0=1
1=1=0=1
1=1=0=1
1=1=0=1
1=1=0=1
1=1=0=1
1=1=0=1
1=1=0=1
1=1=0=1
1=1=0=1
1=1=0=1
1=1=0=1
1=1=0=1
1=1=0=1
1=1=0=1
1=1=0=1
1=1=0=1
1=1=0=1
1=1=0=1
1=1=0=1
1=1=0=1
1=1=0=1
1=1=0=1
1=1=0=1
1=1=0=1
1=1=0=1
1=1=0=1
1=1=0=1
1=1=0=1
1=1=0=1
1=1=0=1
1=1=0=1
1=1=0=1
1=1=0=1
1=1=0=1
1=1=0=1
1=1=0=1
1=1=0=1
1=1=0=1
1=1=0=1
1=1=0=1
1=1=0=1
1=1=0=1
1=1=0=1
1=1=0=1
1=1=0=1
1=1=0=1
1=1=0=1
1=1=0=1
1=1=0=1
1=1=0=1
1=1=0=1
1=1=0=1
1=1=0=1
1=1=0=1
1=1=0=1
1=1=0=1
1=1=0=1
1=1=0=1
1=1=0=1
1=1=0=1
1=1=0=1
1=1=0=1
1=1=0=1
1=1=0=1
1=1=0=1
1=1=0=1
1=1=0=1
1=1=0=1
1=1=0=1
1=1=0=1
1=1=0=1
1=1=0=1
1=1=0=1
1=1=0=1
1=1=0=1
1=1=0=1
1=1=0=1
1=1=0=1
1=1=0=1
1=1=0=1
1=1=0=1
1=1=0=1
1=1=0=1
1=1=0=1
1=1=0=1
1=1=0=1
1=1=0=1
1=1=0=1
1=1=0=1
1=1=0=1
1=1=0=1
1=1=0=1
1=1=0=1
1=1=0=1
1=1=0=1
1=1=0=1
1=1=0=1
1=1=0=1
1=1=0=1
1=1=0=1
1=1=0=1
1=1=0=1
1=1=0=1
1=1=0=1
1=1=0=1
1=1=0=1
1=1=0=1
1=1=0=1
1=1=0=1
1=1=0=1
1=1=0=1
1=1=0=1
1=1=0=1
1=1=0=1
1=1=0=1
1=1=0=1
1=1=0=1
1=1=0=1
1=1=0=1
1=1=0=1
1=1=0=1
1=1=0=1
1=1=0=1
1=1=0=1
1=1=0=1
1=1=0=1
1=1=0=1
1=1=0=1
1=1=0=1
1=1=0=1
1=1=0=1
1=1=0=1
1=1=0=1
1=1=0=1
1=1=0=1
1=1=0=1
1=1=0=1
1=1=0=1
1=1=0=1
1=1=0=1
1=1=0=1
1=1=0=1
1=1=0=1
1=1=0=1
1=1=0=1
1=1=0=1
1=1=0=1
1=1=0=1
1=1=0=1
1=1=0=1
1=1=0=1
1=1=0=1
1=1=0=1
1=1=0=1
1=1=0=1
1=1=0=1
1=1=0=1
1=1=0=1
1=1=0=1
1=1=0=1
1=1=0=1
1=1=0=1
1=1=0=1
1=1=0=1
1=1=0=1
1=1=0=1
1=1=0=1
1=1=0=1
1=1=0=1
1=1=0=1
1=1=0=1
1=1=0=1
1=1=0=1
1=1=0=1
1=1=0=1
1=1=0=1
1=1=0=1
1=1=0=1
1=1=0=1
1=1=0=1
1=1=0=1
1=1=0=1
1=1=0=1
1=1=0=1
1=1=0=1
1=1=0=1
1=1=0=1
1=1=0=1
1=1=0=1
1=1=0=1
1=1=0=1
1=1=0=1
1=1=0=1
1=1=0=1
1=1=0=1
1=1=0=1
1=1=0=1
1=1=0=1
1=1=0=1
1=1=0=1
1=1=0=1
1=1=0=1
1=1=0=1
1=1=0=1
1=1=0=1
1=1=0=1
1=1=0=1
1=1=0=1
1=1=0=1
1=1=0=1
1=1=0=1
1=1=0=1
1=1=0=1
1=1=0=1
1=1=0=1
1=1=0=1
1=1=0=1
1=1=0=1
1=1=0=1
1=1=0=1
1=1=0=1
1=1=0=1
1=1=0=1
1=1=0=1
1=1=0=1
1=1=0=1
1=1=0=1
1=1=0=1
1=1=0=1
1=1=0=1
1=1=0=1
1=1=0=1
1=1=0=1
1=1=0=1
1=1=0=1
1=1=0=1
1=1=0=1
1=1=0=1
1=1=0=1
1=1=0=1
1=1=0=1
1=1=0=1
1=1=0=1
1=1=0=1
1=1=0=1
1=1=0=1
1=1=0=1
1=1=0=1
1=1=0=1
1=1=0=1
1=1=0=1
1=1=0=1
1=1=0=1
1=1=0=1
1=1=0=1
1=1=0=1
1=1=0=1
1=1=0=1
1=1=0=1
1=1=0=1
1=1=0=1
1=1=0=1
1=1=0=1
1=1=0=1
1=1=0=1
1=1=0=1
1=1=0=1
1=1=0=1
1=1=0=1
1=1=0=1
1=1=0=1
1=1=0=1
1=1=0=1
1=1=0=1
1=1=0=1
1=1=0=1
1=1=0=1
1=1=0=1
1=1=0=1
1=1=0=1
1=1=0=1
1=1=0=1
1=1=0=1
1=1=0=1
1=1=0=1
1=1=0=1
1=1=0=1
1=1=0=1
1=1=0=1
1=1=0=1
1=1=0=1
1=1=0=1
1=1=0=1
1=1=0=1
1=1=0=1
1=1=0=1
1=1=0=1
1=1=0=1
1=1=0=1
1=1=0=1
1=1=0=1
1=1=0=1
1=1=0=1
1=1=0=1
1=1=0=1
1=1=0=1
1=1=0=1
1=1=0=1
1=1=0=1
1=1=0=1
1=1=0=1
1=1=0=1
1=1=0=1
1=1=0=1
1=1=0=1
1=1=0=1
1=1=0=1
1=1=0=1
1=1=0=1
1=1=0=1
1=1=0=1
1=1=0=1
1=1=0=1
1=1=0=1
1=1=0=1
1=1=0=1
1=1=0=1
1=1=0=1
1=1=0=1
1=1=0=1
1=1=0=1
1=1=0=1
1=1=0=1
1=1=0=1
1=1=0=1
1=1=0=1
1=1=0=1
1=1=0=1
1=1=0=1
1=1=0=1
1=1=0=1
1=1=0=1
1=1=0=1
1=1=0=1
1=1=0=1
1=1=0=1
1=1=0=1
1=1=0=1
1=1=0=1
1=1=0=1
1=1=0=1
1=1=0=1
1=1=0=1
1=1=0=1
1=1=0=1
1=1=0=1
1=1=0=1
1=1=0=1
1=1=0=1
1=1=0=1
1=1=0=1
1=1=0=1
1=1=0=1
1=1=0=1
1=1=0=1
1=1=0=1
1=1=0=1
1=1=0=1
1=1=0=1
1=1=0=1
1=1=0=1
1=1=0=1
1=1=0=1
1=1=0=1
1=1=0=1
1=1=0=1
1=1=0=1
1=1=0=1
1=1=0=1
1=1=0=1
1=1=0=1
1=1=0=1
1=1=0=1
1=1=0=1
1=1=0=1
1=1=0=1
1=1=0=1
1=1=0=1
1=1=0=1
1=1=0=1
1=1=0=1
1=1=0=1
1=1=0=1
1=1=0=1
1=1=0=1
1=1=0=1
1=1=0=1
1=1=0=1
1=1=0=1
1=1=0=1
1=1=0=1
1=1=0=1
1=1=0=1
1=1=0=1
1=1=0=1
1=1=0=1
1=1=0=1
1=1=0=1
1=1=0=1
1=1=0=1
1=1=0=1
1=1=0=1
1=1=0=1
1=1=0=1
1=1=0=1
1=1=0=1
1=1=0=1
1=1=0=1
1=1=0=1
1=1=0=1
1=1=0=1
1=1=0=1
1=1=0=1
1=1=0=1
1=1=0=1
1=1=0=1
1=1=0=1
1=1=0=1
1=1=0=1
1=1=0=1
1=1=0=1
1=1=0=1
1=1=0=1
1=1=0=1
1=1=0=1
1=1=0=1
1=1=0=1
1=1=0=1
1=1=0=1
1=1=0=1
1=1=0=1
1=1=0=1
1=1=0=1
1=1=0=1
1=1=0=1
1=1=0=1
1=1=0=1
1=1=0=1
1=1=0=1
1=1=0=1
1=1=0=1
1=1=0=1
1=1=0=1
1=1=0=1
1=1=0=1
1=1=0=1
1=1=0=1
1=1=0=1
1=1=0=1
1=1=0=1
1=1=0=1
1=1=0=1
1=1=0=1
1=1=0=1
1=1=0=1
1=1=0=1
1=1=0=1
1=1=0=1
1=1=0=1
1=1=0=1
1=1=0=1
1=1=0=1
1=1=0=1
1=1=0=1
1=1=0=1
1=1=0=1
1=1=0=1
1=1=0=1
1=1=0=1
1=1=0=1
1=1=0=1
1=1=0=1
1=1=0=1
1=1=0=1
1=1=0=1
1=1=0=1
1=1=0=1
1=1=0=1
1=1=0=1
1=1=0=1
1=1=0=1
1=1=0=1
1=1=0=1
1=1=0=1
1=1=0=1
1=1=0=1
1=1=0=1
1=1=0=1
1=1=0=1
1=1=0=1
1=1=0=1
1=1=0=1
1=1=0=1
1=1=0=1
1=1=0=1
1=1=0=1
1=1=0=1
1=1=0=1
1=1=0=1
1=1=0=1
1=1=0=1
1=1=0=1
1=1=0=1
1=1=0=1
1=1=0=1
1=1=0=1
1=1=0=1
1=1=0=1
1=1=0=1
1=1=0=1
1=1=0=1
1=1=0=1
1=1=0=1
1=1=0=1
1=1=0=1
1=1=0=1
1=1=0=1
1=1=0=1
1=1=0=1
1=1=0=1
1=1=0=1
1=1=0=1
1=1=0=1
1=1=0=1
1=1=0=1
1=1=0=1
1=1=0=1
1=1=0=1
1=1=0=1
1=1=0=1
1=1=0=1
1=1=0=1
1=1=0=1
1=1=0=1
1=1=0=1
1=1=0=1
1=1=0=1
1=1=0=1
1=1=0=1
1=1=0=1
1=1=0=1
1=1=0=1
1=1=0=1
1=1=0=1
1=1=0=1
1=1=0=1
1=1=0=1
1=1=0=1
1=1=0=1
1=1=0=1
1=1=0=1
1=1=0=1
1=1=0=1
1=1=0=1
1=1=0=1
1=1=0=1
1=1=0=1
1=1=0=1
1=1=0=1
1=1=0=1
1=1=0=1
1=1=0=1
1=1=0=1
1=1=0=1
1=1=0=1
1=1=0=1
1=1=0=1
1=1=0=1
1=1=0=1
1=1=0=1
1=1=0=1
1=1=0=1
1=1=0=1
1=1=0=1
1=1=0=1
1=1=0=1
1=1=0=1
1=1=0=1
1=1=0=1
1=1=0=1
1=1=0=1
1=1=0=1
1=1=0=1
1=1=0=1
1=1=0=1
1=1=0=1
1=1=0=1
1=1=0=1
1=1=0=1
1=1=0=1
1=1=0=1
1=1=0=1
1=1=0=1
1=1=0=1
1=1=0=1
1=1=0=1
1=1=0=1
1=1=0=1
1=1=0=1
1=1=0=1
1=1=0=1
1=1=0=1
1=1=0=1
1=1=0=1
1=1=0=1
1=1=0=1
1=1=0=1
1=1=0=1
1=1=0=1
1=1=0=1
1=1=0=1
1=1=0=1
1=1=0=1
1=1=0=1
1=1=0=1
1=1=0=1
1=1=0=1
1=1=0=1
1=1=0=1
1=1=0=1
1=1=0=1
1=1=0=1
1=1=0=1
1=1=0=1
1=1=0=1
1=1=0=1
1=1=0=1
1=1=0=1
1=1=0=1
1=1=0=1
1=1=0=1
1=1=0=1
1=1=0=1
1=1=0=1
1=1=0=1
1=1=0=1
1=1=0=1
1=1=0=1
1=1=0=1
1=1=0=1
1=1=0=1
1=1=0=1
1=1=0=1
1=1=0=1
1=1=0=1
1=1=0=1
1=1=0=1
1=1=0=1
1=1=0=1
1=1=0=1
1=1=0=1
1=1=0=1
1=1=0=1
1=1=0=1
1=1=0=1
1=1=0=1
1=1=0=1
1=1=0=1
1=1=0=1
1=1=0=1
1=1=0=1
1=1=0=1
1=1=0=1
1=1=0=1
1=1=0=1
1=1=0=1
1=1=0=1
1=1=0=1
1=1=0=1
1=1=0=1
1=1=0=1
1=1=0=1
1=1=0=1
1=1=0=1
1=1=0=1
1=1=0=1
1=1=0=1
1=1=0=1
1=1=0=1
1=1=0=1
1=1=0=1
1=1=0=1
1=1=0=1
1=1=0=1
1=1=0=1
1=1=0=1
1=1=0=1
1=1=0=1
1=1=0=1
1=1=0=1
1=1=0=1
1=1=0=1
1=1=0=1
1=1=0=1
1=1=0=1
1=1=0=1
1=1=0=1
1=1=0=1
1=1=0=1
1=1=0=1
1=1=0=1
1=1=0=1
1=1=0=1
1=1=0=1
1=1=0=1
1=1=0=1
1=1=0=1
1=1=0=1
1=1=0=1
1=1=0=1
1=1=0=1
1=1=0=1
1=1=0=1
1=1=0=1
1=1=0=1
1=1=0=1
1=1=0=1
1=1=0=1
1=1=0=1
1=1=0=1
1=1=0=1
1=1=0=1
1=1=0=1
1=1=0=1
1=1=0=1
1=1=0=1
1=1=0=1
1=1=0=1
1=1=0=1
1=1=0=1
1=1=0=1
1=1=0=1
1=1=0=1
1=1=0=1
1=1=0=1
1=1=0=1
1=1=0=1
1=1=0=1
1=1=0=1
1=1=0=1
1=1=0=1
1=1=0=1
1=1=0=1
1=1=0=1
1=1=0=1
1=1=0=1
1=1=0=1
1=1=0=1
1=1=0=1
1=1=0=1
1=1=0=1
1=1=0=1
1=1=0=1
1=1=0=1
1=1=0=1
1=1=0=1
1=1=0=1
1=1=0=1
1=1=0=1
1=1=0=1
1=1=0=1
1=1=0=1
1=1=0=1
1=1=0=1
1=1=0=1
1=1=0=1
1=1=0=1
1=1=0=1
1=1=0=1
1=1=0=1
1=1=0=1
1=1=0=1
1=1=0=1
1=1=0=1
1=1=0=1
1=1=0=1
1=1=0=1
1=1=0=1
1=1=0=1
1=1=0=1
1=1=0=1
1=1=0=1
1=1=0=1
1=1=0=1
1=1=0=1
1=1=0=1
1=1=0=1
1=1=0=1
1=1=0=1
1=1=0=1
1=1=0=1
1=1=0=1
1=1=0=1
1=1=0=1
1=1=0=1
1=1=0=1
1=1=0=1
1=1=0=1
1=1=0=1
1=1=0=1
1=1=0=1
1=1=0=1
1=1=0=1
1=1=0=1
1=1=0=1
1=1=0=1
1=1=0=1
1=1=0=1
1=1=0=1
1=1=0=1
1=1=0=1
1=1=0=1
1=1=0=1
1=1=0=1
1=1=0=1
1=1=0=1
1=1=0=1
1=1=0=1
1=1=0=1
1=1=0=1
1=1=0=1
1=1=0=1
1=1=0=1
1=1=0=1
1=1=0=1
1=1=0=1
1=1=0=1
1=1=0=1
1=1=0=1
1=1=0=1
1=1=0=1
1=1=0=1
1=1=0=1
1=1=0=1
1=1=0=1
1=1=0=1
1=1=0=1
1=1=0=1
1=1=0=1
1=1=0=1
1=1=0=1
1=1=0=1
1=1=0=1
1=1=0=1
1=1=0=1
1=1=0=1
1=1=0=1
1=1=0=1
1=1=0=1
1=1=0=1
1=1=0=1
1=1=0=1
1=1=0=1
1=1=0=1
1=1=0=1
1=1=0=1
1=1=0=1
1=1=0=1
1=1=0=1
1=1=0=1
1=1=0=1
1=1=0=1
1=1=0=1
1=1=0=1
1=1=0=1
1=1=0=1
1=1=0=1
1=1=0=1
1=1=0=1
1=1=0=1
1=1=0=1
1=1=0=1
1=1=0=1
1=1=0=1
1=1=0=1
1=1=0=1
1=1=0=1
1=1=0=1
1=1=0=1
1=1=0=1
1=1=0=1
1=1=0=1
1=1=0=1
1=1=0=1
1=1=0=1
1=1=0=1
1=1=0=1
1=1=0=1
1=1=0=1
1=1=0=1
1=1=0=1
1=1=0=1
1=1=0=1
1=1=0=1
1=1=0=1
1=1=0=1
1=1=0=1
1=1=0=1
1=1=0=1
1=1=0=1
1=1=0=1
1=1=0=1
1=1=0=1
1=1=0=1
1=1=0=1
1=1=0=1
1=1=0=1
1=1=0=1
1=1=0=1
1=1=0=1
1=1=0=1
1=1=0=1
1=1=0=1
1=1=0=1
1=1=0=1
1=1=0=1
1=1=0=1
1=1=0=1
1=1=0=1
1=1=0=1
1=1=0=1
1=1=0=1
1=1=0=1
1=1=0=1
1=1=0=1
1=1=0=1
1=1=0=1
1=1=0=1
1=1=0=1
1=1=0=1
1=1=0=1
1=1=0=1
1=1=0=1
1=1=0=1
1=1=0=1
1=1=0=1
1=1=0=1
1=1=0=1
1=1=0=1
1=1=0=1
1=1=0=1
1=1=0=1
1=1=0=1
1=1=0=1
1=1=0=1
1=1=0=1
1=1=0=1
1=1=0=1
1=1=0=1
1=1=0=1
1=1=0=1
1=1=0=1
1=1=0=1
1=1=0=1
1=1=0=1
1=1=0=1
1=1=0=1
1=1=0=1
1=1=0=1
1=1=0=1
1=1=0=1
1=1=0=1
1=1=0=1
1=1=0=1
1=1=0=1
1=1=0=1
1=1=0=1
1=1=0=1
1=1=0=1
1=1=0=1
1=1=0=1
1=1=0=1
1=1=0=1
1=1=0=1
1=1=0=1
1=1=0=1
1=1=0=1
1=1=0=1
1=1=0=1
1=1=0=1
1=1=0=1
1=1=0=1
1=1=0=1
1=1=0=1
1=1=0=1
1=1=0=1
1=1=0=1
1=1=0=1
1=1=0=1
1=1=0=1
1=1=0=1
1=1=0=1
1=1=0=1
1=1=0=1
1=1=0=1
1=1=0=1
1=1=0=1
1=1=0=1
1=1=0=1
1=1=0=1
1=1=0=1
1=1=0=1
1=1=0=1
1=1=0=1
1=1=0=1
1=1=0=1
1=1=0=1
1=1=0=1
1=1=0=1
1=1=0=1
1=1=0=1
1=1=0=1
1=1=0=1
1=1=0=1
1=1=0=1
1=1=0=1
1=1=0=1
1=1=0=1
1=1=0=1
1=1=0=1
1=1=0=1
1=1=0=1
1=1=0=1
1=1=0=1
1=1=0=1
1=1=0=1
1=1=0=1
1=1=0=1
1=1=0=1
1=1=0=1
1=1=0=1
1=1=0=1
1=1=0=1
1=1=0=1
1=1=0=1
1=1=0=1
1=1=0=1
1=1=0=1
1=1=0=1
1=1=0=1
1=1=0=1
1=1=0=1
1=1=0=1
1=1=0=1
1=1=0=1
1=1=0=1
1=1=0=1
1=1=0=1
1=1=0=1
1=1=0=1
1=1=0=1
1=1=0=1
1=1=0=1
1=1=0=1
1=1=0=1
1=1=0=1
1=1=0=1
1=1=0=1
1=1=0=1
1=1=0=1
1=1=0=1
1=1=0=1
1=1=0=1
1=1=0=1
1=1=0=1
1=1=0=1
1=1=0=1
1=1=0=1
1=1=0=1
1=1=0=1
1=1=0=1
1=1=0=1
1=1=0=1
1=1=0=1
1=1=0=1
1=1=0=1
1=1=0=1
1=1=0=1
1=1=0=1
1=1=0=1
1=1=0=1
1=1=0=1
1=1=0=1
1=1=0=1
1=1=0=1
1=1=0=1
1=1=0=1
1=1=0=1
1=1=0=1
1=1=0=1
1=1=0=1
1=1=0=1
1=1=0=1
1=1=0=1
1=1=0=1
1=1=0=1
1=1=0=1
1=1=0=1
1=1=0=1
1=1=0=1
1=1=0=1
1=1=0=1
1=1=0=1
1=1=0=1
1=1=0=1
1=1=0=1
1=1=0=1
1=1=0=1
1=1=0=1
1=1=0=1
1=1=0=1
1=1=0=1
1=1=0=1
1=1=0=1
1=1=0=1
1=1=0=1
1=1=0=1
1=1=0=1
1=1=0=1
1=1=0=1
1=1=0=1
1=1=0=1
1=1=0=1
1=1=0=1
1=1=0=1
1=1=0=1
1=1=0=1
1=1=0=1
1=1=0=1
1=1=0=1
1=1=0=1
1=1=0=1
1=1=0=1
1=1=0=1
1=1=0=1
1=1=0=1
1=1=0=1
1=1=0=1
1=1=0=1
1=1=0=1
1=1=0=1
1=1=0=1
1=1=0=1
1=1=0=1
1=1=0=1
1=1=0=1
1=1=0=1
1=1=0=1
1=1=0=1
1=1=0=1
1=1=0=1
1=1=0=1
1=1=0=1
1=1=0=1
1=1=0=1
1=1=0=1
1=1=0=1
1=1=0=1
1=1=0=1
1=1=0=1
1=1=0=1
1=1=0=1
1=1=0=1
1=1=0=1
1=1=0=1
1=1=0=1
1=1=0=1
1=1=0=1
1=1=0=1
1=1=0=1
1=1=0=1
1=1=0=1
1=1=0=1
1=1=0=1
