49,16,48,10
48,16,47,10
46,16,45,10
45,16,44,10
44,16,43,10
43,16,42,10
42,16,41,10
41,16,40,10
40,16,39,10
39,16,38,10
38,16,37,10
37,16,36,10
36,16,35,10
35,16,34,10
34,16,33,10
33,16,32,10
32,16,31,10
31,16,30,10
30,16,29,10
48,9,49,13
47,9,48,13
45,9,46,13
44,9,45,13
43,9,44,13
42,9,43,13
41,9,42,13
40,9,41,13
39,9,40,13
38,9,39,13
37,9,38,13
36,9,37,13
35,9,36,13
34,9,35,13
33,9,34,13
32,9,33,13
31,9,32,13
30,9,31,13
29,9,30,13
49,12,48,15
48,12,47,15
47,12,46,15
46,12,45,15
45,12,44,15
44,12,43,15
43,12,42,15
42,12,41,15
41,12,40,15
40,12,39,15
39,12,38,15
38,12,37,15
37,12,36,15
36,12,35,15
35,12,34,15
34,12,33,15
33,12,32,15
32,12,31,15
31,12,30,15
30,12,50,1
27,5,25,6
22,5,24,5
25,5,22,13
28,13,25,13
24,13,22,10
26,13,27,10
15,16,7,13
17,15,6,13
16,14,5,13
18,13,4,13
7,14,7,16
6,14,7,18
5,14,5,16
4,14,5,18
7,17,5,20
5,17,7,20
6,20,27,17
7,12,9,16
16,16,10,16
17,16,11,16
18,16,12,16
15,15,9,15
16,15,10,15
6,12,11,15
18,15,12,15
15,14,9,14
5,12,10,14
17,14,11,14
18,14,12,14
15,13,9,13
16,13,10,13
17,13,11,13
4,12,12,13
7,22,9,21
6,22,11,20
5,22,10,19
4,22,12,18
47,16,47,13
46,9,46,8
20,33,23,20
28,33,25,20
24,20,24,33
