1=1=0=1
1=1=0=1
1=1=0=1
1=1=0=1
1=1=0=1
1=1=0=1
1=1=0=1
1=1=0=1
1=1=0=1
1=1=0=1
1=1=0=1
1=1=0=1
1=1=0=1
1=1=0=1
1=1=0=1
1=1=0=1
1=1=0=1
1=1=0=1
1=1=0=1
1=1=0=1
1=1=0=1
1=1=0=1
1=1=0=1
1=1=0=1
1=1=0=1
1=1=0=1
1=1=0=1
1=1=0=1
1=1=0=1
1=1=0=1
1=1=0=1
1=1=0=1
1=1=0=1
1=1=0=1
1=1=0=1
1=1=0=1
1=1=0=1
1=1=0=1
1=1=0=1
1=1=0=1
1=1=0=1
1=1=0=1
1=1=0=1
1=1=0=1
1=1=0=1
1=1=0=1
1=1=0=1
1=1=0=1
1=1=0=1
1=1=0=1
1=1=0=1
1=1=0=1
1=1=0=1
1=1=0=1
1=1=0=1
1=1=0=1
1=1=0=1
1=1=0=1
1=1=0=1
1=1=0=1
1=1=0=1
1=1=0=1
1=1=0=1
1=1=0=1
1=1=0=1
1=1=0=1
1=1=0=1
1=1=0=1
1=1=0=1
1=1=0=1
1=1=0=1
1=1=0=1
1=1=0=1
1=1=0=1
1=1=0=1
1=1=0=1
1=1=0=1
1=1=0=1
1=1=0=1
1=1=0=1
1=1=0=1
1=1=0=1
1=1=0=1
1=1=0=1
1=1=0=1
1=1=0=1
1=1=0=1
1=1=0=1
1=1=0=1
1=1=0=1
1=1=0=1
1=1=0=1
1=1=0=1
1=1=0=1
1=1=0=1
1=1=0=1
1=1=0=1
1=1=0=1
1=1=0=1
1=1=0=1
1=1=0=1
1=1=0=1
1=1=0=1
1=1=0=1
1=1=0=1
1=1=0=1
1=1=0=1
1=1=0=1
1=1=0=1
1=1=0=1
1=1=0=1
1=1=0=1
1=1=0=1
1=1=0=1
1=1=0=1
1=1=0=1
1=1=0=1
1=1=0=1
1=1=0=1
1=1=0=1
1=1=0=1
1=1=0=1
1=1=0=1
1=1=0=1
1=1=0=1
1=1=0=1
1=1=0=1
1=1=0=1
1=1=0=1
1=1=0=1
1=1=0=1
1=1=0=1
1=1=0=1
1=1=0=1
1=1=0=1
1=1=0=1
1=1=0=1
1=1=0=1
1=1=0=1
1=1=0=1
1=1=0=1
1=1=0=1
1=1=0=1
1=1=0=1
1=1=0=1
1=1=0=1
1=1=0=1
1=1=0=1
1=1=0=1
1=1=0=1
1=1=0=1
1=1=0=1
1=1=0=1
1=1=0=1
1=1=0=1
1=1=0=1
1=1=0=1
1=1=0=1
1=1=0=1
1=1=0=1
1=1=0=1
1=1=0=1
1=1=0=1
1=1=0=1
1=1=0=1
1=1=0=1
1=1=0=1
1=1=0=1
1=1=0=1
1=1=0=1
1=1=0=1
1=1=0=1
1=1=0=1
1=1=0=1
1=1=0=1
1=1=0=1
1=1=0=1
1=1=0=1
1=1=0=1
1=1=0=1
1=1=0=1
1=1=0=1
1=1=0=1
1=1=0=1
1=1=0=1
1=1=0=1
1=1=0=1
1=1=0=1
1=1=0=1
1=1=0=1
1=1=0=1
1=1=0=1
1=1=0=1
1=1=0=1
1=1=0=1
1=1=0=1
1=1=0=1
1=1=0=1
1=1=0=1
1=1=0=1
1=1=0=1
1=1=0=1
1=1=0=1
1=1=0=1
1=1=0=1
1=1=0=1
1=1=0=1
1=1=0=1
1=1=0=1
1=1=0=1
1=1=0=1
1=1=0=1
1=1=0=1
1=1=0=1
1=1=0=1
1=1=0=1
1=1=0=1
1=1=0=1
1=1=0=1
1=1=0=1
1=1=0=1
1=1=0=1
1=1=0=1
1=1=0=1
1=1=0=1
1=1=0=1
1=1=0=1
1=1=0=1
1=1=0=1
1=1=0=1
1=1=0=1
1=1=0=1
1=1=0=1
1=1=0=1
1=1=0=1
1=1=0=1
1=1=0=1
1=1=0=1
1=1=0=1
1=1=0=1
1=1=0=1
1=1=0=1
1=1=0=1
1=1=0=1
1=1=0=1
1=1=0=1
1=1=0=1
1=1=0=1
1=1=0=1
1=1=0=1
1=1=0=1
1=1=0=1
1=1=0=1
1=1=0=1
1=1=0=1
1=1=0=1
1=1=0=1
1=1=0=1
1=1=0=1
1=1=0=1
1=1=0=1
1=1=0=1
1=1=0=1
1=1=0=1
1=1=0=1
1=1=0=1
1=1=0=1
1=1=0=1
1=1=0=1
1=1=0=1
1=1=0=1
1=1=0=1
1=1=0=1
1=1=0=1
4=1=0=0
4=1=0=0
4=1=0=0
4=1=0=0
4=1=0=0
4=1=0=0
4=1=0=0
4=1=0=0
4=1=0=0
4=1=0=0
1=1=0=1
1=1=0=1
1=1=0=1
1=1=0=1
1=1=0=1
1=1=0=1
1=1=0=1
1=1=0=1
1=1=0=1
1=1=0=1
1=1=0=1
1=1=0=1
1=1=0=1
1=1=0=1
1=1=0=1
1=1=0=1
1=1=0=1
1=1=0=1
1=1=0=1
1=1=0=1
1=1=0=1
1=1=0=1
1=1=0=1
1=1=0=1
1=1=0=1
1=1=0=1
1=1=0=1
1=1=0=1
1=1=0=1
1=1=0=1
1=1=0=1
1=1=0=1
1=1=0=1
1=1=0=1
1=1=0=1
1=1=0=1
1=1=0=1
1=1=0=1
1=1=0=1
1=1=0=1
1=1=0=1
1=1=0=1
1=1=0=1
1=1=0=1
1=1=0=1
1=1=0=1
1=1=0=1
1=1=0=1
1=1=0=1
1=1=0=1
4=1=0=0
4=1=0=0
4=1=0=0
4=1=0=0
4=1=0=0
4=1=0=0
4=1=0=0
4=1=0=0
4=1=0=0
4=1=0=0
1=1=0=1
1=1=0=1
1=1=0=1
1=1=0=1
1=1=0=1
1=1=0=1
1=1=0=1
1=1=0=1
1=1=0=1
1=1=0=1
1=1=0=1
1=1=0=1
1=1=0=1
1=1=0=1
1=1=0=1
1=1=0=1
1=1=0=1
1=1=0=1
1=1=0=1
1=1=0=1
1=1=0=1
1=1=0=1
1=1=0=1
1=1=0=1
1=1=0=1
1=1=0=1
1=1=0=1
1=1=0=1
1=1=0=1
1=1=0=1
1=1=0=1
1=1=0=1
1=1=0=1
1=1=0=1
1=1=0=1
1=1=0=1
1=1=0=1
1=1=0=1
1=1=0=1
1=1=0=1
1=1=0=1
1=1=0=1
1=1=0=1
1=1=0=1
1=1=0=1
1=1=0=1
1=1=0=1
1=1=0=1
1=1=0=1
1=1=0=1
4=1=0=0
4=1=0=0
4=1=0=0
4=1=0=0
4=1=0=0
4=1=0=0
4=1=0=0
4=1=0=0
4=1=0=0
4=1=0=0
1=1=0=1
1=1=0=1
1=1=0=1
1=1=0=1
1=1=0=1
1=1=0=1
1=1=0=1
1=1=0=1
1=1=0=1
1=1=0=1
1=1=0=1
1=1=0=1
1=1=0=1
1=1=0=1
1=1=0=1
1=1=0=1
1=1=0=1
1=1=0=1
1=1=0=1
1=1=0=1
1=1=0=1
1=1=0=1
1=1=0=1
1=1=0=1
1=1=0=1
1=1=0=1
1=1=0=1
1=1=0=1
1=1=0=1
1=1=0=1
1=1=0=1
1=1=0=1
1=1=0=1
1=1=0=1
1=1=0=1
1=1=0=1
1=1=0=1
1=1=0=1
1=1=0=1
1=1=0=1
1=1=0=1
1=1=0=1
1=1=0=1
1=1=0=1
1=1=0=1
1=1=0=1
1=1=0=1
1=1=0=1
1=1=0=1
1=1=0=1
4=1=0=0
4=1=0=0
4=1=0=0
4=1=0=0
4=1=0=0
4=1=0=0
4=1=0=0
4=1=0=0
4=1=0=0
4=1=0=0
1=1=0=1
1=1=0=1
1=1=0=1
1=1=0=1
1=1=0=1
1=1=0=1
1=1=0=1
1=1=0=1
1=1=0=1
1=1=0=1
1=1=0=1
1=1=0=1
1=1=0=1
1=1=0=1
1=1=0=1
1=1=0=1
1=1=0=1
1=1=0=1
1=1=0=1
1=1=0=1
1=1=0=1
1=1=0=1
1=1=0=1
1=1=0=1
1=1=0=1
1=1=0=1
1=1=0=1
1=1=0=1
1=1=0=1
1=1=0=1
1=1=0=1
1=1=0=1
1=1=0=1
1=1=0=1
1=1=0=1
1=1=0=1
1=1=0=1
1=1=0=1
1=1=0=1
1=1=0=1
1=1=0=1
1=1=0=1
1=1=0=1
1=1=0=1
1=1=0=1
1=1=0=1
1=1=0=1
1=1=0=1
1=1=0=1
1=1=0=1
4=1=0=0
4=1=0=0
4=1=0=0
4=1=0=0
4=1=0=0/38=7=0=11
4=1=0=0
4=1=0=0
4=1=0=0
4=1=0=0
4=1=0=0
1=1=0=1
1=1=0=1
1=1=0=1
1=1=0=1
1=1=0=1
1=1=0=1
1=1=0=1
1=1=0=1
1=1=0=1
1=1=0=1
1=1=0=1
1=1=0=1
1=1=0=1
1=1=0=1
1=1=0=1
1=1=0=1
1=1=0=1
1=1=0=1
1=1=0=1
1=1=0=1
1=1=0=1
1=1=0=1
1=1=0=1
1=1=0=1
1=1=0=1
1=1=0=1
1=1=0=1
1=1=0=1
1=1=0=1
1=1=0=1
1=1=0=1
1=1=0=1
1=1=0=1
1=1=0=1
1=1=0=1
1=1=0=1
1=1=0=1
1=1=0=1
1=1=0=1
1=1=0=1
1=1=0=1
1=1=0=1
1=1=0=1
1=1=0=1
1=1=0=1
1=1=0=1
1=1=0=1
1=1=0=1
1=1=0=1
1=1=0=1
4=1=0=0
4=1=0=0
4=1=0=0
4=1=0=0/30=5=0=4
4=1=0=0/45=2=0=20
4=1=0=0/41=3=0=14/29=5=0=3
4=1=0=0
4=1=0=0/32=2=0=5
4=1=0=0
4=1=0=0
1=1=0=1
1=1=0=1
1=1=0=1
1=1=0=1
1=1=0=1
1=1=0=1
1=1=0=1
1=1=0=1
1=1=0=1
1=1=0=1
1=1=0=1
1=1=0=1
1=1=0=1
1=1=0=1
1=1=0=1
1=1=0=1
1=1=0=1
1=1=0=1
1=1=0=1
1=1=0=1
1=1=0=1
1=1=0=1
1=1=0=1
1=1=0=1
1=1=0=1
1=1=0=1
1=1=0=1
1=1=0=1
1=1=0=1
1=1=0=1
1=1=0=1
1=1=0=1
1=1=0=1
1=1=0=1
1=1=0=1
1=1=0=1
1=1=0=1
1=1=0=1
1=1=0=1
1=1=0=1
1=1=0=1
1=1=0=1
1=1=0=1
1=1=0=1
1=1=0=1
1=1=0=1
1=1=0=1
1=1=0=1
1=1=0=1
1=1=0=1
4=1=0=0
4=1=0=0
4=1=0=0
4=1=0=0
4=1=0=0
4=1=0=0
4=1=0=0
4=1=0=0
4=1=0=0
4=1=0=0
1=1=0=1
1=1=0=1
1=1=0=1
1=1=0=1
1=1=0=1
1=1=0=1
1=1=0=1
1=1=0=1
1=1=0=1
1=1=0=1
1=1=0=1
1=1=0=1
1=1=0=1
1=1=0=1
1=1=0=1
1=1=0=1
1=1=0=1
1=1=0=1
1=1=0=1
1=1=0=1
1=1=0=1
1=1=0=1
1=1=0=1
1=1=0=1
1=1=0=1
1=1=0=1
1=1=0=1
1=1=0=1
1=1=0=1
1=1=0=1
1=1=0=1
1=1=0=1
1=1=0=1
1=1=0=1
1=1=0=1
1=1=0=1
1=1=0=1
1=1=0=1
1=1=0=1
1=1=0=1
1=1=0=1
1=1=0=1
1=1=0=1
1=1=0=1
1=1=0=1
1=1=0=1
1=1=0=1
1=1=0=1
1=1=0=1
1=1=0=1
4=1=0=0
4=1=0=0
4=1=0=0
4=1=0=0
4=1=0=0
4=1=0=0
4=1=0=0
4=1=0=0
4=1=0=0
4=1=0=0
1=1=0=1
1=1=0=1
1=1=0=1
1=1=0=1
1=1=0=1
1=1=0=1
1=1=0=1
1=1=0=1
1=1=0=1
1=1=0=1
1=1=0=1
1=1=0=1
1=1=0=1
1=1=0=1
1=1=0=1
1=1=0=1
1=1=0=1
1=1=0=1
1=1=0=1
1=1=0=1
1=1=0=1
1=1=0=1
1=1=0=1
1=1=0=1
1=1=0=1
1=1=0=1
1=1=0=1
1=1=0=1
1=1=0=1
1=1=0=1
1=1=0=1
1=1=0=1
1=1=0=1
1=1=0=1
1=1=0=1
1=1=0=1
1=1=0=1
1=1=0=1
1=1=0=1
1=1=0=1
1=1=0=1
1=1=0=1
1=1=0=1
1=1=0=1
1=1=0=1
1=1=0=1
1=1=0=1
1=1=0=1
1=1=0=1
1=1=0=1
4=1=0=0
4=1=0=0
4=1=0=0
4=1=0=0
4=1=0=0
4=1=0=0
4=1=0=0
4=1=0=0
4=1=0=0
4=1=0=0
1=1=0=1
1=1=0=1
1=1=0=1
1=1=0=1
1=1=0=1
1=1=0=1
1=1=0=1
1=1=0=1
1=1=0=1
1=1=0=1
1=1=0=1
1=1=0=1
1=1=0=1
1=1=0=1
1=1=0=1
1=1=0=1
1=1=0=1
1=1=0=1
1=1=0=1
1=1=0=1
1=1=0=1
1=1=0=1
1=1=0=1
1=1=0=1
1=1=0=1
1=1=0=1
1=1=0=1
1=1=0=1
1=1=0=1
1=1=0=1
1=1=0=1
1=1=0=1
1=1=0=1
1=1=0=1
1=1=0=1
1=1=0=1
1=1=0=1
1=1=0=1
1=1=0=1
1=1=0=1
1=1=0=1
1=1=0=1
1=1=0=1
1=1=0=1
1=1=0=1
1=1=0=1
1=1=0=1
1=1=0=1
1=1=0=1
1=1=0=1
4=1=0=0
4=1=0=0
4=1=0=0
4=1=0=0
4=1=0=0/55=8=0=31
4=1=0=0
4=1=0=0
4=1=0=0
4=1=0=0
4=1=0=0
1=1=0=1
1=1=0=1
1=1=0=1
1=1=0=1
1=1=0=1
1=1=0=1
1=1=0=1
1=1=0=1
1=1=0=1
1=1=0=1
1=1=0=1
1=1=0=1
1=1=0=1
1=1=0=1
1=1=0=1
1=1=0=1
1=1=0=1
1=1=0=1
1=1=0=1
1=1=0=1
1=1=0=1
1=1=0=1
1=1=0=1
1=1=0=1
1=1=0=1
1=1=0=1
1=1=0=1
1=1=0=1
1=1=0=1
1=1=0=1
1=1=0=1
1=1=0=1
1=1=0=1
1=1=0=1
1=1=0=1
1=1=0=1
1=1=0=1
1=1=0=1
1=1=0=1
1=1=0=1
1=1=0=1
1=1=0=1
1=1=0=1
1=1=0=1
1=1=0=1
1=1=0=1
1=1=0=1
1=1=0=1
1=1=0=1
1=1=0=1
22=1=0=1
22=1=0=1
22=1=0=1
22=1=0=1
22=1=0=1
22=1=0=1
22=1=0=1
4=1=0=0/25=2=0=16/54=3=0=30
22=1=0=1
22=1=0=1
1=1=0=1
1=1=0=1
1=1=0=1
1=1=0=1
1=1=0=1
1=1=0=1
1=1=0=1
1=1=0=1
1=1=0=1
1=1=0=1
1=1=0=1
1=1=0=1
1=1=0=1
1=1=0=1
1=1=0=1
1=1=0=1
1=1=0=1
1=1=0=1
1=1=0=1
1=1=0=1
1=1=0=1
1=1=0=1
1=1=0=1
1=1=0=1
1=1=0=1
1=1=0=1
1=1=0=1
1=1=0=1
1=1=0=1
1=1=0=1
1=1=0=1
1=1=0=1
1=1=0=1
1=1=0=1
1=1=0=1
1=1=0=1
1=1=0=1
1=1=0=1
1=1=0=1
1=1=0=1
1=1=0=1
1=1=0=1
1=1=0=1
1=1=0=1
1=1=0=1
1=1=0=1
1=1=0=1
1=1=0=1
1=1=0=1
1=1=0=1
1=1=0=1
1=1=0=1
1=1=0=1
1=1=0=1
1=1=0=1
1=1=0=1
1=1=0=1
42=1=0=17/39=7=0=12
1=1=0=1
1=1=0=1
1=1=0=1
1=1=0=1
1=1=0=1
1=1=0=1
1=1=0=1
1=1=0=1
1=1=0=1
1=1=0=1
1=1=0=1
1=1=0=1
1=1=0=1
1=1=0=1
1=1=0=1
1=1=0=1
1=1=0=1
1=1=0=1
1=1=0=1
1=1=0=1
1=1=0=1
1=1=0=1
1=1=0=1
1=1=0=1
1=1=0=1
1=1=0=1
1=1=0=1
1=1=0=1
1=1=0=1
1=1=0=1
1=1=0=1
1=1=0=1
1=1=0=1
1=1=0=1
1=1=0=1
1=1=0=1
1=1=0=1
1=1=0=1
1=1=0=1
1=1=0=1
1=1=0=1
1=1=0=1
1=1=0=1
1=1=0=1
1=1=0=1
1=1=0=1
1=1=0=1
1=1=0=1
1=1=0=1
1=1=0=1
1=1=0=1
1=1=0=1
1=1=0=1
1=1=0=1
1=1=0=1
1=1=0=1
1=1=0=1
1=1=0=1
1=1=0=1
1=1=0=1
1=1=0=1
1=1=0=1
1=1=0=1
1=1=0=1
1=1=0=1
1=1=0=1
1=1=0=1
1=1=0=1
1=1=0=1
1=1=0=1
1=1=0=1
1=1=0=1
1=1=0=1
1=1=0=1
1=1=0=1
1=1=0=1
1=1=0=1
1=1=0=1
1=1=0=1
1=1=0=1
1=1=0=1
1=1=0=1
1=1=0=1
1=1=0=1
1=1=0=1
1=1=0=1
1=1=0=1
1=1=0=1
1=1=0=1
1=1=0=1
1=1=0=1
1=1=0=1
1=1=0=1
1=1=0=1
1=1=0=1
1=1=0=1
1=1=0=1
1=1=0=1
1=1=0=1
1=1=0=1
1=1=0=1
1=1=0=1
1=1=0=1
1=1=0=1
1=1=0=1
1=1=0=1
1=1=0=1
1=1=0=1
1=1=0=1
1=1=0=1
1=1=0=1
1=1=0=1
1=1=0=1
1=1=0=1
1=1=0=1
1=1=0=1
1=1=0=1
1=1=0=1
1=1=0=1
1=1=0=1
1=1=0=1
1=1=0=1
1=1=0=1
1=1=0=1
1=1=0=1
1=1=0=1
1=1=0=1
1=1=0=1
1=1=0=1
1=1=0=1
1=1=0=1
1=1=0=1
1=1=0=1
1=1=0=1
1=1=0=1
1=1=0=1
1=1=0=1
1=1=0=1
1=1=0=1
1=1=0=1
1=1=0=1
1=1=0=1
1=1=0=1
1=1=0=1
1=1=0=1
1=1=0=1
1=1=0=1
1=1=0=1
1=1=0=1
1=1=0=1
1=1=0=1
1=1=0=1
1=1=0=1
1=1=0=1
1=1=0=1
1=1=0=1
1=1=0=1
1=1=0=1
1=1=0=1
1=1=0=1
1=1=0=1
1=1=0=1
1=1=0=1
1=1=0=1
1=1=0=1
1=1=0=1
1=1=0=1
1=1=0=1
1=1=0=1
1=1=0=1
1=1=0=1
1=1=0=1
1=1=0=1
1=1=0=1
1=1=0=1
1=1=0=1
1=1=0=1
1=1=0=1
1=1=0=1
1=1=0=1
1=1=0=1
1=1=0=1
1=1=0=1
1=1=0=1
1=1=0=1
1=1=0=1
1=1=0=1
1=1=0=1
1=1=0=1
1=1=0=1
1=1=0=1
1=1=0=1
1=1=0=1
1=1=0=1
1=1=0=1
1=1=0=1
1=1=0=1
1=1=0=1
1=1=0=1
1=1=0=1
1=1=0=1
1=1=0=1
1=1=0=1
1=1=0=1
1=1=0=1
1=1=0=1
1=1=0=1
1=1=0=1
1=1=0=1
1=1=0=1
1=1=0=1
1=1=0=1
1=1=0=1
1=1=0=1
1=1=0=1
1=1=0=1
1=1=0=1
1=1=0=1
1=1=0=1
1=1=0=1
1=1=0=1
1=1=0=1
1=1=0=1
1=1=0=1
1=1=0=1
1=1=0=1
1=1=0=1
1=1=0=1
1=1=0=1
1=1=0=1
1=1=0=1
1=1=0=1
1=1=0=1
1=1=0=1
1=1=0=1
1=1=0=1
1=1=0=1
1=1=0=1
1=1=0=1
1=1=0=1
1=1=0=1
1=1=0=1
1=1=0=1
1=1=0=1
1=1=0=1
1=1=0=1
1=1=0=1
1=1=0=1
1=1=0=1
1=1=0=1
1=1=0=1
1=1=0=1
1=1=0=1
1=1=0=1
1=1=0=1
1=1=0=1
1=1=0=1
1=1=0=1
1=1=0=1
1=1=0=1
1=1=0=1
1=1=0=1
1=1=0=1
1=1=0=1
1=1=0=1
1=1=0=1
1=1=0=1
1=1=0=1
1=1=0=1
1=1=0=1
1=1=0=1
1=1=0=1
1=1=0=1
1=1=0=1
1=1=0=1
1=1=0=1
1=1=0=1
1=1=0=1
1=1=0=1
1=1=0=1
1=1=0=1
1=1=0=1
1=1=0=1
1=1=0=1
1=1=0=1
1=1=0=1
1=1=0=1
1=1=0=1
1=1=0=1
1=1=0=1
1=1=0=1
1=1=0=1
1=1=0=1
1=1=0=1
1=1=0=1
1=1=0=1
1=1=0=1
1=1=0=1
1=1=0=1
1=1=0=1
1=1=0=1
1=1=0=1
1=1=0=1
1=1=0=1
1=1=0=1
1=1=0=1
1=1=0=1
1=1=0=1
1=1=0=1
1=1=0=1
1=1=0=1
1=1=0=1
1=1=0=1
1=1=0=1
1=1=0=1
1=1=0=1
1=1=0=1
1=1=0=1
1=1=0=1
1=1=0=1
1=1=0=1
1=1=0=1
1=1=0=1
1=1=0=1
1=1=0=1
1=1=0=1
1=1=0=1
1=1=0=1
1=1=0=1
1=1=0=1
1=1=0=1
1=1=0=1
1=1=0=1
1=1=0=1
1=1=0=1
1=1=0=1
1=1=0=1
1=1=0=1
1=1=0=1
1=1=0=1
1=1=0=1
1=1=0=1
1=1=0=1
1=1=0=1
1=1=0=1
1=1=0=1
1=1=0=1
1=1=0=1
1=1=0=1
1=1=0=1
1=1=0=1
1=1=0=1
1=1=0=1
1=1=0=1
1=1=0=1
1=1=0=1
1=1=0=1
1=1=0=1
1=1=0=1
1=1=0=1
1=1=0=1
1=1=0=1
1=1=0=1
1=1=0=1
1=1=0=1
1=1=0=1
1=1=0=1
1=1=0=1
1=1=0=1
1=1=0=1
1=1=0=1
1=1=0=1
1=1=0=1
1=1=0=1
1=1=0=1
1=1=0=1
1=1=0=1
1=1=0=1
1=1=0=1
1=1=0=1
1=1=0=1
1=1=0=1
1=1=0=1
1=1=0=1
1=1=0=1
1=1=0=1
1=1=0=1
1=1=0=1
1=1=0=1
1=1=0=1
1=1=0=1
1=1=0=1
1=1=0=1
1=1=0=1
1=1=0=1
1=1=0=1
1=1=0=1
1=1=0=1
1=1=0=1
1=1=0=1
1=1=0=1
1=1=0=1
1=1=0=1
1=1=0=1
1=1=0=1
1=1=0=1
1=1=0=1
1=1=0=1
1=1=0=1
1=1=0=1
1=1=0=1
1=1=0=1
1=1=0=1
1=1=0=1
1=1=0=1
1=1=0=1
1=1=0=1
1=1=0=1
1=1=0=1
1=1=0=1
1=1=0=1
1=1=0=1
1=1=0=1
1=1=0=1
1=1=0=1
1=1=0=1
1=1=0=1
1=1=0=1
1=1=0=1
1=1=0=1
1=1=0=1
1=1=0=1
1=1=0=1
1=1=0=1
1=1=0=1
1=1=0=1
1=1=0=1
1=1=0=1
1=1=0=1
1=1=0=1
1=1=0=1
1=1=0=1
1=1=0=1
1=1=0=1
1=1=0=1
1=1=0=1
1=1=0=1
1=1=0=1
1=1=0=1
1=1=0=1
1=1=0=1
1=1=0=1
1=1=0=1
1=1=0=1
1=1=0=1
1=1=0=1
1=1=0=1
1=1=0=1
1=1=0=1
1=1=0=1
1=1=0=1
1=1=0=1
1=1=0=1
1=1=0=1
1=1=0=1
1=1=0=1
1=1=0=1
1=1=0=1
1=1=0=1
1=1=0=1
1=1=0=1
1=1=0=1
1=1=0=1
1=1=0=1
1=1=0=1
1=1=0=1
1=1=0=1
1=1=0=1
1=1=0=1
1=1=0=1
1=1=0=1
1=1=0=1
1=1=0=1
1=1=0=1
1=1=0=1
1=1=0=1
1=1=0=1
1=1=0=1
1=1=0=1
1=1=0=1
1=1=0=1
1=1=0=1
1=1=0=1
1=1=0=1
1=1=0=1
1=1=0=1
1=1=0=1
1=1=0=1
1=1=0=1
1=1=0=1
1=1=0=1
1=1=0=1
1=1=0=1
1=1=0=1
1=1=0=1
1=1=0=1
1=1=0=1
1=1=0=1
1=1=0=1
1=1=0=1
1=1=0=1
1=1=0=1
1=1=0=1
1=1=0=1
1=1=0=1
1=1=0=1
1=1=0=1
1=1=0=1
1=1=0=1
1=1=0=1
1=1=0=1
1=1=0=1
1=1=0=1
1=1=0=1
1=1=0=1
1=1=0=1
1=1=0=1
1=1=0=1
1=1=0=1
1=1=0=1
1=1=0=1
1=1=0=1
1=1=0=1
1=1=0=1
1=1=0=1
1=1=0=1
1=1=0=1
1=1=0=1
1=1=0=1
1=1=0=1
1=1=0=1
1=1=0=1
1=1=0=1
1=1=0=1
1=1=0=1
1=1=0=1
1=1=0=1
1=1=0=1
1=1=0=1
1=1=0=1
1=1=0=1
1=1=0=1
1=1=0=1
1=1=0=1
1=1=0=1
1=1=0=1
1=1=0=1
1=1=0=1
1=1=0=1
1=1=0=1
1=1=0=1
1=1=0=1
1=1=0=1
1=1=0=1
1=1=0=1
1=1=0=1
1=1=0=1
1=1=0=1
1=1=0=1
1=1=0=1
1=1=0=1
1=1=0=1
1=1=0=1
1=1=0=1
1=1=0=1
1=1=0=1
1=1=0=1
1=1=0=1
1=1=0=1
1=1=0=1
1=1=0=1
1=1=0=1
1=1=0=1
1=1=0=1
1=1=0=1
1=1=0=1
1=1=0=1
1=1=0=1
1=1=0=1
1=1=0=1
1=1=0=1
1=1=0=1
1=1=0=1
1=1=0=1
1=1=0=1
1=1=0=1
1=1=0=1
1=1=0=1
1=1=0=1
1=1=0=1
1=1=0=1
1=1=0=1
1=1=0=1
1=1=0=1
1=1=0=1
1=1=0=1
1=1=0=1
1=1=0=1
1=1=0=1
1=1=0=1
1=1=0=1
1=1=0=1
1=1=0=1
1=1=0=1
1=1=0=1
1=1=0=1
1=1=0=1
1=1=0=1
1=1=0=1
1=1=0=1
1=1=0=1
1=1=0=1
1=1=0=1
1=1=0=1
1=1=0=1
1=1=0=1
1=1=0=1
1=1=0=1
1=1=0=1
1=1=0=1
1=1=0=1
1=1=0=1
1=1=0=1
1=1=0=1
1=1=0=1
1=1=0=1
1=1=0=1
1=1=0=1
1=1=0=1
1=1=0=1
1=1=0=1
1=1=0=1
1=1=0=1
1=1=0=1
1=1=0=1
1=1=0=1
1=1=0=1
1=1=0=1
1=1=0=1
1=1=0=1
1=1=0=1
1=1=0=1
1=1=0=1
1=1=0=1
1=1=0=1
1=1=0=1
1=1=0=1
1=1=0=1
1=1=0=1
1=1=0=1
1=1=0=1
1=1=0=1
1=1=0=1
1=1=0=1
1=1=0=1
1=1=0=1
1=1=0=1
1=1=0=1
1=1=0=1
1=1=0=1
1=1=0=1
1=1=0=1
1=1=0=1
1=1=0=1
1=1=0=1
1=1=0=1
1=1=0=1
1=1=0=1
1=1=0=1
1=1=0=1
1=1=0=1
1=1=0=1
1=1=0=1
1=1=0=1
1=1=0=1
1=1=0=1
1=1=0=1
1=1=0=1
1=1=0=1
1=1=0=1
1=1=0=1
1=1=0=1
1=1=0=1
1=1=0=1
1=1=0=1
1=1=0=1
1=1=0=1
1=1=0=1
1=1=0=1
1=1=0=1
1=1=0=1
1=1=0=1
1=1=0=1
1=1=0=1
1=1=0=1
1=1=0=1
1=1=0=1
1=1=0=1
1=1=0=1
1=1=0=1
1=1=0=1
1=1=0=1
1=1=0=1
1=1=0=1
1=1=0=1
1=1=0=1
1=1=0=1
1=1=0=1
1=1=0=1
1=1=0=1
1=1=0=1
1=1=0=1
1=1=0=1
1=1=0=1
1=1=0=1
1=1=0=1
1=1=0=1
1=1=0=1
1=1=0=1
1=1=0=1
1=1=0=1
1=1=0=1
1=1=0=1
1=1=0=1
1=1=0=1
1=1=0=1
1=1=0=1
1=1=0=1
1=1=0=1
1=1=0=1
1=1=0=1
1=1=0=1
1=1=0=1
1=1=0=1
1=1=0=1
1=1=0=1
1=1=0=1
1=1=0=1
1=1=0=1
1=1=0=1
1=1=0=1
1=1=0=1
1=1=0=1
1=1=0=1
1=1=0=1
1=1=0=1
1=1=0=1
1=1=0=1
1=1=0=1
1=1=0=1
1=1=0=1
1=1=0=1
1=1=0=1
1=1=0=1
1=1=0=1
1=1=0=1
1=1=0=1
1=1=0=1
1=1=0=1
1=1=0=1
1=1=0=1
1=1=0=1
1=1=0=1
1=1=0=1
1=1=0=1
1=1=0=1
1=1=0=1
1=1=0=1
1=1=0=1
1=1=0=1
1=1=0=1
1=1=0=1
1=1=0=1
1=1=0=1
1=1=0=1
1=1=0=1
1=1=0=1
1=1=0=1
1=1=0=1
1=1=0=1
1=1=0=1
1=1=0=1
1=1=0=1
1=1=0=1
1=1=0=1
1=1=0=1
1=1=0=1
1=1=0=1
1=1=0=1
1=1=0=1
1=1=0=1
1=1=0=1
1=1=0=1
1=1=0=1
1=1=0=1
1=1=0=1
1=1=0=1
1=1=0=1
1=1=0=1
1=1=0=1
1=1=0=1
1=1=0=1
1=1=0=1
1=1=0=1
1=1=0=1
1=1=0=1
1=1=0=1
1=1=0=1
1=1=0=1
1=1=0=1
1=1=0=1
1=1=0=1
1=1=0=1
1=1=0=1
1=1=0=1
1=1=0=1
1=1=0=1
1=1=0=1
1=1=0=1
1=1=0=1
1=1=0=1
1=1=0=1
1=1=0=1
1=1=0=1
1=1=0=1
1=1=0=1
1=1=0=1
1=1=0=1
1=1=0=1
1=1=0=1
1=1=0=1
1=1=0=1
1=1=0=1
1=1=0=1
1=1=0=1
1=1=0=1
1=1=0=1
1=1=0=1
1=1=0=1
1=1=0=1
1=1=0=1
1=1=0=1
1=1=0=1
1=1=0=1
1=1=0=1
1=1=0=1
1=1=0=1
1=1=0=1
1=1=0=1
1=1=0=1
1=1=0=1
1=1=0=1
1=1=0=1
1=1=0=1
1=1=0=1
1=1=0=1
1=1=0=1
1=1=0=1
1=1=0=1
1=1=0=1
1=1=0=1
1=1=0=1
1=1=0=1
1=1=0=1
1=1=0=1
1=1=0=1
1=1=0=1
1=1=0=1
1=1=0=1
1=1=0=1
1=1=0=1
1=1=0=1
1=1=0=1
1=1=0=1
1=1=0=1
1=1=0=1
1=1=0=1
1=1=0=1
1=1=0=1
1=1=0=1
1=1=0=1
1=1=0=1
1=1=0=1
1=1=0=1
1=1=0=1
1=1=0=1
1=1=0=1
1=1=0=1
1=1=0=1
1=1=0=1
1=1=0=1
1=1=0=1
1=1=0=1
1=1=0=1
1=1=0=1
1=1=0=1
1=1=0=1
1=1=0=1
1=1=0=1
1=1=0=1
1=1=0=1
1=1=0=1
1=1=0=1
1=1=0=1
1=1=0=1
1=1=0=1
1=1=0=1
1=1=0=1
1=1=0=1
1=1=0=1
1=1=0=1
1=1=0=1
1=1=0=1
1=1=0=1
1=1=0=1
1=1=0=1
1=1=0=1
1=1=0=1
1=1=0=1
1=1=0=1
1=1=0=1
1=1=0=1
1=1=0=1
1=1=0=1
1=1=0=1
1=1=0=1
1=1=0=1
1=1=0=1
1=1=0=1
1=1=0=1
1=1=0=1
1=1=0=1
1=1=0=1
1=1=0=1
1=1=0=1
1=1=0=1
1=1=0=1
1=1=0=1
1=1=0=1
1=1=0=1
1=1=0=1
1=1=0=1
1=1=0=1
1=1=0=1
1=1=0=1
1=1=0=1
1=1=0=1
1=1=0=1
1=1=0=1
1=1=0=1
1=1=0=1
1=1=0=1
1=1=0=1
1=1=0=1
1=1=0=1
1=1=0=1
1=1=0=1
1=1=0=1
1=1=0=1
1=1=0=1
1=1=0=1
1=1=0=1
1=1=0=1
1=1=0=1
1=1=0=1
1=1=0=1
1=1=0=1
1=1=0=1
1=1=0=1
1=1=0=1
1=1=0=1
1=1=0=1
1=1=0=1
1=1=0=1
1=1=0=1
1=1=0=1
1=1=0=1
1=1=0=1
1=1=0=1
1=1=0=1
1=1=0=1
1=1=0=1
1=1=0=1
1=1=0=1
1=1=0=1
1=1=0=1
1=1=0=1
1=1=0=1
1=1=0=1
1=1=0=1
1=1=0=1
1=1=0=1
1=1=0=1
1=1=0=1
1=1=0=1
1=1=0=1
1=1=0=1
1=1=0=1
1=1=0=1
1=1=0=1
1=1=0=1
1=1=0=1
1=1=0=1
1=1=0=1
1=1=0=1
1=1=0=1
1=1=0=1
1=1=0=1
1=1=0=1
1=1=0=1
1=1=0=1
1=1=0=1
1=1=0=1
1=1=0=1
1=1=0=1
1=1=0=1
1=1=0=1
1=1=0=1
1=1=0=1
1=1=0=1
1=1=0=1
1=1=0=1
1=1=0=1
1=1=0=1
1=1=0=1
1=1=0=1
1=1=0=1
1=1=0=1
1=1=0=1
1=1=0=1
1=1=0=1
1=1=0=1
1=1=0=1
1=1=0=1
1=1=0=1
1=1=0=1
1=1=0=1
1=1=0=1
1=1=0=1
1=1=0=1
1=1=0=1
1=1=0=1
1=1=0=1
1=1=0=1
1=1=0=1
1=1=0=1
1=1=0=1
1=1=0=1
1=1=0=1
1=1=0=1
1=1=0=1
1=1=0=1
1=1=0=1
1=1=0=1
1=1=0=1
1=1=0=1
1=1=0=1
1=1=0=1
1=1=0=1
1=1=0=1
1=1=0=1
1=1=0=1
1=1=0=1
1=1=0=1
1=1=0=1
1=1=0=1
1=1=0=1
1=1=0=1
1=1=0=1
1=1=0=1
1=1=0=1
1=1=0=1
1=1=0=1
1=1=0=1
1=1=0=1
1=1=0=1
1=1=0=1
1=1=0=1
1=1=0=1
1=1=0=1
1=1=0=1
1=1=0=1
1=1=0=1
1=1=0=1
1=1=0=1
1=1=0=1
1=1=0=1
1=1=0=1
1=1=0=1
1=1=0=1
1=1=0=1
1=1=0=1
1=1=0=1
1=1=0=1
1=1=0=1
1=1=0=1
1=1=0=1
1=1=0=1
1=1=0=1
1=1=0=1
1=1=0=1
1=1=0=1
1=1=0=1
1=1=0=1
1=1=0=1
1=1=0=1
1=1=0=1
1=1=0=1
1=1=0=1
1=1=0=1
1=1=0=1
1=1=0=1
1=1=0=1
1=1=0=1
1=1=0=1
1=1=0=1
1=1=0=1
1=1=0=1
1=1=0=1
1=1=0=1
1=1=0=1
1=1=0=1
1=1=0=1
1=1=0=1
1=1=0=1
1=1=0=1
1=1=0=1
1=1=0=1
1=1=0=1
1=1=0=1
1=1=0=1
1=1=0=1
1=1=0=1
1=1=0=1
1=1=0=1
1=1=0=1
1=1=0=1
1=1=0=1
1=1=0=1
1=1=0=1
1=1=0=1
1=1=0=1
1=1=0=1
1=1=0=1
1=1=0=1
1=1=0=1
1=1=0=1
1=1=0=1
1=1=0=1
1=1=0=1
1=1=0=1
1=1=0=1
1=1=0=1
1=1=0=1
1=1=0=1
1=1=0=1
1=1=0=1
1=1=0=1
1=1=0=1
1=1=0=1
1=1=0=1
1=1=0=1
1=1=0=1
1=1=0=1
1=1=0=1
1=1=0=1
1=1=0=1
1=1=0=1
1=1=0=1
1=1=0=1
1=1=0=1
1=1=0=1
1=1=0=1
1=1=0=1
1=1=0=1
1=1=0=1
1=1=0=1
1=1=0=1
1=1=0=1
1=1=0=1
1=1=0=1
1=1=0=1
1=1=0=1
1=1=0=1
1=1=0=1
1=1=0=1
1=1=0=1
1=1=0=1
1=1=0=1
1=1=0=1
1=1=0=1
1=1=0=1
1=1=0=1
1=1=0=1
1=1=0=1
1=1=0=1
1=1=0=1
1=1=0=1
1=1=0=1
1=1=0=1
1=1=0=1
1=1=0=1
1=1=0=1
1=1=0=1
1=1=0=1
1=1=0=1
1=1=0=1
1=1=0=1
1=1=0=1
1=1=0=1
1=1=0=1
1=1=0=1
1=1=0=1
1=1=0=1
1=1=0=1
1=1=0=1
1=1=0=1
1=1=0=1
1=1=0=1
1=1=0=1
1=1=0=1
1=1=0=1
1=1=0=1
1=1=0=1
1=1=0=1
1=1=0=1
1=1=0=1
1=1=0=1
1=1=0=1
1=1=0=1
1=1=0=1
1=1=0=1
1=1=0=1
1=1=0=1
1=1=0=1
1=1=0=1
1=1=0=1
1=1=0=1
1=1=0=1
1=1=0=1
1=1=0=1
1=1=0=1
1=1=0=1
1=1=0=1
1=1=0=1
1=1=0=1
1=1=0=1
1=1=0=1
1=1=0=1
1=1=0=1
1=1=0=1
1=1=0=1
1=1=0=1
1=1=0=1
1=1=0=1
1=1=0=1
1=1=0=1
1=1=0=1
1=1=0=1
1=1=0=1
1=1=0=1
1=1=0=1
1=1=0=1
1=1=0=1
1=1=0=1
1=1=0=1
1=1=0=1
1=1=0=1
1=1=0=1
1=1=0=1
1=1=0=1
1=1=0=1
1=1=0=1
1=1=0=1
1=1=0=1
1=1=0=1
1=1=0=1
1=1=0=1
1=1=0=1
1=1=0=1
1=1=0=1
1=1=0=1
1=1=0=1
1=1=0=1
1=1=0=1
1=1=0=1
1=1=0=1
1=1=0=1
1=1=0=1
1=1=0=1
1=1=0=1
1=1=0=1
1=1=0=1
1=1=0=1
1=1=0=1
1=1=0=1
1=1=0=1
1=1=0=1
1=1=0=1
1=1=0=1
1=1=0=1
1=1=0=1
1=1=0=1
1=1=0=1
1=1=0=1
1=1=0=1
1=1=0=1
1=1=0=1
1=1=0=1
1=1=0=1
1=1=0=1
1=1=0=1
1=1=0=1
1=1=0=1
1=1=0=1
1=1=0=1
1=1=0=1
1=1=0=1
1=1=0=1
1=1=0=1
1=1=0=1
1=1=0=1
1=1=0=1
1=1=0=1
1=1=0=1
1=1=0=1
1=1=0=1
1=1=0=1
1=1=0=1
1=1=0=1
1=1=0=1
1=1=0=1
1=1=0=1
1=1=0=1
1=1=0=1
1=1=0=1
1=1=0=1
1=1=0=1
1=1=0=1
1=1=0=1
1=1=0=1
1=1=0=1
1=1=0=1
1=1=0=1
1=1=0=1
1=1=0=1
1=1=0=1
1=1=0=1
1=1=0=1
1=1=0=1
1=1=0=1
1=1=0=1
1=1=0=1
1=1=0=1
1=1=0=1
1=1=0=1
1=1=0=1
1=1=0=1
1=1=0=1
1=1=0=1
1=1=0=1
1=1=0=1
1=1=0=1
1=1=0=1
1=1=0=1
1=1=0=1
1=1=0=1
1=1=0=1
1=1=0=1
1=1=0=1
1=1=0=1
1=1=0=1
1=1=0=1
1=1=0=1
1=1=0=1
1=1=0=1
1=1=0=1
1=1=0=1
1=1=0=1
1=1=0=1
1=1=0=1
1=1=0=1
1=1=0=1
1=1=0=1
1=1=0=1
1=1=0=1
1=1=0=1
1=1=0=1
1=1=0=1
1=1=0=1
1=1=0=1
1=1=0=1
1=1=0=1
1=1=0=1
1=1=0=1
1=1=0=1
1=1=0=1
1=1=0=1
1=1=0=1
1=1=0=1
1=1=0=1
1=1=0=1
1=1=0=1
1=1=0=1
1=1=0=1
1=1=0=1
1=1=0=1
1=1=0=1
1=1=0=1
1=1=0=1
1=1=0=1
1=1=0=1
1=1=0=1
1=1=0=1
1=1=0=1
1=1=0=1
1=1=0=1
1=1=0=1
1=1=0=1
1=1=0=1
1=1=0=1
1=1=0=1
1=1=0=1
1=1=0=1
1=1=0=1
1=1=0=1
1=1=0=1
1=1=0=1
1=1=0=1
1=1=0=1
1=1=0=1
1=1=0=1
1=1=0=1
1=1=0=1
1=1=0=1
1=1=0=1
1=1=0=1
1=1=0=1
1=1=0=1
1=1=0=1
1=1=0=1
1=1=0=1
1=1=0=1
1=1=0=1
1=1=0=1
1=1=0=1
1=1=0=1
1=1=0=1
1=1=0=1
1=1=0=1
1=1=0=1
1=1=0=1
1=1=0=1
1=1=0=1
1=1=0=1
1=1=0=1
1=1=0=1
1=1=0=1
1=1=0=1
1=1=0=1
1=1=0=1
1=1=0=1
1=1=0=1
1=1=0=1
1=1=0=1
1=1=0=1
1=1=0=1
1=1=0=1
1=1=0=1
1=1=0=1
1=1=0=1
1=1=0=1
1=1=0=1
1=1=0=1
1=1=0=1
1=1=0=1
1=1=0=1
1=1=0=1
1=1=0=1
1=1=0=1
1=1=0=1
1=1=0=1
1=1=0=1
1=1=0=1
1=1=0=1
1=1=0=1
1=1=0=1
1=1=0=1
1=1=0=1
1=1=0=1
1=1=0=1
1=1=0=1
1=1=0=1
1=1=0=1
1=1=0=1
1=1=0=1
1=1=0=1
1=1=0=1
1=1=0=1
1=1=0=1
1=1=0=1
1=1=0=1
1=1=0=1
1=1=0=1
1=1=0=1
1=1=0=1
1=1=0=1
1=1=0=1
1=1=0=1
1=1=0=1
1=1=0=1
1=1=0=1
1=1=0=1
1=1=0=1
1=1=0=1
1=1=0=1
1=1=0=1
1=1=0=1
1=1=0=1
1=1=0=1
1=1=0=1
1=1=0=1
1=1=0=1
1=1=0=1
1=1=0=1
1=1=0=1
1=1=0=1
1=1=0=1
1=1=0=1
1=1=0=1
1=1=0=1
1=1=0=1
1=1=0=1
1=1=0=1
1=1=0=1
1=1=0=1
1=1=0=1
1=1=0=1
1=1=0=1
1=1=0=1
1=1=0=1
1=1=0=1
1=1=0=1
1=1=0=1
1=1=0=1
1=1=0=1
1=1=0=1
1=1=0=1
1=1=0=1
1=1=0=1
1=1=0=1
1=1=0=1
1=1=0=1
1=1=0=1
1=1=0=1
1=1=0=1
1=1=0=1
1=1=0=1
1=1=0=1
1=1=0=1
1=1=0=1
1=1=0=1
1=1=0=1
1=1=0=1
1=1=0=1
1=1=0=1
1=1=0=1
1=1=0=1
1=1=0=1
1=1=0=1
1=1=0=1
1=1=0=1
1=1=0=1
1=1=0=1
1=1=0=1
1=1=0=1
1=1=0=1
1=1=0=1
1=1=0=1
1=1=0=1
1=1=0=1
1=1=0=1
1=1=0=1
1=1=0=1
1=1=0=1
1=1=0=1
1=1=0=1
1=1=0=1
1=1=0=1
1=1=0=1
1=1=0=1
1=1=0=1
1=1=0=1
1=1=0=1
1=1=0=1
1=1=0=1
1=1=0=1
1=1=0=1
1=1=0=1
1=1=0=1
1=1=0=1
1=1=0=1
1=1=0=1
1=1=0=1
1=1=0=1
1=1=0=1
1=1=0=1
1=1=0=1
1=1=0=1
1=1=0=1
1=1=0=1
1=1=0=1
1=1=0=1
1=1=0=1
1=1=0=1
1=1=0=1
1=1=0=1
1=1=0=1
1=1=0=1
1=1=0=1
1=1=0=1
1=1=0=1
1=1=0=1
1=1=0=1
1=1=0=1
1=1=0=1
1=1=0=1
1=1=0=1
1=1=0=1
1=1=0=1
1=1=0=1
1=1=0=1
1=1=0=1
1=1=0=1
1=1=0=1
1=1=0=1
1=1=0=1
1=1=0=1
1=1=0=1
1=1=0=1
1=1=0=1
1=1=0=1
1=1=0=1
1=1=0=1
1=1=0=1
1=1=0=1
1=1=0=1
1=1=0=1
1=1=0=1
1=1=0=1
1=1=0=1
1=1=0=1
1=1=0=1
1=1=0=1
1=1=0=1
1=1=0=1
1=1=0=1
1=1=0=1
1=1=0=1
1=1=0=1
1=1=0=1
1=1=0=1
1=1=0=1
1=1=0=1
1=1=0=1
1=1=0=1
1=1=0=1
1=1=0=1
1=1=0=1
1=1=0=1
1=1=0=1
1=1=0=1
1=1=0=1
1=1=0=1
1=1=0=1
1=1=0=1
1=1=0=1
1=1=0=1
1=1=0=1
1=1=0=1
1=1=0=1
1=1=0=1
1=1=0=1
1=1=0=1
1=1=0=1
1=1=0=1
1=1=0=1
1=1=0=1
1=1=0=1
1=1=0=1
1=1=0=1
1=1=0=1
1=1=0=1
1=1=0=1
1=1=0=1
1=1=0=1
1=1=0=1
1=1=0=1
1=1=0=1
1=1=0=1
1=1=0=1
1=1=0=1
1=1=0=1
1=1=0=1
1=1=0=1
1=1=0=1
1=1=0=1
1=1=0=1
1=1=0=1
1=1=0=1
1=1=0=1
1=1=0=1
1=1=0=1
1=1=0=1
1=1=0=1
1=1=0=1
1=1=0=1
1=1=0=1
1=1=0=1
1=1=0=1
1=1=0=1
1=1=0=1
1=1=0=1
1=1=0=1
1=1=0=1
1=1=0=1
1=1=0=1
1=1=0=1
1=1=0=1
1=1=0=1
1=1=0=1
1=1=0=1
1=1=0=1
1=1=0=1
1=1=0=1
1=1=0=1
1=1=0=1
1=1=0=1
1=1=0=1
1=1=0=1
1=1=0=1
1=1=0=1
1=1=0=1
1=1=0=1
1=1=0=1
1=1=0=1
1=1=0=1
1=1=0=1
1=1=0=1
1=1=0=1
1=1=0=1
1=1=0=1
1=1=0=1
1=1=0=1
1=1=0=1
1=1=0=1
1=1=0=1
1=1=0=1
1=1=0=1
1=1=0=1
1=1=0=1
1=1=0=1
1=1=0=1
1=1=0=1
1=1=0=1
1=1=0=1
1=1=0=1
1=1=0=1
1=1=0=1
1=1=0=1
1=1=0=1
1=1=0=1
1=1=0=1
1=1=0=1
1=1=0=1
1=1=0=1
1=1=0=1
1=1=0=1
1=1=0=1
1=1=0=1
1=1=0=1
1=1=0=1
1=1=0=1
1=1=0=1
1=1=0=1
1=1=0=1
1=1=0=1
1=1=0=1
1=1=0=1
1=1=0=1
1=1=0=1
1=1=0=1
1=1=0=1
1=1=0=1
1=1=0=1
1=1=0=1
1=1=0=1
1=1=0=1
1=1=0=1
1=1=0=1
1=1=0=1
1=1=0=1
1=1=0=1
1=1=0=1
1=1=0=1
1=1=0=1
1=1=0=1
1=1=0=1
1=1=0=1
1=1=0=1
1=1=0=1
1=1=0=1
1=1=0=1
1=1=0=1
1=1=0=1
1=1=0=1
1=1=0=1
1=1=0=1
1=1=0=1
1=1=0=1
1=1=0=1
1=1=0=1
1=1=0=1
1=1=0=1
1=1=0=1
1=1=0=1
1=1=0=1
1=1=0=1
1=1=0=1
1=1=0=1
1=1=0=1
1=1=0=1
1=1=0=1
1=1=0=1
1=1=0=1
1=1=0=1
1=1=0=1
1=1=0=1
1=1=0=1
1=1=0=1
1=1=0=1
1=1=0=1
1=1=0=1
1=1=0=1
1=1=0=1
1=1=0=1
1=1=0=1
1=1=0=1
1=1=0=1
1=1=0=1
1=1=0=1
1=1=0=1
1=1=0=1
1=1=0=1
1=1=0=1
1=1=0=1
1=1=0=1
1=1=0=1
1=1=0=1
1=1=0=1
1=1=0=1
1=1=0=1
1=1=0=1
1=1=0=1
1=1=0=1
1=1=0=1
1=1=0=1
1=1=0=1
1=1=0=1
1=1=0=1
1=1=0=1
1=1=0=1
1=1=0=1
1=1=0=1
1=1=0=1
1=1=0=1
1=1=0=1
1=1=0=1
1=1=0=1
1=1=0=1
1=1=0=1
1=1=0=1
1=1=0=1
1=1=0=1
1=1=0=1
1=1=0=1
1=1=0=1
1=1=0=1
1=1=0=1
1=1=0=1
1=1=0=1
1=1=0=1
1=1=0=1
1=1=0=1
1=1=0=1
1=1=0=1
1=1=0=1
1=1=0=1
1=1=0=1
1=1=0=1
1=1=0=1
1=1=0=1
1=1=0=1
1=1=0=1
1=1=0=1
1=1=0=1
1=1=0=1
1=1=0=1
1=1=0=1
1=1=0=1
1=1=0=1
1=1=0=1
1=1=0=1
1=1=0=1
1=1=0=1
1=1=0=1
1=1=0=1
1=1=0=1
1=1=0=1
1=1=0=1
1=1=0=1
1=1=0=1
1=1=0=1
1=1=0=1
1=1=0=1
1=1=0=1
1=1=0=1
1=1=0=1
1=1=0=1
1=1=0=1
1=1=0=1
1=1=0=1
1=1=0=1
1=1=0=1
1=1=0=1
1=1=0=1
1=1=0=1
1=1=0=1
1=1=0=1
1=1=0=1
1=1=0=1
1=1=0=1
1=1=0=1
1=1=0=1
1=1=0=1
1=1=0=1
1=1=0=1
1=1=0=1
1=1=0=1
1=1=0=1
1=1=0=1
1=1=0=1
1=1=0=1
1=1=0=1
1=1=0=1
1=1=0=1
1=1=0=1
1=1=0=1
1=1=0=1
1=1=0=1
1=1=0=1
1=1=0=1
1=1=0=1
1=1=0=1
1=1=0=1
1=1=0=1
1=1=0=1
1=1=0=1
1=1=0=1
1=1=0=1
1=1=0=1
1=1=0=1
1=1=0=1
1=1=0=1
1=1=0=1
1=1=0=1
1=1=0=1
1=1=0=1
1=1=0=1
1=1=0=1
1=1=0=1
1=1=0=1
1=1=0=1
1=1=0=1
1=1=0=1
1=1=0=1
1=1=0=1
1=1=0=1
1=1=0=1
1=1=0=1
1=1=0=1
1=1=0=1
1=1=0=1
1=1=0=1
1=1=0=1
1=1=0=1
1=1=0=1
1=1=0=1
1=1=0=1
1=1=0=1
1=1=0=1
1=1=0=1
1=1=0=1
1=1=0=1
1=1=0=1
1=1=0=1
1=1=0=1
1=1=0=1
1=1=0=1
1=1=0=1
1=1=0=1
1=1=0=1
1=1=0=1
1=1=0=1
1=1=0=1
1=1=0=1
1=1=0=1
1=1=0=1
1=1=0=1
1=1=0=1
1=1=0=1
1=1=0=1
1=1=0=1
1=1=0=1
1=1=0=1
1=1=0=1
1=1=0=1
1=1=0=1
1=1=0=1
1=1=0=1
1=1=0=1
1=1=0=1
1=1=0=1
1=1=0=1
1=1=0=1
1=1=0=1
1=1=0=1
1=1=0=1
1=1=0=1
1=1=0=1
1=1=0=1
1=1=0=1
1=1=0=1
1=1=0=1
1=1=0=1
1=1=0=1
1=1=0=1
1=1=0=1
1=1=0=1
1=1=0=1
1=1=0=1
1=1=0=1
1=1=0=1
1=1=0=1
1=1=0=1
1=1=0=1
1=1=0=1
1=1=0=1
1=1=0=1
1=1=0=1
1=1=0=1
1=1=0=1
1=1=0=1
1=1=0=1
1=1=0=1
1=1=0=1
1=1=0=1
1=1=0=1
1=1=0=1
1=1=0=1
1=1=0=1
1=1=0=1
1=1=0=1
1=1=0=1
1=1=0=1
1=1=0=1
1=1=0=1
1=1=0=1
1=1=0=1
1=1=0=1
1=1=0=1
1=1=0=1
1=1=0=1
1=1=0=1
1=1=0=1
1=1=0=1
1=1=0=1
1=1=0=1
1=1=0=1
1=1=0=1
1=1=0=1
1=1=0=1
1=1=0=1
1=1=0=1
1=1=0=1
1=1=0=1
1=1=0=1
1=1=0=1
1=1=0=1
1=1=0=1
1=1=0=1
1=1=0=1
1=1=0=1
1=1=0=1
1=1=0=1
1=1=0=1
1=1=0=1
1=1=0=1
1=1=0=1
1=1=0=1
1=1=0=1
1=1=0=1
1=1=0=1
1=1=0=1
1=1=0=1
1=1=0=1
1=1=0=1
1=1=0=1
1=1=0=1
1=1=0=1
1=1=0=1
1=1=0=1
1=1=0=1
1=1=0=1
1=1=0=1
1=1=0=1
1=1=0=1
1=1=0=1
1=1=0=1
1=1=0=1
1=1=0=1
1=1=0=1
1=1=0=1
1=1=0=1
1=1=0=1
1=1=0=1
1=1=0=1
1=1=0=1
1=1=0=1
1=1=0=1
1=1=0=1
1=1=0=1
1=1=0=1
1=1=0=1
1=1=0=1
1=1=0=1
1=1=0=1
1=1=0=1
1=1=0=1
1=1=0=1
1=1=0=1
1=1=0=1
1=1=0=1
1=1=0=1
1=1=0=1
1=1=0=1
1=1=0=1
1=1=0=1
1=1=0=1
1=1=0=1
1=1=0=1
1=1=0=1
1=1=0=1
1=1=0=1
1=1=0=1
1=1=0=1
1=1=0=1
1=1=0=1
1=1=0=1
1=1=0=1
1=1=0=1
1=1=0=1
1=1=0=1
1=1=0=1
1=1=0=1
1=1=0=1
1=1=0=1
1=1=0=1
1=1=0=1
1=1=0=1
1=1=0=1
1=1=0=1
1=1=0=1
1=1=0=1
1=1=0=1
1=1=0=1
1=1=0=1
1=1=0=1
1=1=0=1
1=1=0=1
1=1=0=1
1=1=0=1
1=1=0=1
1=1=0=1
1=1=0=1
1=1=0=1
1=1=0=1
1=1=0=1
1=1=0=1
1=1=0=1
1=1=0=1
1=1=0=1
1=1=0=1
1=1=0=1
1=1=0=1
1=1=0=1
1=1=0=1
1=1=0=1
1=1=0=1
1=1=0=1
1=1=0=1
1=1=0=1
1=1=0=1
1=1=0=1
1=1=0=1
1=1=0=1
1=1=0=1
1=1=0=1
1=1=0=1
1=1=0=1
1=1=0=1
1=1=0=1
1=1=0=1
1=1=0=1
1=1=0=1
1=1=0=1
1=1=0=1
1=1=0=1
1=1=0=1
1=1=0=1
1=1=0=1
1=1=0=1
1=1=0=1
1=1=0=1
1=1=0=1
1=1=0=1
1=1=0=1
1=1=0=1
1=1=0=1
1=1=0=1
1=1=0=1
1=1=0=1
1=1=0=1
1=1=0=1
1=1=0=1
1=1=0=1
1=1=0=1
1=1=0=1
1=1=0=1
1=1=0=1
1=1=0=1
1=1=0=1
1=1=0=1
1=1=0=1
1=1=0=1
1=1=0=1
1=1=0=1
1=1=0=1
1=1=0=1
1=1=0=1
1=1=0=1
1=1=0=1
1=1=0=1
1=1=0=1
1=1=0=1
1=1=0=1
1=1=0=1
1=1=0=1
1=1=0=1
1=1=0=1
1=1=0=1
1=1=0=1
1=1=0=1
1=1=0=1
1=1=0=1
1=1=0=1
1=1=0=1
1=1=0=1
1=1=0=1
1=1=0=1
1=1=0=1
1=1=0=1
1=1=0=1
1=1=0=1
1=1=0=1
1=1=0=1
1=1=0=1
1=1=0=1
1=1=0=1
1=1=0=1
1=1=0=1
1=1=0=1
1=1=0=1
1=1=0=1
1=1=0=1
1=1=0=1
1=1=0=1
1=1=0=1
1=1=0=1
1=1=0=1
1=1=0=1
1=1=0=1
1=1=0=1
1=1=0=1
1=1=0=1
1=1=0=1
1=1=0=1
1=1=0=1
1=1=0=1
1=1=0=1
1=1=0=1
1=1=0=1
1=1=0=1
1=1=0=1
1=1=0=1
1=1=0=1
1=1=0=1
1=1=0=1
1=1=0=1
1=1=0=1
1=1=0=1
1=1=0=1
1=1=0=1
1=1=0=1
1=1=0=1
1=1=0=1
1=1=0=1
1=1=0=1
1=1=0=1
1=1=0=1
1=1=0=1
1=1=0=1
1=1=0=1
1=1=0=1
1=1=0=1
1=1=0=1
1=1=0=1
1=1=0=1
1=1=0=1
1=1=0=1
1=1=0=1
1=1=0=1
1=1=0=1
1=1=0=1
1=1=0=1
1=1=0=1
1=1=0=1
1=1=0=1
1=1=0=1
1=1=0=1
1=1=0=1
1=1=0=1
1=1=0=1
1=1=0=1
1=1=0=1
1=1=0=1
1=1=0=1
1=1=0=1
1=1=0=1
1=1=0=1
1=1=0=1
1=1=0=1
1=1=0=1
1=1=0=1
1=1=0=1
1=1=0=1
1=1=0=1
1=1=0=1
1=1=0=1
1=1=0=1
1=1=0=1
1=1=0=1
1=1=0=1
1=1=0=1
1=1=0=1
1=1=0=1
1=1=0=1
1=1=0=1
1=1=0=1
1=1=0=1
1=1=0=1
1=1=0=1
1=1=0=1
1=1=0=1
1=1=0=1
1=1=0=1
1=1=0=1
1=1=0=1
1=1=0=1
1=1=0=1
1=1=0=1
1=1=0=1
1=1=0=1
1=1=0=1
1=1=0=1
1=1=0=1
1=1=0=1
1=1=0=1
1=1=0=1
1=1=0=1
1=1=0=1
1=1=0=1
1=1=0=1
1=1=0=1
1=1=0=1
1=1=0=1
1=1=0=1
1=1=0=1
1=1=0=1
1=1=0=1
1=1=0=1
1=1=0=1
1=1=0=1
1=1=0=1
1=1=0=1
1=1=0=1
1=1=0=1
1=1=0=1
1=1=0=1
1=1=0=1
1=1=0=1
1=1=0=1
1=1=0=1
1=1=0=1
1=1=0=1
1=1=0=1
1=1=0=1
1=1=0=1
1=1=0=1
1=1=0=1
1=1=0=1
1=1=0=1
1=1=0=1
1=1=0=1
1=1=0=1
1=1=0=1
1=1=0=1
1=1=0=1
1=1=0=1
1=1=0=1
1=1=0=1
1=1=0=1
1=1=0=1
1=1=0=1
1=1=0=1
1=1=0=1
1=1=0=1
1=1=0=1
1=1=0=1
1=1=0=1
1=1=0=1
1=1=0=1
1=1=0=1
1=1=0=1
1=1=0=1
1=1=0=1
1=1=0=1
1=1=0=1
1=1=0=1
1=1=0=1
1=1=0=1
1=1=0=1
1=1=0=1
1=1=0=1
1=1=0=1
1=1=0=1
1=1=0=1
1=1=0=1
1=1=0=1
1=1=0=1
1=1=0=1
1=1=0=1
1=1=0=1
1=1=0=1
1=1=0=1
1=1=0=1
1=1=0=1
1=1=0=1
1=1=0=1
1=1=0=1
1=1=0=1
1=1=0=1
1=1=0=1
1=1=0=1
1=1=0=1
1=1=0=1
1=1=0=1
1=1=0=1
1=1=0=1
1=1=0=1
1=1=0=1
1=1=0=1
1=1=0=1
1=1=0=1
1=1=0=1
1=1=0=1
1=1=0=1
1=1=0=1
1=1=0=1
1=1=0=1
1=1=0=1
1=1=0=1
1=1=0=1
1=1=0=1
1=1=0=1
1=1=0=1
1=1=0=1
1=1=0=1
1=1=0=1
1=1=0=1
1=1=0=1
1=1=0=1
1=1=0=1
1=1=0=1
1=1=0=1
1=1=0=1
1=1=0=1
1=1=0=1
1=1=0=1
1=1=0=1
1=1=0=1
1=1=0=1
1=1=0=1
1=1=0=1
1=1=0=1
1=1=0=1
1=1=0=1
1=1=0=1
1=1=0=1
1=1=0=1
1=1=0=1
1=1=0=1
1=1=0=1
1=1=0=1
1=1=0=1
1=1=0=1
1=1=0=1
1=1=0=1
1=1=0=1
1=1=0=1
1=1=0=1
1=1=0=1
1=1=0=1
1=1=0=1
1=1=0=1
1=1=0=1
1=1=0=1
1=1=0=1
1=1=0=1
1=1=0=1
1=1=0=1
1=1=0=1
1=1=0=1
1=1=0=1
1=1=0=1
1=1=0=1
1=1=0=1
1=1=0=1
1=1=0=1
1=1=0=1
1=1=0=1
1=1=0=1
1=1=0=1
1=1=0=1
1=1=0=1
1=1=0=1
1=1=0=1
1=1=0=1
1=1=0=1
1=1=0=1
1=1=0=1
1=1=0=1
1=1=0=1
1=1=0=1
1=1=0=1
1=1=0=1
1=1=0=1
1=1=0=1
1=1=0=1
1=1=0=1
1=1=0=1
1=1=0=1
1=1=0=1
1=1=0=1
1=1=0=1
1=1=0=1
1=1=0=1
1=1=0=1
1=1=0=1
1=1=0=1
1=1=0=1
1=1=0=1
1=1=0=1
1=1=0=1
1=1=0=1
1=1=0=1
1=1=0=1
1=1=0=1
1=1=0=1
1=1=0=1
1=1=0=1
1=1=0=1
1=1=0=1
1=1=0=1
1=1=0=1
1=1=0=1
1=1=0=1
1=1=0=1
1=1=0=1
1=1=0=1
1=1=0=1
1=1=0=1
1=1=0=1
1=1=0=1
1=1=0=1
1=1=0=1
1=1=0=1
1=1=0=1
1=1=0=1
1=1=0=1
1=1=0=1
1=1=0=1
1=1=0=1
1=1=0=1
1=1=0=1
1=1=0=1
1=1=0=1
1=1=0=1
1=1=0=1
1=1=0=1
1=1=0=1
1=1=0=1
1=1=0=1
1=1=0=1
1=1=0=1
1=1=0=1
1=1=0=1
1=1=0=1
1=1=0=1
1=1=0=1
1=1=0=1
1=1=0=1
1=1=0=1
1=1=0=1
1=1=0=1
1=1=0=1
1=1=0=1
1=1=0=1
